MSci Project Data/100V.csv

Model,MSO44
Waveform Type,ANALOG
Horizontal Units,s
Sample Interval,8.00E-08
Record Length,5000
Zero Index,544
Vertical Units,V
ANALOG_Thumbnail,
,
TIME,CH1
-4.35E-05,8.81E-04
-4.34E-05,9.19E-04
-4.34E-05,1.04E-03
-4.33E-05,9.31E-04
-4.32E-05,5.75E-04
-4.31E-05,5.16E-04
-4.30E-05,7.19E-04
-4.30E-05,9.88E-04
-4.29E-05,1.13E-03
-4.28E-05,1.22E-03
-4.27E-05,8.75E-04
-4.26E-05,5.50E-04
-4.26E-05,7.34E-04
-4.25E-05,1.02E-03
-4.24E-05,1.11E-03
-4.23E-05,8.25E-04
-4.22E-05,5.03E-04
-4.22E-05,5.13E-04
-4.21E-05,7.69E-04
-4.20E-05,1.11E-03
-4.19E-05,1.24E-03
-4.18E-05,9.59E-04
-4.18E-05,6.94E-04
-4.17E-05,5.53E-04
-4.16E-05,5.53E-04
-4.15E-05,6.44E-04
-4.14E-05,7.94E-04
-4.14E-05,1.05E-03
-4.13E-05,1.21E-03
-4.12E-05,1.12E-03
-4.11E-05,8.44E-04
-4.10E-05,6.00E-04
-4.10E-05,4.06E-04
-4.09E-05,7.72E-04
-4.08E-05,1.04E-03
-4.07E-05,1.15E-03
-4.06E-05,8.81E-04
-4.06E-05,5.69E-04
-4.05E-05,7.56E-04
-4.04E-05,1.05E-03
-4.03E-05,1.07E-03
-4.02E-05,8.72E-04
-4.02E-05,7.28E-04
-4.01E-05,7.81E-04
-4.00E-05,9.06E-04
-3.99E-05,1.08E-03
-3.98E-05,1.02E-03
-3.98E-05,8.97E-04
-3.97E-05,6.31E-04
-3.96E-05,3.91E-04
-3.95E-05,5.06E-04
-3.94E-05,9.19E-04
-3.94E-05,1.12E-03
-3.93E-05,1.15E-03
-3.92E-05,9.69E-04
-3.91E-05,7.31E-04
-3.90E-05,5.25E-04
-3.90E-05,6.03E-04
-3.89E-05,8.72E-04
-3.88E-05,1.27E-03
-3.87E-05,1.20E-03
-3.86E-05,7.81E-04
-3.86E-05,4.91E-04
-3.85E-05,5.69E-04
-3.84E-05,9.72E-04
-3.83E-05,1.16E-03
-3.82E-05,1.01E-03
-3.82E-05,8.19E-04
-3.81E-05,7.09E-04
-3.80E-05,4.56E-04
-3.79E-05,4.53E-04
-3.78E-05,8.00E-04
-3.78E-05,1.27E-03
-3.77E-05,1.16E-03
-3.76E-05,9.59E-04
-3.75E-05,6.19E-04
-3.74E-05,5.47E-04
-3.74E-05,6.41E-04
-3.73E-05,7.38E-04
-3.72E-05,1.01E-03
-3.71E-05,1.21E-03
-3.70E-05,1.07E-03
-3.70E-05,8.22E-04
-3.69E-05,6.78E-04
-3.68E-05,7.16E-04
-3.67E-05,8.56E-04
-3.66E-05,9.94E-04
-3.66E-05,1.08E-03
-3.65E-05,8.66E-04
-3.64E-05,6.59E-04
-3.63E-05,7.41E-04
-3.62E-05,8.97E-04
-3.62E-05,1.06E-03
-3.61E-05,8.50E-04
-3.60E-05,6.50E-04
-3.59E-05,5.28E-04
-3.58E-05,7.66E-04
-3.58E-05,8.91E-04
-3.57E-05,9.53E-04
-3.56E-05,1.18E-03
-3.55E-05,8.88E-04
-3.54E-05,6.09E-04
-3.54E-05,7.38E-04
-3.53E-05,9.91E-04
-3.52E-05,1.14E-03
-3.51E-05,1.00E-03
-3.50E-05,6.06E-04
-3.50E-05,6.72E-04
-3.49E-05,7.94E-04
-3.48E-05,9.25E-04
-3.47E-05,9.41E-04
-3.46E-05,9.78E-04
-3.46E-05,8.91E-04
-3.45E-05,7.69E-04
-3.44E-05,6.72E-04
-3.43E-05,6.78E-04
-3.42E-05,8.06E-04
-3.42E-05,1.01E-03
-3.41E-05,1.08E-03
-3.40E-05,1.03E-03
-3.39E-05,7.69E-04
-3.38E-05,5.34E-04
-3.38E-05,4.28E-04
-3.37E-05,7.66E-04
-3.36E-05,1.14E-03
-3.35E-05,1.22E-03
-3.34E-05,9.41E-04
-3.34E-05,6.63E-04
-3.33E-05,6.75E-04
-3.32E-05,1.02E-03
-3.31E-05,1.12E-03
-3.30E-05,9.38E-04
-3.30E-05,7.19E-04
-3.29E-05,7.09E-04
-3.28E-05,7.06E-04
-3.27E-05,9.41E-04
-3.26E-05,1.05E-03
-3.26E-05,1.10E-03
-3.25E-05,7.34E-04
-3.24E-05,3.94E-04
-3.23E-05,4.06E-04
-3.22E-05,8.44E-04
-3.22E-05,1.23E-03
-3.21E-05,1.16E-03
-3.20E-05,1.00E-03
-3.19E-05,6.91E-04
-3.18E-05,4.78E-04
-3.18E-05,6.66E-04
-3.17E-05,1.06E-03
-3.16E-05,1.26E-03
-3.15E-05,9.69E-04
-3.14E-05,4.94E-04
-3.14E-05,3.97E-04
-3.13E-05,7.31E-04
-3.12E-05,1.25E-03
-3.11E-05,1.33E-03
-3.10E-05,9.28E-04
-3.10E-05,7.81E-04
-3.09E-05,6.50E-04
-3.08E-05,4.91E-04
-3.07E-05,5.25E-04
-3.06E-05,7.03E-04
-3.06E-05,1.09E-03
-3.05E-05,1.23E-03
-3.04E-05,1.06E-03
-3.03E-05,7.69E-04
-3.02E-05,5.97E-04
-3.02E-05,4.16E-04
-3.01E-05,6.72E-04
-3.00E-05,1.02E-03
-2.99E-05,1.13E-03
-2.98E-05,9.41E-04
-2.98E-05,5.72E-04
-2.97E-05,5.41E-04
-2.96E-05,9.13E-04
-2.95E-05,9.31E-04
-2.94E-05,9.31E-04
-2.94E-05,9.50E-04
-2.93E-05,8.75E-04
-2.92E-05,7.53E-04
-2.91E-05,8.88E-04
-2.90E-05,9.16E-04
-2.90E-05,9.63E-04
-2.89E-05,7.25E-04
-2.88E-05,5.81E-04
-2.87E-05,5.38E-04
-2.86E-05,8.03E-04
-2.86E-05,8.84E-04
-2.85E-05,8.94E-04
-2.84E-05,1.08E-03
-2.83E-05,7.94E-04
-2.82E-05,4.78E-04
-2.82E-05,5.94E-04
-2.81E-05,8.09E-04
-2.80E-05,1.13E-03
-2.79E-05,1.07E-03
-2.78E-05,6.94E-04
-2.78E-05,4.56E-04
-2.77E-05,4.66E-04
-2.76E-05,7.75E-04
-2.75E-05,1.10E-03
-2.74E-05,1.05E-03
-2.74E-05,8.84E-04
-2.73E-05,6.78E-04
-2.72E-05,4.78E-04
-2.71E-05,5.09E-04
-2.70E-05,8.03E-04
-2.70E-05,1.20E-03
-2.69E-05,1.14E-03
-2.68E-05,9.88E-04
-2.67E-05,6.13E-04
-2.66E-05,4.69E-04
-2.66E-05,4.09E-04
-2.65E-05,6.38E-04
-2.64E-05,1.07E-03
-2.63E-05,1.18E-03
-2.62E-05,1.03E-03
-2.62E-05,7.28E-04
-2.61E-05,6.53E-04
-2.60E-05,7.59E-04
-2.59E-05,8.75E-04
-2.58E-05,7.81E-04
-2.58E-05,8.25E-04
-2.57E-05,6.59E-04
-2.56E-05,6.97E-04
-2.55E-05,9.22E-04
-2.54E-05,1.03E-03
-2.54E-05,8.91E-04
-2.53E-05,5.88E-04
-2.52E-05,3.88E-04
-2.51E-05,5.03E-04
-2.50E-05,8.66E-04
-2.50E-05,9.78E-04
-2.49E-05,9.06E-04
-2.48E-05,8.75E-04
-2.47E-05,5.41E-04
-2.46E-05,4.28E-04
-2.46E-05,6.16E-04
-2.45E-05,9.22E-04
-2.44E-05,1.15E-03
-2.43E-05,9.47E-04
-2.42E-05,5.63E-04
-2.42E-05,5.59E-04
-2.41E-05,7.31E-04
-2.40E-05,8.78E-04
-2.39E-05,8.78E-04
-2.38E-05,8.69E-04
-2.38E-05,9.22E-04
-2.37E-05,8.34E-04
-2.36E-05,5.47E-04
-2.35E-05,4.47E-04
-2.34E-05,6.63E-04
-2.34E-05,1.06E-03
-2.33E-05,1.11E-03
-2.32E-05,8.41E-04
-2.31E-05,5.66E-04
-2.30E-05,4.13E-04
-2.30E-05,5.22E-04
-2.29E-05,7.50E-04
-2.28E-05,1.04E-03
-2.27E-05,1.13E-03
-2.26E-05,9.19E-04
-2.26E-05,4.88E-04
-2.25E-05,4.38E-04
-2.24E-05,8.19E-04
-2.23E-05,9.69E-04
-2.22E-05,9.97E-04
-2.22E-05,8.19E-04
-2.21E-05,7.16E-04
-2.20E-05,5.00E-04
-2.19E-05,6.63E-04
-2.18E-05,7.88E-04
-2.18E-05,8.53E-04
-2.17E-05,7.66E-04
-2.16E-05,5.53E-04
-2.15E-05,4.25E-04
-2.14E-05,5.94E-04
-2.14E-05,8.91E-04
-2.13E-05,9.97E-04
-2.12E-05,1.08E-03
-2.11E-05,7.72E-04
-2.10E-05,3.84E-04
-2.10E-05,5.19E-04
-2.09E-05,8.50E-04
-2.08E-05,9.38E-04
-2.07E-05,7.22E-04
-2.06E-05,3.72E-04
-2.06E-05,3.78E-04
-2.05E-05,6.44E-04
-2.04E-05,1.02E-03
-2.03E-05,1.10E-03
-2.02E-05,8.84E-04
-2.02E-05,6.47E-04
-2.01E-05,4.84E-04
-2.00E-05,4.00E-04
-1.99E-05,4.88E-04
-1.98E-05,6.44E-04
-1.98E-05,8.91E-04
-1.97E-05,1.03E-03
-1.96E-05,9.94E-04
-1.95E-05,7.81E-04
-1.94E-05,5.91E-04
-1.94E-05,3.53E-04
-1.93E-05,5.72E-04
-1.92E-05,9.22E-04
-1.91E-05,1.02E-03
-1.90E-05,8.16E-04
-1.90E-05,4.69E-04
-1.89E-05,6.75E-04
-1.88E-05,9.09E-04
-1.87E-05,9.28E-04
-1.86E-05,6.63E-04
-1.86E-05,5.69E-04
-1.85E-05,6.28E-04
-1.84E-05,8.34E-04
-1.83E-05,9.72E-04
-1.82E-05,9.03E-04
-1.82E-05,7.72E-04
-1.81E-05,4.47E-04
-1.80E-05,1.97E-04
-1.79E-05,3.78E-04
-1.78E-05,7.50E-04
-1.78E-05,9.78E-04
-1.77E-05,1.01E-03
-1.76E-05,8.34E-04
-1.75E-05,5.78E-04
-1.74E-05,4.44E-04
-1.74E-05,5.13E-04
-1.73E-05,8.72E-04
-1.72E-05,1.15E-03
-1.71E-05,1.01E-03
-1.70E-05,6.00E-04
-1.70E-05,3.56E-04
-1.69E-05,4.00E-04
-1.68E-05,8.25E-04
-1.67E-05,1.06E-03
-1.66E-05,8.31E-04
-1.66E-05,6.94E-04
-1.65E-05,5.94E-04
-1.64E-05,2.63E-04
-1.63E-05,3.09E-04
-1.62E-05,6.47E-04
-1.62E-05,1.03E-03
-1.61E-05,1.00E-03
-1.60E-05,7.66E-04
-1.59E-05,4.53E-04
-1.58E-05,3.75E-04
-1.58E-05,4.53E-04
-1.57E-05,5.78E-04
-1.56E-05,8.75E-04
-1.55E-05,1.05E-03
-1.54E-05,9.53E-04
-1.54E-05,6.66E-04
-1.53E-05,4.69E-04
-1.52E-05,5.13E-04
-1.51E-05,7.13E-04
-1.50E-05,8.94E-04
-1.50E-05,8.75E-04
-1.49E-05,6.59E-04
-1.48E-05,4.72E-04
-1.47E-05,5.72E-04
-1.46E-05,7.59E-04
-1.46E-05,9.91E-04
-1.45E-05,6.84E-04
-1.44E-05,4.50E-04
-1.43E-05,3.44E-04
-1.42E-05,5.75E-04
-1.42E-05,6.91E-04
-1.41E-05,7.78E-04
-1.40E-05,1.02E-03
-1.39E-05,7.13E-04
-1.38E-05,4.00E-04
-1.38E-05,4.75E-04
-1.37E-05,7.38E-04
-1.36E-05,8.31E-04
-1.35E-05,7.16E-04
-1.34E-05,4.09E-04
-1.34E-05,4.75E-04
-1.33E-05,6.44E-04
-1.32E-05,7.38E-04
-1.31E-05,7.59E-04
-1.30E-05,7.66E-04
-1.30E-05,6.88E-04
-1.29E-05,5.56E-04
-1.28E-05,4.13E-04
-1.27E-05,4.53E-04
-1.26E-05,5.81E-04
-1.26E-05,7.97E-04
-1.25E-05,9.19E-04
-1.24E-05,8.78E-04
-1.23E-05,6.28E-04
-1.22E-05,3.44E-04
-1.22E-05,2.66E-04
-1.21E-05,5.75E-04
-1.20E-05,8.53E-04
-1.19E-05,9.56E-04
-1.18E-05,7.91E-04
-1.18E-05,4.47E-04
-1.17E-05,4.84E-04
-1.16E-05,8.38E-04
-1.15E-05,1.00E-03
-1.14E-05,8.59E-04
-1.14E-05,6.53E-04
-1.13E-05,5.84E-04
-1.12E-05,5.66E-04
-1.11E-05,7.25E-04
-1.10E-05,8.28E-04
-1.10E-05,7.69E-04
-1.09E-05,6.47E-04
-1.08E-05,2.78E-04
-1.07E-05,2.44E-04
-1.06E-05,6.75E-04
-1.06E-05,9.84E-04
-1.05E-05,9.59E-04
-1.04E-05,8.28E-04
-1.03E-05,5.22E-04
-1.02E-05,3.44E-04
-1.02E-05,4.84E-04
-1.01E-05,8.31E-04
-1.00E-05,9.97E-04
-9.92E-06,7.06E-04
-9.84E-06,2.50E-04
-9.76E-06,2.66E-04
-9.68E-06,5.31E-04
-9.60E-06,1.14E-03
-9.52E-06,1.19E-03
-9.44E-06,7.53E-04
-9.36E-06,5.94E-04
-9.28E-06,4.75E-04
-9.20E-06,2.94E-04
-9.12E-06,4.25E-04
-9.04E-06,5.72E-04
-8.96E-06,9.31E-04
-8.88E-06,1.05E-03
-8.80E-06,8.88E-04
-8.72E-06,5.63E-04
-8.64E-06,4.47E-04
-8.56E-06,3.44E-04
-8.48E-06,5.75E-04
-8.40E-06,8.94E-04
-8.32E-06,1.03E-03
-8.24E-06,7.91E-04
-8.16E-06,4.38E-04
-8.08E-06,4.88E-04
-8.00E-06,6.22E-04
-7.92E-06,7.91E-04
-7.84E-06,7.13E-04
-7.76E-06,7.38E-04
-7.68E-06,6.09E-04
-7.60E-06,6.13E-04
-7.52E-06,7.19E-04
-7.44E-06,8.03E-04
-7.36E-06,7.75E-04
-7.28E-06,4.84E-04
-7.20E-06,3.56E-04
-7.12E-06,3.03E-04
-7.04E-06,6.22E-04
-6.96E-06,7.09E-04
-6.88E-06,7.88E-04
-6.80E-06,8.88E-04
-6.72E-06,5.88E-04
-6.64E-06,3.22E-04
-6.56E-06,3.88E-04
-6.48E-06,7.22E-04
-6.40E-06,1.04E-03
-6.32E-06,9.66E-04
-6.24E-06,5.56E-04
-6.16E-06,3.22E-04
-6.08E-06,3.31E-04
-6.00E-06,5.19E-04
-5.92E-06,8.75E-04
-5.84E-06,8.88E-04
-5.76E-06,7.72E-04
-5.68E-06,5.28E-04
-5.60E-06,2.66E-04
-5.52E-06,3.44E-04
-5.44E-06,5.88E-04
-5.36E-06,9.94E-04
-5.28E-06,9.63E-04
-5.20E-06,8.66E-04
-5.12E-06,4.44E-04
-5.04E-06,2.88E-04
-4.96E-06,1.78E-04
-4.88E-06,3.47E-04
-4.80E-06,8.38E-04
-4.72E-06,1.04E-03
-4.64E-06,8.56E-04
-4.56E-06,4.81E-04
-4.48E-06,4.75E-04
-4.40E-06,5.97E-04
-4.32E-06,6.69E-04
-4.24E-06,6.25E-04
-4.16E-06,6.69E-04
-4.08E-06,5.53E-04
-4.00E-06,4.56E-04
-3.92E-06,6.97E-04
-3.84E-06,7.81E-04
-3.76E-06,6.97E-04
-3.68E-06,3.25E-04
-3.60E-06,1.53E-04
-3.52E-06,3.56E-04
-3.44E-06,7.28E-04
-3.36E-06,8.34E-04
-3.28E-06,6.78E-04
-3.20E-06,6.78E-04
-3.12E-06,4.25E-04
-3.04E-06,2.91E-04
-2.96E-06,4.22E-04
-2.88E-06,7.06E-04
-2.80E-06,9.13E-04
-2.72E-06,7.72E-04
-2.64E-06,3.59E-04
-2.56E-06,3.91E-04
-2.48E-06,5.56E-04
-2.40E-06,6.78E-04
-2.32E-06,7.53E-04
-2.24E-06,6.69E-04
-2.16E-06,6.44E-04
-2.08E-06,6.50E-04
-2.00E-06,3.75E-04
-1.92E-06,2.59E-04
-1.84E-06,4.03E-04
-1.76E-06,8.56E-04
-1.68E-06,9.28E-04
-1.60E-06,6.91E-04
-1.52E-06,4.47E-04
-1.44E-06,2.69E-04
-1.36E-06,3.34E-04
-1.28E-06,5.72E-04
-1.20E-06,7.78E-04
-1.12E-06,8.44E-04
-1.04E-06,6.53E-04
-9.60E-07,2.97E-04
-8.80E-07,2.50E-04
-8.00E-07,6.19E-04
-7.20E-07,8.09E-04
-6.40E-07,8.22E-04
-5.60E-07,6.44E-04
-4.80E-07,5.63E-04
-4.00E-07,3.81E-04
-3.20E-07,5.06E-04
-2.40E-07,6.13E-04
-1.60E-07,7.16E-04
-8.00E-08,6.69E-04
0.00E+00,3.38E-04
8.00E-08,4.08E-02
1.60E-07,1.12E-01
2.40E-07,1.44E-01
3.20E-07,1.60E-01
4.00E-07,1.68E-01
4.80E-07,1.71E-01
5.60E-07,1.71E-01
6.40E-07,1.70E-01
7.20E-07,1.68E-01
8.00E-07,1.64E-01
8.80E-07,1.60E-01
9.60E-07,1.56E-01
1.04E-06,1.52E-01
1.12E-06,1.47E-01
1.20E-06,1.43E-01
1.28E-06,1.39E-01
1.36E-06,1.35E-01
1.44E-06,1.31E-01
1.52E-06,1.27E-01
1.60E-06,1.23E-01
1.68E-06,1.20E-01
1.76E-06,1.17E-01
1.84E-06,1.14E-01
1.92E-06,1.11E-01
2.00E-06,1.08E-01
2.08E-06,1.06E-01
2.16E-06,1.03E-01
2.24E-06,1.00E-01
2.32E-06,9.82E-02
2.40E-06,9.64E-02
2.48E-06,9.45E-02
2.56E-06,9.22E-02
2.64E-06,9.00E-02
2.72E-06,8.84E-02
2.80E-06,8.69E-02
2.88E-06,8.53E-02
2.96E-06,8.35E-02
3.04E-06,8.19E-02
3.12E-06,8.05E-02
3.20E-06,7.94E-02
3.28E-06,7.82E-02
3.36E-06,7.69E-02
3.44E-06,7.56E-02
3.52E-06,7.41E-02
3.60E-06,7.28E-02
3.68E-06,7.19E-02
3.76E-06,7.13E-02
3.84E-06,7.05E-02
3.92E-06,6.95E-02
4.00E-06,6.84E-02
4.08E-06,6.73E-02
4.16E-06,6.63E-02
4.24E-06,6.55E-02
4.32E-06,6.51E-02
4.40E-06,6.46E-02
4.48E-06,6.38E-02
4.56E-06,6.26E-02
4.64E-06,6.17E-02
4.72E-06,6.10E-02
4.80E-06,6.07E-02
4.88E-06,6.02E-02
4.96E-06,5.94E-02
5.04E-06,5.87E-02
5.12E-06,5.80E-02
5.20E-06,5.71E-02
5.28E-06,5.65E-02
5.36E-06,5.63E-02
5.44E-06,5.63E-02
5.52E-06,5.56E-02
5.60E-06,5.49E-02
5.68E-06,5.40E-02
5.76E-06,5.35E-02
5.84E-06,5.30E-02
5.92E-06,5.26E-02
6.00E-06,5.24E-02
6.08E-06,5.22E-02
6.16E-06,5.17E-02
6.24E-06,5.09E-02
6.32E-06,5.03E-02
6.40E-06,4.99E-02
6.48E-06,4.96E-02
6.56E-06,4.94E-02
6.64E-06,4.91E-02
6.72E-06,4.85E-02
6.80E-06,4.79E-02
6.88E-06,4.76E-02
6.96E-06,4.73E-02
7.04E-06,4.71E-02
7.12E-06,4.66E-02
7.20E-06,4.60E-02
7.28E-06,4.56E-02
7.36E-06,4.55E-02
7.44E-06,4.52E-02
7.52E-06,4.50E-02
7.60E-06,4.49E-02
7.68E-06,4.43E-02
7.76E-06,4.36E-02
7.84E-06,4.34E-02
7.92E-06,4.33E-02
8.00E-06,4.32E-02
8.08E-06,4.28E-02
8.16E-06,4.21E-02
8.24E-06,4.18E-02
8.32E-06,4.18E-02
8.40E-06,4.16E-02
8.48E-06,4.14E-02
8.56E-06,4.11E-02
8.64E-06,4.07E-02
8.72E-06,4.04E-02
8.80E-06,4.00E-02
8.88E-06,3.97E-02
8.96E-06,3.96E-02
9.04E-06,3.96E-02
9.12E-06,3.94E-02
9.20E-06,3.91E-02
9.28E-06,3.86E-02
9.36E-06,3.81E-02
9.44E-06,3.79E-02
9.52E-06,3.79E-02
9.60E-06,3.80E-02
9.68E-06,3.78E-02
9.76E-06,3.73E-02
9.84E-06,3.67E-02
9.92E-06,3.66E-02
1.00E-05,3.67E-02
1.01E-05,3.67E-02
1.02E-05,3.63E-02
1.02E-05,3.59E-02
1.03E-05,3.56E-02
1.04E-05,3.54E-02
1.05E-05,3.54E-02
1.06E-05,3.54E-02
1.06E-05,3.52E-02
1.07E-05,3.47E-02
1.08E-05,3.42E-02
1.09E-05,3.39E-02
1.10E-05,3.42E-02
1.10E-05,3.43E-02
1.11E-05,3.41E-02
1.12E-05,3.38E-02
1.13E-05,3.33E-02
1.14E-05,3.29E-02
1.14E-05,3.28E-02
1.15E-05,3.30E-02
1.16E-05,3.31E-02
1.17E-05,3.27E-02
1.18E-05,3.20E-02
1.18E-05,3.18E-02
1.19E-05,3.19E-02
1.20E-05,3.22E-02
1.21E-05,3.22E-02
1.22E-05,3.17E-02
1.22E-05,3.13E-02
1.23E-05,3.10E-02
1.24E-05,3.07E-02
1.25E-05,3.06E-02
1.26E-05,3.07E-02
1.26E-05,3.09E-02
1.27E-05,3.09E-02
1.28E-05,3.06E-02
1.29E-05,3.01E-02
1.30E-05,2.98E-02
1.30E-05,2.95E-02
1.31E-05,2.96E-02
1.32E-05,2.98E-02
1.33E-05,2.98E-02
1.34E-05,2.95E-02
1.34E-05,2.89E-02
1.35E-05,2.88E-02
1.36E-05,2.89E-02
1.37E-05,2.89E-02
1.38E-05,2.87E-02
1.38E-05,2.86E-02
1.39E-05,2.83E-02
1.40E-05,2.81E-02
1.41E-05,2.81E-02
1.42E-05,2.80E-02
1.42E-05,2.79E-02
1.43E-05,2.76E-02
1.44E-05,2.74E-02
1.45E-05,2.72E-02
1.46E-05,2.74E-02
1.46E-05,2.73E-02
1.47E-05,2.73E-02
1.48E-05,2.72E-02
1.49E-05,2.68E-02
1.50E-05,2.64E-02
1.50E-05,2.63E-02
1.51E-05,2.65E-02
1.52E-05,2.68E-02
1.53E-05,2.65E-02
1.54E-05,2.60E-02
1.54E-05,2.57E-02
1.55E-05,2.57E-02
1.56E-05,2.58E-02
1.57E-05,2.60E-02
1.58E-05,2.59E-02
1.58E-05,2.56E-02
1.59E-05,2.52E-02
1.60E-05,2.48E-02
1.61E-05,2.48E-02
1.62E-05,2.51E-02
1.62E-05,2.54E-02
1.63E-05,2.51E-02
1.64E-05,2.49E-02
1.65E-05,2.44E-02
1.66E-05,2.42E-02
1.66E-05,2.41E-02
1.67E-05,2.41E-02
1.68E-05,2.45E-02
1.69E-05,2.45E-02
1.70E-05,2.42E-02
1.70E-05,2.38E-02
1.71E-05,2.37E-02
1.72E-05,2.38E-02
1.73E-05,2.37E-02
1.74E-05,2.36E-02
1.74E-05,2.35E-02
1.75E-05,2.32E-02
1.76E-05,2.31E-02
1.77E-05,2.33E-02
1.78E-05,2.33E-02
1.78E-05,2.32E-02
1.79E-05,2.28E-02
1.80E-05,2.23E-02
1.81E-05,2.23E-02
1.82E-05,2.26E-02
1.82E-05,2.28E-02
1.83E-05,2.26E-02
1.84E-05,2.25E-02
1.85E-05,2.22E-02
1.86E-05,2.19E-02
1.86E-05,2.19E-02
1.87E-05,2.22E-02
1.88E-05,2.22E-02
1.89E-05,2.20E-02
1.90E-05,2.15E-02
1.90E-05,2.14E-02
1.91E-05,2.15E-02
1.92E-05,2.16E-02
1.93E-05,2.16E-02
1.94E-05,2.15E-02
1.94E-05,2.14E-02
1.95E-05,2.12E-02
1.96E-05,2.10E-02
1.97E-05,2.07E-02
1.98E-05,2.08E-02
1.98E-05,2.11E-02
1.99E-05,2.11E-02
2.00E-05,2.09E-02
2.01E-05,2.05E-02
2.02E-05,2.02E-02
2.02E-05,2.02E-02
2.03E-05,2.04E-02
2.04E-05,2.06E-02
2.05E-05,2.06E-02
2.06E-05,2.04E-02
2.06E-05,1.99E-02
2.07E-05,1.97E-02
2.08E-05,2.00E-02
2.09E-05,2.01E-02
2.10E-05,2.01E-02
2.10E-05,1.99E-02
2.11E-05,1.97E-02
2.12E-05,1.94E-02
2.13E-05,1.95E-02
2.14E-05,1.95E-02
2.14E-05,1.96E-02
2.15E-05,1.94E-02
2.16E-05,1.90E-02
2.17E-05,1.88E-02
2.18E-05,1.89E-02
2.18E-05,1.91E-02
2.19E-05,1.93E-02
2.20E-05,1.94E-02
2.21E-05,1.90E-02
2.22E-05,1.84E-02
2.22E-05,1.85E-02
2.23E-05,1.88E-02
2.24E-05,1.88E-02
2.25E-05,1.86E-02
2.26E-05,1.83E-02
2.26E-05,1.81E-02
2.27E-05,1.83E-02
2.28E-05,1.86E-02
2.29E-05,1.86E-02
2.30E-05,1.84E-02
2.30E-05,1.80E-02
2.31E-05,1.78E-02
2.32E-05,1.77E-02
2.33E-05,1.78E-02
2.34E-05,1.78E-02
2.34E-05,1.80E-02
2.35E-05,1.81E-02
2.36E-05,1.81E-02
2.37E-05,1.78E-02
2.38E-05,1.74E-02
2.38E-05,1.71E-02
2.39E-05,1.73E-02
2.40E-05,1.77E-02
2.41E-05,1.77E-02
2.42E-05,1.74E-02
2.42E-05,1.70E-02
2.43E-05,1.71E-02
2.44E-05,1.73E-02
2.45E-05,1.74E-02
2.46E-05,1.71E-02
2.46E-05,1.69E-02
2.47E-05,1.68E-02
2.48E-05,1.70E-02
2.49E-05,1.71E-02
2.50E-05,1.70E-02
2.50E-05,1.68E-02
2.51E-05,1.65E-02
2.52E-05,1.62E-02
2.53E-05,1.62E-02
2.54E-05,1.66E-02
2.54E-05,1.68E-02
2.55E-05,1.68E-02
2.56E-05,1.66E-02
2.57E-05,1.62E-02
2.58E-05,1.60E-02
2.58E-05,1.59E-02
2.59E-05,1.62E-02
2.60E-05,1.66E-02
2.61E-05,1.64E-02
2.62E-05,1.59E-02
2.62E-05,1.56E-02
2.63E-05,1.56E-02
2.64E-05,1.59E-02
2.65E-05,1.61E-02
2.66E-05,1.60E-02
2.66E-05,1.58E-02
2.67E-05,1.56E-02
2.68E-05,1.52E-02
2.69E-05,1.52E-02
2.70E-05,1.54E-02
2.70E-05,1.59E-02
2.71E-05,1.58E-02
2.72E-05,1.56E-02
2.73E-05,1.51E-02
2.74E-05,1.50E-02
2.74E-05,1.50E-02
2.75E-05,1.51E-02
2.76E-05,1.54E-02
2.77E-05,1.56E-02
2.78E-05,1.54E-02
2.78E-05,1.50E-02
2.79E-05,1.48E-02
2.80E-05,1.48E-02
2.81E-05,1.50E-02
2.82E-05,1.51E-02
2.82E-05,1.51E-02
2.83E-05,1.49E-02
2.84E-05,1.46E-02
2.85E-05,1.47E-02
2.86E-05,1.48E-02
2.86E-05,1.49E-02
2.87E-05,1.47E-02
2.88E-05,1.44E-02
2.89E-05,1.42E-02
2.90E-05,1.44E-02
2.90E-05,1.45E-02
2.91E-05,1.44E-02
2.92E-05,1.47E-02
2.93E-05,1.44E-02
2.94E-05,1.41E-02
2.94E-05,1.42E-02
2.95E-05,1.44E-02
2.96E-05,1.44E-02
2.97E-05,1.43E-02
2.98E-05,1.39E-02
2.98E-05,1.39E-02
2.99E-05,1.40E-02
3.00E-05,1.41E-02
3.01E-05,1.41E-02
3.02E-05,1.41E-02
3.02E-05,1.40E-02
3.03E-05,1.38E-02
3.04E-05,1.37E-02
3.05E-05,1.36E-02
3.06E-05,1.37E-02
3.06E-05,1.39E-02
3.07E-05,1.40E-02
3.08E-05,1.39E-02
3.09E-05,1.36E-02
3.10E-05,1.33E-02
3.10E-05,1.32E-02
3.11E-05,1.35E-02
3.12E-05,1.38E-02
3.13E-05,1.38E-02
3.14E-05,1.36E-02
3.14E-05,1.32E-02
3.15E-05,1.31E-02
3.16E-05,1.35E-02
3.17E-05,1.36E-02
3.18E-05,1.35E-02
3.18E-05,1.32E-02
3.19E-05,1.31E-02
3.20E-05,1.30E-02
3.21E-05,1.32E-02
3.22E-05,1.33E-02
3.22E-05,1.32E-02
3.23E-05,1.31E-02
3.24E-05,1.25E-02
3.25E-05,1.25E-02
3.26E-05,1.29E-02
3.26E-05,1.33E-02
3.27E-05,1.33E-02
3.28E-05,1.31E-02
3.29E-05,1.28E-02
3.30E-05,1.24E-02
3.30E-05,1.26E-02
3.31E-05,1.29E-02
3.32E-05,1.31E-02
3.33E-05,1.28E-02
3.34E-05,1.23E-02
3.34E-05,1.22E-02
3.35E-05,1.26E-02
3.36E-05,1.30E-02
3.37E-05,1.31E-02
3.38E-05,1.26E-02
3.38E-05,1.24E-02
3.39E-05,1.23E-02
3.40E-05,1.20E-02
3.41E-05,1.21E-02
3.42E-05,1.23E-02
3.42E-05,1.27E-02
3.43E-05,1.27E-02
3.44E-05,1.25E-02
3.45E-05,1.22E-02
3.46E-05,1.21E-02
3.46E-05,1.18E-02
3.47E-05,1.20E-02
3.48E-05,1.24E-02
3.49E-05,1.25E-02
3.50E-05,1.23E-02
3.50E-05,1.18E-02
3.51E-05,1.18E-02
3.52E-05,1.21E-02
3.53E-05,1.22E-02
3.54E-05,1.21E-02
3.54E-05,1.21E-02
3.55E-05,1.20E-02
3.56E-05,1.18E-02
3.57E-05,1.19E-02
3.58E-05,1.19E-02
3.58E-05,1.19E-02
3.59E-05,1.18E-02
3.60E-05,1.16E-02
3.61E-05,1.14E-02
3.62E-05,1.18E-02
3.62E-05,1.18E-02
3.63E-05,1.19E-02
3.64E-05,1.20E-02
3.65E-05,1.17E-02
3.66E-05,1.14E-02
3.66E-05,1.14E-02
3.67E-05,1.16E-02
3.68E-05,1.19E-02
3.69E-05,1.18E-02
3.70E-05,1.14E-02
3.70E-05,1.12E-02
3.71E-05,1.12E-02
3.72E-05,1.13E-02
3.73E-05,1.17E-02
3.74E-05,1.17E-02
3.74E-05,1.15E-02
3.75E-05,1.13E-02
3.76E-05,1.11E-02
3.77E-05,1.10E-02
3.78E-05,1.12E-02
3.78E-05,1.16E-02
3.79E-05,1.16E-02
3.80E-05,1.14E-02
3.81E-05,1.10E-02
3.82E-05,1.09E-02
3.82E-05,1.08E-02
3.83E-05,1.09E-02
3.84E-05,1.13E-02
3.85E-05,1.15E-02
3.86E-05,1.13E-02
3.86E-05,1.10E-02
3.87E-05,1.10E-02
3.88E-05,1.11E-02
3.89E-05,1.11E-02
3.90E-05,1.10E-02
3.90E-05,1.10E-02
3.91E-05,1.08E-02
3.92E-05,1.08E-02
3.93E-05,1.10E-02
3.94E-05,1.12E-02
3.94E-05,1.10E-02
3.95E-05,1.07E-02
3.96E-05,1.03E-02
3.97E-05,1.05E-02
3.98E-05,1.08E-02
3.98E-05,1.10E-02
3.99E-05,1.08E-02
4.00E-05,1.08E-02
4.01E-05,1.05E-02
4.02E-05,1.04E-02
4.02E-05,1.05E-02
4.03E-05,1.08E-02
4.04E-05,1.09E-02
4.05E-05,1.07E-02
4.06E-05,1.04E-02
4.06E-05,1.03E-02
4.07E-05,1.05E-02
4.08E-05,1.06E-02
4.09E-05,1.06E-02
4.10E-05,1.05E-02
4.10E-05,1.05E-02
4.11E-05,1.04E-02
4.12E-05,1.02E-02
4.13E-05,1.01E-02
4.14E-05,1.02E-02
4.14E-05,1.06E-02
4.15E-05,1.07E-02
4.16E-05,1.05E-02
4.17E-05,1.02E-02
4.18E-05,9.96E-03
4.18E-05,1.00E-02
4.19E-05,1.02E-02
4.20E-05,1.05E-02
4.21E-05,1.05E-02
4.22E-05,1.03E-02
