MSci Project Data/e100V.csv

Model,MSO44
Waveform Type,ANALOG
Horizontal Units,s
Sample Interval,8.00000000e-08
Record Length,5000
Zero Index,544.00000000
Vertical Units,V
ANALOG_Thumbnail,

TIME,CH1
-4.35200000e-05,8.81250000e-04
-4.34400000e-05,9.18750000e-04
-4.33600000e-05,1.04062500e-03
-4.32800000e-05,9.31250000e-04
-4.32000000e-05,5.75000000e-04
-4.31200000e-05,5.15625000e-04
-4.30400000e-05,7.18750000e-04
-4.29600000e-05,9.87500000e-04
-4.28800000e-05,1.13437500e-03
-4.28000000e-05,1.21562500e-03
-4.27200000e-05,8.75000000e-04
-4.26400000e-05,5.50000000e-04
-4.25600000e-05,7.34375000e-04
-4.24800000e-05,1.01875000e-03
-4.24000000e-05,1.11250000e-03
-4.23200000e-05,8.25000000e-04
-4.22400000e-05,5.03125000e-04
-4.21600000e-05,5.12500000e-04
-4.20800000e-05,7.68750000e-04
-4.20000000e-05,1.10625000e-03
-4.19200000e-05,1.23750000e-03
-4.18400000e-05,9.59375000e-04
-4.17600000e-05,6.93750000e-04
-4.16800000e-05,5.53125000e-04
-4.16000000e-05,5.53125000e-04
-4.15200000e-05,6.43750000e-04
-4.14400000e-05,7.93750000e-04
-4.13600000e-05,1.05312500e-03
-4.12800000e-05,1.20625000e-03
-4.12000000e-05,1.12187500e-03
-4.11200000e-05,8.43750000e-04
-4.10400000e-05,6.00000000e-04
-4.09600000e-05,4.06250000e-04
-4.08800000e-05,7.71875000e-04
-4.08000000e-05,1.04375000e-03
-4.07200000e-05,1.15000000e-03
-4.06400000e-05,8.81250000e-04
-4.05600000e-05,5.68750000e-04
-4.04800000e-05,7.56250000e-04
-4.04000000e-05,1.04687500e-03
-4.03200000e-05,1.06875000e-03
-4.02400000e-05,8.71875000e-04
-4.01600000e-05,7.28125000e-04
-4.00800000e-05,7.81250000e-04
-4.00000000e-05,9.06250000e-04
-3.99200000e-05,1.08125000e-03
-3.98400000e-05,1.02187500e-03
-3.97600000e-05,8.96875000e-04
-3.96800000e-05,6.31250000e-04
-3.96000000e-05,3.90625000e-04
-3.95200000e-05,5.06250000e-04
-3.94400000e-05,9.18750000e-04
-3.93600000e-05,1.11562500e-03
-3.92800000e-05,1.15000000e-03
-3.92000000e-05,9.68750000e-04
-3.91200000e-05,7.31250000e-04
-3.90400000e-05,5.25000000e-04
-3.89600000e-05,6.03125000e-04
-3.88800000e-05,8.71875000e-04
-3.88000000e-05,1.27187500e-03
-3.87200000e-05,1.20000000e-03
-3.86400000e-05,7.81250000e-04
-3.85600000e-05,4.90625000e-04
-3.84800000e-05,5.68750000e-04
-3.84000000e-05,9.71875000e-04
-3.83200000e-05,1.16250000e-03
-3.82400000e-05,1.00937500e-03
-3.81600000e-05,8.18750000e-04
-3.80800000e-05,7.09375000e-04
-3.80000000e-05,4.56250000e-04
-3.79200000e-05,4.53125000e-04
-3.78400000e-05,8.00000000e-04
-3.77600000e-05,1.26875000e-03
-3.76800000e-05,1.15625000e-03
-3.76000000e-05,9.59375000e-04
-3.75200000e-05,6.18750000e-04
-3.74400000e-05,5.46875000e-04
-3.73600000e-05,6.40625000e-04
-3.72800000e-05,7.37500000e-04
-3.72000000e-05,1.00937500e-03
-3.71200000e-05,1.21250000e-03
-3.70400000e-05,1.06562500e-03
-3.69600000e-05,8.21875000e-04
-3.68800000e-05,6.78125000e-04
-3.68000000e-05,7.15625000e-04
-3.67200000e-05,8.56250000e-04
-3.66400000e-05,9.93750000e-04
-3.65600000e-05,1.07500000e-03
-3.64800000e-05,8.65625000e-04
-3.64000000e-05,6.59375000e-04
-3.63200000e-05,7.40625000e-04
-3.62400000e-05,8.96875000e-04
-3.61600000e-05,1.05937500e-03
-3.60800000e-05,8.50000000e-04
-3.60000000e-05,6.50000000e-04
-3.59200000e-05,5.28125000e-04
-3.58400000e-05,7.65625000e-04
-3.57600000e-05,8.90625000e-04
-3.56800000e-05,9.53125000e-04
-3.56000000e-05,1.18125000e-03
-3.55200000e-05,8.87500000e-04
-3.54400000e-05,6.09375000e-04
-3.53600000e-05,7.37500000e-04
-3.52800000e-05,9.90625000e-04
-3.52000000e-05,1.13750000e-03
-3.51200000e-05,1.00312500e-03
-3.50400000e-05,6.06250000e-04
-3.49600000e-05,6.71875000e-04
-3.48800000e-05,7.93750000e-04
-3.48000000e-05,9.25000000e-04
-3.47200000e-05,9.40625000e-04
-3.46400000e-05,9.78125000e-04
-3.45600000e-05,8.90625000e-04
-3.44800000e-05,7.68750000e-04
-3.44000000e-05,6.71875000e-04
-3.43200000e-05,6.78125000e-04
-3.42400000e-05,8.06250000e-04
-3.41600000e-05,1.00937500e-03
-3.40800000e-05,1.08125000e-03
-3.40000000e-05,1.03125000e-03
-3.39200000e-05,7.68750000e-04
-3.38400000e-05,5.34375000e-04
-3.37600000e-05,4.28125000e-04
-3.36800000e-05,7.65625000e-04
-3.36000000e-05,1.14062500e-03
-3.35200000e-05,1.21562500e-03
-3.34400000e-05,9.40625000e-04
-3.33600000e-05,6.62500000e-04
-3.32800000e-05,6.75000000e-04
-3.32000000e-05,1.02187500e-03
-3.31200000e-05,1.11562500e-03
-3.30400000e-05,9.37500000e-04
-3.29600000e-05,7.18750000e-04
-3.28800000e-05,7.09375000e-04
-3.28000000e-05,7.06250000e-04
-3.27200000e-05,9.40625000e-04
-3.26400000e-05,1.04687500e-03
-3.25600000e-05,1.10000000e-03
-3.24800000e-05,7.34375000e-04
-3.24000000e-05,3.93750000e-04
-3.23200000e-05,4.06250000e-04
-3.22400000e-05,8.43750000e-04
-3.21600000e-05,1.23437500e-03
-3.20800000e-05,1.16250000e-03
-3.20000000e-05,1.00000000e-03
-3.19200000e-05,6.90625000e-04
-3.18400000e-05,4.78125000e-04
-3.17600000e-05,6.65625000e-04
-3.16800000e-05,1.06250000e-03
-3.16000000e-05,1.26250000e-03
-3.15200000e-05,9.68750000e-04
-3.14400000e-05,4.93750000e-04
-3.13600000e-05,3.96875000e-04
-3.12800000e-05,7.31250000e-04
-3.12000000e-05,1.25000000e-03
-3.11200000e-05,1.32500000e-03
-3.10400000e-05,9.28125000e-04
-3.09600000e-05,7.81250000e-04
-3.08800000e-05,6.50000000e-04
-3.08000000e-05,4.90625000e-04
-3.07200000e-05,5.25000000e-04
-3.06400000e-05,7.03125000e-04
-3.05600000e-05,1.09062500e-03
-3.04800000e-05,1.23125000e-03
-3.04000000e-05,1.05625000e-03
-3.03200000e-05,7.68750000e-04
-3.02400000e-05,5.96875000e-04
-3.01600000e-05,4.15625000e-04
-3.00800000e-05,6.71875000e-04
-3.00000000e-05,1.02187500e-03
-2.99200000e-05,1.13125000e-03
-2.98400000e-05,9.40625000e-04
-2.97600000e-05,5.71875000e-04
-2.96800000e-05,5.40625000e-04
-2.96000000e-05,9.12500000e-04
-2.95200000e-05,9.31250000e-04
-2.94400000e-05,9.31250000e-04
-2.93600000e-05,9.50000000e-04
-2.92800000e-05,8.75000000e-04
-2.92000000e-05,7.53125000e-04
-2.91200000e-05,8.87500000e-04
-2.90400000e-05,9.15625000e-04
-2.89600000e-05,9.62500000e-04
-2.88800000e-05,7.25000000e-04
-2.88000000e-05,5.81250000e-04
-2.87200000e-05,5.37500000e-04
-2.86400000e-05,8.03125000e-04
-2.85600000e-05,8.84375000e-04
-2.84800000e-05,8.93750000e-04
-2.84000000e-05,1.07812500e-03
-2.83200000e-05,7.93750000e-04
-2.82400000e-05,4.78125000e-04
-2.81600000e-05,5.93750000e-04
-2.80800000e-05,8.09375000e-04
-2.80000000e-05,1.13125000e-03
-2.79200000e-05,1.06562500e-03
-2.78400000e-05,6.93750000e-04
-2.77600000e-05,4.56250000e-04
-2.76800000e-05,4.65625000e-04
-2.76000000e-05,7.75000000e-04
-2.75200000e-05,1.09687500e-03
-2.74400000e-05,1.05312500e-03
-2.73600000e-05,8.84375000e-04
-2.72800000e-05,6.78125000e-04
-2.72000000e-05,4.78125000e-04
-2.71200000e-05,5.09375000e-04
-2.70400000e-05,8.03125000e-04
-2.69600000e-05,1.20000000e-03
-2.68800000e-05,1.14062500e-03
-2.68000000e-05,9.87500000e-04
-2.67200000e-05,6.12500000e-04
-2.66400000e-05,4.68750000e-04
-2.65600000e-05,4.09375000e-04
-2.64800000e-05,6.37500000e-04
-2.64000000e-05,1.07187500e-03
-2.63200000e-05,1.17812500e-03
-2.62400000e-05,1.03125000e-03
-2.61600000e-05,7.28125000e-04
-2.60800000e-05,6.53125000e-04
-2.60000000e-05,7.59375000e-04
-2.59200000e-05,8.75000000e-04
-2.58400000e-05,7.81250000e-04
-2.57600000e-05,8.25000000e-04
-2.56800000e-05,6.59375000e-04
-2.56000000e-05,6.96875000e-04
-2.55200000e-05,9.21875000e-04
-2.54400000e-05,1.02500000e-03
-2.53600000e-05,8.90625000e-04
-2.52800000e-05,5.87500000e-04
-2.52000000e-05,3.87500000e-04
-2.51200000e-05,5.03125000e-04
-2.50400000e-05,8.65625000e-04
-2.49600000e-05,9.78125000e-04
-2.48800000e-05,9.06250000e-04
-2.48000000e-05,8.75000000e-04
-2.47200000e-05,5.40625000e-04
-2.46400000e-05,4.28125000e-04
-2.45600000e-05,6.15625000e-04
-2.44800000e-05,9.21875000e-04
-2.44000000e-05,1.15000000e-03
-2.43200000e-05,9.46875000e-04
-2.42400000e-05,5.62500000e-04
-2.41600000e-05,5.59375000e-04
-2.40800000e-05,7.31250000e-04
-2.40000000e-05,8.78125000e-04
-2.39200000e-05,8.78125000e-04
-2.38400000e-05,8.68750000e-04
-2.37600000e-05,9.21875000e-04
-2.36800000e-05,8.34375000e-04
-2.36000000e-05,5.46875000e-04
-2.35200000e-05,4.46875000e-04
-2.34400000e-05,6.62500000e-04
-2.33600000e-05,1.05625000e-03
-2.32800000e-05,1.11250000e-03
-2.32000000e-05,8.40625000e-04
-2.31200000e-05,5.65625000e-04
-2.30400000e-05,4.12500000e-04
-2.29600000e-05,5.21875000e-04
-2.28800000e-05,7.50000000e-04
-2.28000000e-05,1.03750000e-03
-2.27200000e-05,1.12500000e-03
-2.26400000e-05,9.18750000e-04
-2.25600000e-05,4.87500000e-04
-2.24800000e-05,4.37500000e-04
-2.24000000e-05,8.18750000e-04
-2.23200000e-05,9.68750000e-04
-2.22400000e-05,9.96875000e-04
-2.21600000e-05,8.18750000e-04
-2.20800000e-05,7.15625000e-04
-2.20000000e-05,5.00000000e-04
-2.19200000e-05,6.62500000e-04
-2.18400000e-05,7.87500000e-04
-2.17600000e-05,8.53125000e-04
-2.16800000e-05,7.65625000e-04
-2.16000000e-05,5.53125000e-04
-2.15200000e-05,4.25000000e-04
-2.14400000e-05,5.93750000e-04
-2.13600000e-05,8.90625000e-04
-2.12800000e-05,9.96875000e-04
-2.12000000e-05,1.07500000e-03
-2.11200000e-05,7.71875000e-04
-2.10400000e-05,3.84375000e-04
-2.09600000e-05,5.18750000e-04
-2.08800000e-05,8.50000000e-04
-2.08000000e-05,9.37500000e-04
-2.07200000e-05,7.21875000e-04
-2.06400000e-05,3.71875000e-04
-2.05600000e-05,3.78125000e-04
-2.04800000e-05,6.43750000e-04
-2.04000000e-05,1.02187500e-03
-2.03200000e-05,1.10000000e-03
-2.02400000e-05,8.84375000e-04
-2.01600000e-05,6.46875000e-04
-2.00800000e-05,4.84375000e-04
-2.00000000e-05,4.00000000e-04
-1.99200000e-05,4.87500000e-04
-1.98400000e-05,6.43750000e-04
-1.97600000e-05,8.90625000e-04
-1.96800000e-05,1.02500000e-03
-1.96000000e-05,9.93750000e-04
-1.95200000e-05,7.81250000e-04
-1.94400000e-05,5.90625000e-04
-1.93600000e-05,3.53125000e-04
-1.92800000e-05,5.71875000e-04
-1.92000000e-05,9.21875000e-04
-1.91200000e-05,1.01875000e-03
-1.90400000e-05,8.15625000e-04
-1.89600000e-05,4.68750000e-04
-1.88800000e-05,6.75000000e-04
-1.88000000e-05,9.09375000e-04
-1.87200000e-05,9.28125000e-04
-1.86400000e-05,6.62500000e-04
-1.85600000e-05,5.68750000e-04
-1.84800000e-05,6.28125000e-04
-1.84000000e-05,8.34375000e-04
-1.83200000e-05,9.71875000e-04
-1.82400000e-05,9.03125000e-04
-1.81600000e-05,7.71875000e-04
-1.80800000e-05,4.46875000e-04
-1.80000000e-05,1.96875000e-04
-1.79200000e-05,3.78125000e-04
-1.78400000e-05,7.50000000e-04
-1.77600000e-05,9.78125000e-04
-1.76800000e-05,1.00937500e-03
-1.76000000e-05,8.34375000e-04
-1.75200000e-05,5.78125000e-04
-1.74400000e-05,4.43750000e-04
-1.73600000e-05,5.12500000e-04
-1.72800000e-05,8.71875000e-04
-1.72000000e-05,1.14687500e-03
-1.71200000e-05,1.00937500e-03
-1.70400000e-05,6.00000000e-04
-1.69600000e-05,3.56250000e-04
-1.68800000e-05,4.00000000e-04
-1.68000000e-05,8.25000000e-04
-1.67200000e-05,1.06250000e-03
-1.66400000e-05,8.31250000e-04
-1.65600000e-05,6.93750000e-04
-1.64800000e-05,5.93750000e-04
-1.64000000e-05,2.62500000e-04
-1.63200000e-05,3.09375000e-04
-1.62400000e-05,6.46875000e-04
-1.61600000e-05,1.02500000e-03
-1.60800000e-05,1.00000000e-03
-1.60000000e-05,7.65625000e-04
-1.59200000e-05,4.53125000e-04
-1.58400000e-05,3.75000000e-04
-1.57600000e-05,4.53125000e-04
-1.56800000e-05,5.78125000e-04
-1.56000000e-05,8.75000000e-04
-1.55200000e-05,1.05000000e-03
-1.54400000e-05,9.53125000e-04
-1.53600000e-05,6.65625000e-04
-1.52800000e-05,4.68750000e-04
-1.52000000e-05,5.12500000e-04
-1.51200000e-05,7.12500000e-04
-1.50400000e-05,8.93750000e-04
-1.49600000e-05,8.75000000e-04
-1.48800000e-05,6.59375000e-04
-1.48000000e-05,4.71875000e-04
-1.47200000e-05,5.71875000e-04
-1.46400000e-05,7.59375000e-04
-1.45600000e-05,9.90625000e-04
-1.44800000e-05,6.84375000e-04
-1.44000000e-05,4.50000000e-04
-1.43200000e-05,3.43750000e-04
-1.42400000e-05,5.75000000e-04
-1.41600000e-05,6.90625000e-04
-1.40800000e-05,7.78125000e-04
-1.40000000e-05,1.01562500e-03
-1.39200000e-05,7.12500000e-04
-1.38400000e-05,4.00000000e-04
-1.37600000e-05,4.75000000e-04
-1.36800000e-05,7.37500000e-04
-1.36000000e-05,8.31250000e-04
-1.35200000e-05,7.15625000e-04
-1.34400000e-05,4.09375000e-04
-1.33600000e-05,4.75000000e-04
-1.32800000e-05,6.43750000e-04
-1.32000000e-05,7.37500000e-04
-1.31200000e-05,7.59375000e-04
-1.30400000e-05,7.65625000e-04
-1.29600000e-05,6.87500000e-04
-1.28800000e-05,5.56250000e-04
-1.28000000e-05,4.12500000e-04
-1.27200000e-05,4.53125000e-04
-1.26400000e-05,5.81250000e-04
-1.25600000e-05,7.96875000e-04
-1.24800000e-05,9.18750000e-04
-1.24000000e-05,8.78125000e-04
-1.23200000e-05,6.28125000e-04
-1.22400000e-05,3.43750000e-04
-1.21600000e-05,2.65625000e-04
-1.20800000e-05,5.75000000e-04
-1.20000000e-05,8.53125000e-04
-1.19200000e-05,9.56250000e-04
-1.18400000e-05,7.90625000e-04
-1.17600000e-05,4.46875000e-04
-1.16800000e-05,4.84375000e-04
-1.16000000e-05,8.37500000e-04
-1.15200000e-05,1.00000000e-03
-1.14400000e-05,8.59375000e-04
-1.13600000e-05,6.53125000e-04
-1.12800000e-05,5.84375000e-04
-1.12000000e-05,5.65625000e-04
-1.11200000e-05,7.25000000e-04
-1.10400000e-05,8.28125000e-04
-1.09600000e-05,7.68750000e-04
-1.08800000e-05,6.46875000e-04
-1.08000000e-05,2.78125000e-04
-1.07200000e-05,2.43750000e-04
-1.06400000e-05,6.75000000e-04
-1.05600000e-05,9.84375000e-04
-1.04800000e-05,9.59375000e-04
-1.04000000e-05,8.28125000e-04
-1.03200000e-05,5.21875000e-04
-1.02400000e-05,3.43750000e-04
-1.01600000e-05,4.84375000e-04
-1.00800000e-05,8.31250000e-04
-1.00000000e-05,9.96875000e-04
-9.92000000e-06,7.06250000e-04
-9.84000000e-06,2.50000000e-04
-9.76000000e-06,2.65625000e-04
-9.68000000e-06,5.31250000e-04
-9.60000000e-06,1.13750000e-03
-9.52000000e-06,1.18750000e-03
-9.44000000e-06,7.53125000e-04
-9.36000000e-06,5.93750000e-04
-9.28000000e-06,4.75000000e-04
-9.20000000e-06,2.93750000e-04
-9.12000000e-06,4.25000000e-04
-9.04000000e-06,5.71875000e-04
-8.96000000e-06,9.31250000e-04
-8.88000000e-06,1.05000000e-03
-8.80000000e-06,8.87500000e-04
-8.72000000e-06,5.62500000e-04
-8.64000000e-06,4.46875000e-04
-8.56000000e-06,3.43750000e-04
-8.48000000e-06,5.75000000e-04
-8.40000000e-06,8.93750000e-04
-8.32000000e-06,1.03437500e-03
-8.24000000e-06,7.90625000e-04
-8.16000000e-06,4.37500000e-04
-8.08000000e-06,4.87500000e-04
-8.00000000e-06,6.21875000e-04
-7.92000000e-06,7.90625000e-04
-7.84000000e-06,7.12500000e-04
-7.76000000e-06,7.37500000e-04
-7.68000000e-06,6.09375000e-04
-7.60000000e-06,6.12500000e-04
-7.52000000e-06,7.18750000e-04
-7.44000000e-06,8.03125000e-04
-7.36000000e-06,7.75000000e-04
-7.28000000e-06,4.84375000e-04
-7.20000000e-06,3.56250000e-04
-7.12000000e-06,3.03125000e-04
-7.04000000e-06,6.21875000e-04
-6.96000000e-06,7.09375000e-04
-6.88000000e-06,7.87500000e-04
-6.80000000e-06,8.87500000e-04
-6.72000000e-06,5.87500000e-04
-6.64000000e-06,3.21875000e-04
-6.56000000e-06,3.87500000e-04
-6.48000000e-06,7.21875000e-04
-6.40000000e-06,1.04375000e-03
-6.32000000e-06,9.65625000e-04
-6.24000000e-06,5.56250000e-04
-6.16000000e-06,3.21875000e-04
-6.08000000e-06,3.31250000e-04
-6.00000000e-06,5.18750000e-04
-5.92000000e-06,8.75000000e-04
-5.84000000e-06,8.87500000e-04
-5.76000000e-06,7.71875000e-04
-5.68000000e-06,5.28125000e-04
-5.60000000e-06,2.65625000e-04
-5.52000000e-06,3.43750000e-04
-5.44000000e-06,5.87500000e-04
-5.36000000e-06,9.93750000e-04
-5.28000000e-06,9.62500000e-04
-5.20000000e-06,8.65625000e-04
-5.12000000e-06,4.43750000e-04
-5.04000000e-06,2.87500000e-04
-4.96000000e-06,1.78125000e-04
-4.88000000e-06,3.46875000e-04
-4.80000000e-06,8.37500000e-04
-4.72000000e-06,1.04375000e-03
-4.64000000e-06,8.56250000e-04
-4.56000000e-06,4.81250000e-04
-4.48000000e-06,4.75000000e-04
-4.40000000e-06,5.96875000e-04
-4.32000000e-06,6.68750000e-04
-4.24000000e-06,6.25000000e-04
-4.16000000e-06,6.68750000e-04
-4.08000000e-06,5.53125000e-04
-4.00000000e-06,4.56250000e-04
-3.92000000e-06,6.96875000e-04
-3.84000000e-06,7.81250000e-04
-3.76000000e-06,6.96875000e-04
-3.68000000e-06,3.25000000e-04
-3.60000000e-06,1.53125000e-04
-3.52000000e-06,3.56250000e-04
-3.44000000e-06,7.28125000e-04
-3.36000000e-06,8.34375000e-04
-3.28000000e-06,6.78125000e-04
-3.20000000e-06,6.78125000e-04
-3.12000000e-06,4.25000000e-04
-3.04000000e-06,2.90625000e-04
-2.96000000e-06,4.21875000e-04
-2.88000000e-06,7.06250000e-04
-2.80000000e-06,9.12500000e-04
-2.72000000e-06,7.71875000e-04
-2.64000000e-06,3.59375000e-04
-2.56000000e-06,3.90625000e-04
-2.48000000e-06,5.56250000e-04
-2.40000000e-06,6.78125000e-04
-2.32000000e-06,7.53125000e-04
-2.24000000e-06,6.68750000e-04
-2.16000000e-06,6.43750000e-04
-2.08000000e-06,6.50000000e-04
-2.00000000e-06,3.75000000e-04
-1.92000000e-06,2.59375000e-04
-1.84000000e-06,4.03125000e-04
-1.76000000e-06,8.56250000e-04
-1.68000000e-06,9.28125000e-04
-1.60000000e-06,6.90625000e-04
-1.52000000e-06,4.46875000e-04
-1.44000000e-06,2.68750000e-04
-1.36000000e-06,3.34375000e-04
-1.28000000e-06,5.71875000e-04
-1.20000000e-06,7.78125000e-04
-1.12000000e-06,8.43750000e-04
-1.04000000e-06,6.53125000e-04
-9.60000000e-07,2.96875000e-04
-8.80000000e-07,2.50000000e-04
-8.00000000e-07,6.18750000e-04
-7.20000000e-07,8.09375000e-04
-6.40000000e-07,8.21875000e-04
-5.60000000e-07,6.43750000e-04
-4.80000000e-07,5.62500000e-04
-4.00000000e-07,3.81250000e-04
-3.20000000e-07,5.06250000e-04
-2.40000000e-07,6.12500000e-04
-1.60000000e-07,7.15625000e-04
-8.00000000e-08,6.68750000e-04
0.00000000e+00,3.37500000e-04
8.00000000e-08,4.07593750e-02
1.60000000e-07,1.11893750e-01
2.40000000e-07,1.43640625e-01
3.20000000e-07,1.60150000e-01
4.00000000e-07,1.68212500e-01
4.80000000e-07,1.70931250e-01
5.60000000e-07,1.70818750e-01
6.40000000e-07,1.69593750e-01
7.20000000e-07,1.67550000e-01
8.00000000e-07,1.64484375e-01
8.80000000e-07,1.60421875e-01
9.60000000e-07,1.55940625e-01
1.04000000e-06,1.51565625e-01
1.12000000e-06,1.47415625e-01
1.20000000e-06,1.43434375e-01
1.28000000e-06,1.39387500e-01
1.36000000e-06,1.35175000e-01
1.44000000e-06,1.31050000e-01
1.52000000e-06,1.27096875e-01
1.60000000e-06,1.23403125e-01
1.68000000e-06,1.20125000e-01
1.76000000e-06,1.16956250e-01
1.84000000e-06,1.14109375e-01
1.92000000e-06,1.11309375e-01
2.00000000e-06,1.08490625e-01
2.08000000e-06,1.05634375e-01
2.16000000e-06,1.02856250e-01
2.24000000e-06,1.00175000e-01
2.32000000e-06,9.81687500e-02
2.40000000e-06,9.63781250e-02
2.48000000e-06,9.44906250e-02
2.56000000e-06,9.22343750e-02
2.64000000e-06,8.99875000e-02
2.72000000e-06,8.83812500e-02
2.80000000e-06,8.68718750e-02
2.88000000e-06,8.52562500e-02
2.96000000e-06,8.35281250e-02
3.04000000e-06,8.19343750e-02
3.12000000e-06,8.05375000e-02
3.20000000e-06,7.94187500e-02
3.28000000e-06,7.81906250e-02
3.36000000e-06,7.69031250e-02
3.44000000e-06,7.55656250e-02
3.52000000e-06,7.41343750e-02
3.60000000e-06,7.28406250e-02
3.68000000e-06,7.19187500e-02
3.76000000e-06,7.13156250e-02
3.84000000e-06,7.04968750e-02
3.92000000e-06,6.94875000e-02
4.00000000e-06,6.84187500e-02
4.08000000e-06,6.73250000e-02
4.16000000e-06,6.63031250e-02
4.24000000e-06,6.54687500e-02
4.32000000e-06,6.50656250e-02
4.40000000e-06,6.46125000e-02
4.48000000e-06,6.38031250e-02
4.56000000e-06,6.25875000e-02
4.64000000e-06,6.16906250e-02
4.72000000e-06,6.10156250e-02
4.80000000e-06,6.07093750e-02
4.88000000e-06,6.02312500e-02
4.96000000e-06,5.94375000e-02
5.04000000e-06,5.86843750e-02
5.12000000e-06,5.80406250e-02
5.20000000e-06,5.71218750e-02
5.28000000e-06,5.65312500e-02
5.36000000e-06,5.63218750e-02
5.44000000e-06,5.62500000e-02
5.52000000e-06,5.56312500e-02
5.60000000e-06,5.48625000e-02
5.68000000e-06,5.40312500e-02
5.76000000e-06,5.34562500e-02
5.84000000e-06,5.29812500e-02
5.92000000e-06,5.25968750e-02
6.00000000e-06,5.24187500e-02
6.08000000e-06,5.22281250e-02
6.16000000e-06,5.16781250e-02
6.24000000e-06,5.09468750e-02
6.32000000e-06,5.03250000e-02
6.40000000e-06,4.99250000e-02
6.48000000e-06,4.96125000e-02
6.56000000e-06,4.93781250e-02
6.64000000e-06,4.90500000e-02
6.72000000e-06,4.84937500e-02
6.80000000e-06,4.79468750e-02
6.88000000e-06,4.76156250e-02
6.96000000e-06,4.73218750e-02
7.04000000e-06,4.70968750e-02
7.12000000e-06,4.65750000e-02
7.20000000e-06,4.59687500e-02
7.28000000e-06,4.55875000e-02
7.36000000e-06,4.54593750e-02
7.44000000e-06,4.52093750e-02
7.52000000e-06,4.50468750e-02
7.60000000e-06,4.48781250e-02
7.68000000e-06,4.42750000e-02
7.76000000e-06,4.36406250e-02
