MSci Project Data/E140V.csv

Model,MSO44
Waveform Type,ANALOG
Horizontal Units,s
Sample Interval,8.00000000e-08
Record Length,5000
Zero Index,544.00000000
Vertical Units,V
ANALOG_Thumbnail,

TIME,CH1
-4.35200000e-05,3.53125000e-04
-4.34400000e-05,1.30000000e-03
-4.33600000e-05,1.86875000e-03
-4.32800000e-05,1.60312500e-03
-4.32000000e-05,6.71875000e-04
-4.31200000e-05,-1.12500000e-04
-4.30400000e-05,1.09375000e-04
-4.29600000e-05,9.50000000e-04
-4.28800000e-05,1.39375000e-03
-4.28000000e-05,1.23437500e-03
-4.27200000e-05,6.03125000e-04
-4.26400000e-05,5.31250000e-05
-4.25600000e-05,-7.50000000e-05
-4.24800000e-05,5.12500000e-04
-4.24000000e-05,1.06250000e-03
-4.23200000e-05,1.20625000e-03
-4.22400000e-05,1.17500000e-03
-4.21600000e-05,1.01562500e-03
-4.20800000e-05,7.09375000e-04
-4.20000000e-05,5.25000000e-04
-4.19200000e-05,6.81250000e-04
-4.18400000e-05,9.34375000e-04
-4.17600000e-05,1.16875000e-03
-4.16800000e-05,1.01562500e-03
-4.16000000e-05,6.59375000e-04
-4.15200000e-05,4.62500000e-04
-4.14400000e-05,6.00000000e-04
-4.13600000e-05,1.00625000e-03
-4.12800000e-05,1.10000000e-03
-4.12000000e-05,8.53125000e-04
-4.11200000e-05,3.93750000e-04
-4.10400000e-05,4.71875000e-04
-4.09600000e-05,9.59375000e-04
-4.08800000e-05,9.34375000e-04
-4.08000000e-05,7.31250000e-04
-4.07200000e-05,5.28125000e-04
-4.06400000e-05,9.06250000e-04
-4.05600000e-05,1.20000000e-03
-4.04800000e-05,9.78125000e-04
-4.04000000e-05,5.00000000e-04
-4.03200000e-05,7.34375000e-04
-4.02400000e-05,1.03750000e-03
-4.01600000e-05,1.03125000e-03
-4.00800000e-05,6.28125000e-04
-4.00000000e-05,3.37500000e-04
-3.99200000e-05,6.15625000e-04
-3.98400000e-05,1.36250000e-03
-3.97600000e-05,1.73750000e-03
-3.96800000e-05,1.18750000e-03
-3.96000000e-05,3.21875000e-04
-3.95200000e-05,-1.25000000e-05
-3.94400000e-05,5.00000000e-04
-3.93600000e-05,1.22812500e-03
-3.92800000e-05,1.58125000e-03
-3.92000000e-05,1.25937500e-03
-3.91200000e-05,6.37500000e-04
-3.90400000e-05,6.56250000e-05
-3.89600000e-05,3.12500000e-06
-3.88800000e-05,5.43750000e-04
-3.88000000e-05,9.40625000e-04
-3.87200000e-05,1.13437500e-03
-3.86400000e-05,1.09375000e-03
-3.85600000e-05,8.28125000e-04
-3.84800000e-05,8.46875000e-04
-3.84000000e-05,8.06250000e-04
-3.83200000e-05,8.40625000e-04
-3.82400000e-05,8.62500000e-04
-3.81600000e-05,9.50000000e-04
-3.80800000e-05,8.21875000e-04
-3.80000000e-05,6.09375000e-04
-3.79200000e-05,5.65625000e-04
-3.78400000e-05,6.59375000e-04
-3.77600000e-05,1.16562500e-03
-3.76800000e-05,1.35000000e-03
-3.76000000e-05,1.13750000e-03
-3.75200000e-05,3.59375000e-04
-3.74400000e-05,3.46875000e-04
-3.73600000e-05,7.34375000e-04
-3.72800000e-05,9.62500000e-04
-3.72000000e-05,6.75000000e-04
-3.71200000e-05,5.09375000e-04
-3.70400000e-05,8.68750000e-04
-3.69600000e-05,1.13437500e-03
-3.68800000e-05,9.65625000e-04
-3.68000000e-05,4.75000000e-04
-3.67200000e-05,7.46875000e-04
-3.66400000e-05,1.00312500e-03
-3.65600000e-05,8.34375000e-04
-3.64800000e-05,4.75000000e-04
-3.64000000e-05,1.62500000e-04
-3.63200000e-05,6.06250000e-04
-3.62400000e-05,1.33750000e-03
-3.61600000e-05,1.90000000e-03
-3.60800000e-05,1.40625000e-03
-3.60000000e-05,4.03125000e-04
-3.59200000e-05,-1.06250000e-04
-3.58400000e-05,2.09375000e-04
-3.57600000e-05,1.25625000e-03
-3.56800000e-05,1.56562500e-03
-3.56000000e-05,1.06562500e-03
-3.55200000e-05,4.31250000e-04
-3.54400000e-05,4.06250000e-05
-3.53600000e-05,9.37500000e-06
-3.52800000e-05,5.40625000e-04
-3.52000000e-05,1.05000000e-03
-3.51200000e-05,1.15312500e-03
-3.50400000e-05,9.68750000e-04
-3.49600000e-05,8.68750000e-04
-3.48800000e-05,7.96875000e-04
-3.48000000e-05,7.75000000e-04
-3.47200000e-05,7.56250000e-04
-3.46400000e-05,7.25000000e-04
-3.45600000e-05,8.65625000e-04
-3.44800000e-05,9.50000000e-04
-3.44000000e-05,5.46875000e-04
-3.43200000e-05,3.81250000e-04
-3.42400000e-05,6.00000000e-04
-3.41600000e-05,1.12500000e-03
-3.40800000e-05,1.08125000e-03
-3.40000000e-05,8.40625000e-04
-3.39200000e-05,4.68750000e-04
-3.38400000e-05,3.46875000e-04
-3.37600000e-05,7.18750000e-04
-3.36800000e-05,8.96875000e-04
-3.36000000e-05,6.87500000e-04
-3.35200000e-05,5.59375000e-04
-3.34400000e-05,8.12500000e-04
-3.33600000e-05,1.14062500e-03
-3.32800000e-05,8.12500000e-04
-3.32000000e-05,3.65625000e-04
-3.31200000e-05,6.15625000e-04
-3.30400000e-05,1.07812500e-03
-3.29600000e-05,1.08125000e-03
-3.28800000e-05,6.50000000e-04
-3.28000000e-05,1.50000000e-04
-3.27200000e-05,3.40625000e-04
-3.26400000e-05,1.09687500e-03
-3.25600000e-05,1.65000000e-03
-3.24800000e-05,1.34687500e-03
-3.24000000e-05,4.68750000e-04
-3.23200000e-05,6.25000000e-06
-3.22400000e-05,3.09375000e-04
-3.21600000e-05,9.68750000e-04
-3.20800000e-05,1.50625000e-03
-3.20000000e-05,1.35312500e-03
-3.19200000e-05,7.00000000e-04
-3.18400000e-05,-5.00000000e-05
-3.17600000e-05,-9.37500000e-05
-3.16800000e-05,4.15625000e-04
-3.16000000e-05,9.43750000e-04
-3.15200000e-05,1.03125000e-03
-3.14400000e-05,9.90625000e-04
-3.13600000e-05,9.81250000e-04
-3.12800000e-05,8.65625000e-04
-3.12000000e-05,6.56250000e-04
-3.11200000e-05,6.78125000e-04
-3.10400000e-05,8.53125000e-04
-3.09600000e-05,1.16562500e-03
-3.08800000e-05,8.37500000e-04
-3.08000000e-05,4.62500000e-04
-3.07200000e-05,2.75000000e-04
-3.06400000e-05,4.81250000e-04
-3.05600000e-05,1.17500000e-03
-3.04800000e-05,1.32187500e-03
-3.04000000e-05,8.78125000e-04
-3.03200000e-05,1.75000000e-04
-3.02400000e-05,3.25000000e-04
-3.01600000e-05,7.53125000e-04
-3.00800000e-05,8.25000000e-04
-3.00000000e-05,5.06250000e-04
-2.99200000e-05,5.18750000e-04
-2.98400000e-05,9.34375000e-04
-2.97600000e-05,1.09375000e-03
-2.96800000e-05,8.71875000e-04
-2.96000000e-05,4.93750000e-04
-2.95200000e-05,6.56250000e-04
-2.94400000e-05,9.78125000e-04
-2.93600000e-05,8.78125000e-04
-2.92800000e-05,5.25000000e-04
-2.92000000e-05,1.37500000e-04
-2.91200000e-05,4.18750000e-04
-2.90400000e-05,1.46562500e-03
-2.89600000e-05,1.92187500e-03
-2.88800000e-05,1.35625000e-03
-2.88000000e-05,3.34375000e-04
-2.87200000e-05,-2.53125000e-04
-2.86400000e-05,2.09375000e-04
-2.85600000e-05,1.07812500e-03
-2.84800000e-05,1.45000000e-03
-2.84000000e-05,1.30625000e-03
-2.83200000e-05,5.53125000e-04
-2.82400000e-05,1.25000000e-05
-2.81600000e-05,9.37500000e-06
-2.80800000e-05,4.96875000e-04
-2.80000000e-05,9.59375000e-04
-2.79200000e-05,1.22812500e-03
-2.78400000e-05,1.13750000e-03
-2.77600000e-05,9.37500000e-04
-2.76800000e-05,6.93750000e-04
-2.76000000e-05,5.65625000e-04
-2.75200000e-05,6.28125000e-04
-2.74400000e-05,6.84375000e-04
-2.73600000e-05,8.68750000e-04
-2.72800000e-05,1.03437500e-03
-2.72000000e-05,7.93750000e-04
-2.71200000e-05,6.53125000e-04
-2.70400000e-05,5.40625000e-04
-2.69600000e-05,9.25000000e-04
-2.68800000e-05,9.84375000e-04
-2.68000000e-05,8.31250000e-04
-2.67200000e-05,4.62500000e-04
-2.66400000e-05,4.09375000e-04
-2.65600000e-05,7.81250000e-04
-2.64800000e-05,8.15625000e-04
-2.64000000e-05,5.18750000e-04
-2.63200000e-05,3.31250000e-04
-2.62400000e-05,7.93750000e-04
-2.61600000e-05,1.26562500e-03
-2.60800000e-05,1.06562500e-03
-2.60000000e-05,3.81250000e-04
-2.59200000e-05,6.34375000e-04
-2.58400000e-05,1.03750000e-03
-2.57600000e-05,9.90625000e-04
-2.56800000e-05,4.93750000e-04
-2.56000000e-05,3.03125000e-04
-2.55200000e-05,5.15625000e-04
-2.54400000e-05,1.16562500e-03
-2.53600000e-05,1.51875000e-03
-2.52800000e-05,1.20000000e-03
-2.52000000e-05,3.34375000e-04
-2.51200000e-05,-1.46875000e-04
-2.50400000e-05,3.37500000e-04
-2.49600000e-05,1.23437500e-03
-2.48800000e-05,1.78437500e-03
-2.48000000e-05,1.30000000e-03
-2.47200000e-05,5.43750000e-04
-2.46400000e-05,-1.43750000e-04
-2.45600000e-05,-1.18750000e-04
-2.44800000e-05,4.90625000e-04
-2.44000000e-05,9.53125000e-04
-2.43200000e-05,1.12187500e-03
-2.42400000e-05,9.37500000e-04
-2.41600000e-05,8.00000000e-04
-2.40800000e-05,8.25000000e-04
-2.40000000e-05,1.05937500e-03
-2.39200000e-05,9.06250000e-04
-2.38400000e-05,8.62500000e-04
-2.37600000e-05,1.02187500e-03
-2.36800000e-05,9.40625000e-04
-2.36000000e-05,4.50000000e-04
-2.35200000e-05,3.28125000e-04
-2.34400000e-05,6.18750000e-04
-2.33600000e-05,1.28750000e-03
-2.32800000e-05,1.29062500e-03
-2.32000000e-05,1.02812500e-03
-2.31200000e-05,2.93750000e-04
-2.30400000e-05,3.34375000e-04
-2.29600000e-05,6.28125000e-04
-2.28800000e-05,9.06250000e-04
-2.28000000e-05,6.90625000e-04
-2.27200000e-05,7.34375000e-04
-2.26400000e-05,9.06250000e-04
-2.25600000e-05,9.96875000e-04
-2.24800000e-05,7.15625000e-04
-2.24000000e-05,3.78125000e-04
-2.23200000e-05,7.00000000e-04
-2.22400000e-05,9.96875000e-04
-2.21600000e-05,9.56250000e-04
-2.20800000e-05,5.46875000e-04
-2.20000000e-05,8.43750000e-05
-2.19200000e-05,2.59375000e-04
-2.18400000e-05,1.19062500e-03
-2.17600000e-05,1.84062500e-03
-2.16800000e-05,1.49375000e-03
-2.16000000e-05,6.15625000e-04
-2.15200000e-05,-1.53125000e-04
-2.14400000e-05,1.25000000e-04
-2.13600000e-05,8.46875000e-04
-2.12800000e-05,1.29687500e-03
-2.12000000e-05,1.12812500e-03
-2.11200000e-05,6.09375000e-04
-2.10400000e-05,-1.25000000e-05
-2.09600000e-05,-2.50000000e-05
-2.08800000e-05,4.43750000e-04
-2.08000000e-05,9.78125000e-04
-2.07200000e-05,1.12812500e-03
-2.06400000e-05,1.02500000e-03
-2.05600000e-05,8.81250000e-04
-2.04800000e-05,5.71875000e-04
-2.04000000e-05,4.53125000e-04
-2.03200000e-05,5.28125000e-04
-2.02400000e-05,8.18750000e-04
-2.01600000e-05,1.10625000e-03
-2.00800000e-05,9.56250000e-04
-2.00000000e-05,5.15625000e-04
-1.99200000e-05,4.50000000e-04
-1.98400000e-05,5.53125000e-04
-1.97600000e-05,8.84375000e-04
-1.96800000e-05,9.37500000e-04
-1.96000000e-05,6.78125000e-04
-1.95200000e-05,3.06250000e-04
-1.94400000e-05,3.28125000e-04
-1.93600000e-05,7.53125000e-04
-1.92800000e-05,8.65625000e-04
-1.92000000e-05,5.90625000e-04
-1.91200000e-05,3.65625000e-04
-1.90400000e-05,7.21875000e-04
-1.89600000e-05,1.04062500e-03
-1.88800000e-05,9.40625000e-04
-1.88000000e-05,4.75000000e-04
-1.87200000e-05,6.43750000e-04
-1.86400000e-05,8.96875000e-04
-1.85600000e-05,8.31250000e-04
-1.84800000e-05,3.90625000e-04
-1.84000000e-05,1.68750000e-04
-1.83200000e-05,4.28125000e-04
-1.82400000e-05,1.24375000e-03
-1.81600000e-05,1.64375000e-03
-1.80800000e-05,1.03750000e-03
-1.80000000e-05,1.93750000e-04
-1.79200000e-05,-1.09375000e-04
-1.78400000e-05,4.78125000e-04
-1.77600000e-05,1.24375000e-03
-1.76800000e-05,1.47187500e-03
-1.76000000e-05,1.13750000e-03
-1.75200000e-05,4.62500000e-04
-1.74400000e-05,-1.93750000e-04
-1.73600000e-05,-2.06250000e-04
-1.72800000e-05,3.03125000e-04
-1.72000000e-05,8.31250000e-04
-1.71200000e-05,1.03125000e-03
-1.70400000e-05,8.96875000e-04
-1.69600000e-05,6.87500000e-04
-1.68800000e-05,6.81250000e-04
-1.68000000e-05,7.53125000e-04
-1.67200000e-05,7.09375000e-04
-1.66400000e-05,6.68750000e-04
-1.65600000e-05,7.43750000e-04
-1.64800000e-05,6.68750000e-04
-1.64000000e-05,4.65625000e-04
-1.63200000e-05,2.81250000e-04
-1.62400000e-05,3.75000000e-04
-1.61600000e-05,9.53125000e-04
-1.60800000e-05,1.20000000e-03
-1.60000000e-05,9.78125000e-04
-1.59200000e-05,2.59375000e-04
-1.58400000e-05,1.81250000e-04
-1.57600000e-05,4.90625000e-04
-1.56800000e-05,7.34375000e-04
-1.56000000e-05,5.09375000e-04
-1.55200000e-05,3.40625000e-04
-1.54400000e-05,6.75000000e-04
-1.53600000e-05,8.96875000e-04
-1.52800000e-05,7.93750000e-04
-1.52000000e-05,3.78125000e-04
-1.51200000e-05,6.06250000e-04
-1.50400000e-05,7.81250000e-04
-1.49600000e-05,7.15625000e-04
-1.48800000e-05,3.43750000e-04
-1.48000000e-05,1.09375000e-04
-1.47200000e-05,5.00000000e-04
-1.46400000e-05,1.24375000e-03
-1.45600000e-05,1.64375000e-03
-1.44800000e-05,1.20625000e-03
-1.44000000e-05,2.31250000e-04
-1.43200000e-05,-4.12500000e-04
-1.42400000e-05,5.93750000e-05
-1.41600000e-05,1.09062500e-03
-1.40800000e-05,1.45937500e-03
-1.40000000e-05,9.21875000e-04
-1.39200000e-05,3.12500000e-04
-1.38400000e-05,-1.15625000e-04
-1.37600000e-05,-1.03125000e-04
-1.36800000e-05,3.96875000e-04
-1.36000000e-05,1.02812500e-03
-1.35200000e-05,1.02812500e-03
-1.34400000e-05,7.53125000e-04
-1.33600000e-05,5.93750000e-04
-1.32800000e-05,5.03125000e-04
-1.32000000e-05,6.75000000e-04
-1.31200000e-05,6.84375000e-04
-1.30400000e-05,6.25000000e-04
-1.29600000e-05,7.28125000e-04
-1.28800000e-05,8.09375000e-04
-1.28000000e-05,4.12500000e-04
-1.27200000e-05,2.71875000e-04
-1.26400000e-05,4.37500000e-04
-1.25600000e-05,9.40625000e-04
-1.24800000e-05,9.93750000e-04
-1.24000000e-05,7.06250000e-04
-1.23200000e-05,2.21875000e-04
-1.22400000e-05,2.34375000e-04
-1.21600000e-05,6.15625000e-04
-1.20800000e-05,7.90625000e-04
-1.20000000e-05,5.59375000e-04
-1.19200000e-05,4.12500000e-04
-1.18400000e-05,6.81250000e-04
-1.17600000e-05,9.68750000e-04
-1.16800000e-05,7.21875000e-04
-1.16000000e-05,2.12500000e-04
-1.15200000e-05,4.68750000e-04
-1.14400000e-05,9.50000000e-04
-1.13600000e-05,1.00000000e-03
-1.12800000e-05,5.43750000e-04
-1.12000000e-05,-1.25000000e-05
-1.11200000e-05,1.93750000e-04
-1.10400000e-05,9.43750000e-04
-1.09600000e-05,1.54687500e-03
-1.08800000e-05,1.21562500e-03
-1.08000000e-05,3.68750000e-04
-1.07200000e-05,-1.65625000e-04
-1.06400000e-05,1.31250000e-04
-1.05600000e-05,8.12500000e-04
-1.04800000e-05,1.35000000e-03
-1.04000000e-05,1.20625000e-03
-1.03200000e-05,4.06250000e-04
-1.02400000e-05,-3.40625000e-04
-1.01600000e-05,-3.15625000e-04
-1.00800000e-05,2.87500000e-04
-1.00000000e-05,8.87500000e-04
-9.92000000e-06,8.50000000e-04
-9.84000000e-06,8.71875000e-04
-9.76000000e-06,7.28125000e-04
-9.68000000e-06,5.90625000e-04
-9.60000000e-06,4.37500000e-04
-9.52000000e-06,4.90625000e-04
-9.44000000e-06,7.78125000e-04
-9.36000000e-06,9.15625000e-04
-9.28000000e-06,6.87500000e-04
-9.20000000e-06,2.62500000e-04
-9.12000000e-06,8.12500000e-05
-9.04000000e-06,3.12500000e-04
-8.96000000e-06,1.05000000e-03
-8.88000000e-06,1.23750000e-03
-8.80000000e-06,9.15625000e-04
-8.72000000e-06,1.53125000e-04
-8.64000000e-06,8.75000000e-05
-8.56000000e-06,5.96875000e-04
-8.48000000e-06,6.75000000e-04
-8.40000000e-06,3.90625000e-04
-8.32000000e-06,3.59375000e-04
-8.24000000e-06,7.34375000e-04
-8.16000000e-06,8.56250000e-04
-8.08000000e-06,6.81250000e-04
-8.00000000e-06,2.96875000e-04
-7.92000000e-06,5.56250000e-04
-7.84000000e-06,7.93750000e-04
-7.76000000e-06,7.34375000e-04
-7.68000000e-06,4.06250000e-04
-7.60000000e-06,1.87500000e-05
-7.52000000e-06,3.18750000e-04
-7.44000000e-06,1.26875000e-03
-7.36000000e-06,1.67812500e-03
-7.28000000e-06,1.18437500e-03
-7.20000000e-06,1.87500000e-04
-7.12000000e-06,-3.90625000e-04
-7.04000000e-06,9.37500000e-06
-6.96000000e-06,7.78125000e-04
-6.88000000e-06,1.29687500e-03
-6.80000000e-06,1.11875000e-03
-6.72000000e-06,4.75000000e-04
-6.64000000e-06,-1.15625000e-04
-6.56000000e-06,-1.90625000e-04
-6.48000000e-06,3.43750000e-04
-6.40000000e-06,8.03125000e-04
-6.32000000e-06,1.10625000e-03
-6.24000000e-06,9.71875000e-04
-6.16000000e-06,7.56250000e-04
-6.08000000e-06,5.03125000e-04
-6.00000000e-06,3.59375000e-04
-5.92000000e-06,5.09375000e-04
-5.84000000e-06,6.06250000e-04
-5.76000000e-06,7.37500000e-04
-5.68000000e-06,8.59375000e-04
-5.60000000e-06,6.65625000e-04
-5.52000000e-06,4.87500000e-04
-5.44000000e-06,4.28125000e-04
-5.36000000e-06,6.68750000e-04
-5.28000000e-06,8.15625000e-04
-5.20000000e-06,7.21875000e-04
-5.12000000e-06,4.15625000e-04
-5.04000000e-06,3.46875000e-04
-4.96000000e-06,5.87500000e-04
-4.88000000e-06,6.31250000e-04
-4.80000000e-06,3.90625000e-04
-4.72000000e-06,2.71875000e-04
-4.64000000e-06,6.56250000e-04
-4.56000000e-06,1.07187500e-03
-4.48000000e-06,8.90625000e-04
-4.40000000e-06,2.15625000e-04
-4.32000000e-06,5.03125000e-04
-4.24000000e-06,8.78125000e-04
-4.16000000e-06,8.56250000e-04
-4.08000000e-06,3.62500000e-04
-4.00000000e-06,8.75000000e-05
-3.92000000e-06,3.28125000e-04
-3.84000000e-06,1.06562500e-03
-3.76000000e-06,1.44375000e-03
-3.68000000e-06,1.13125000e-03
-3.60000000e-06,2.15625000e-04
-3.52000000e-06,-2.84375000e-04
-3.44000000e-06,9.37500000e-05
-3.36000000e-06,1.06875000e-03
-3.28000000e-06,1.50625000e-03
-3.20000000e-06,1.02500000e-03
-3.12000000e-06,3.09375000e-04
-3.04000000e-06,-3.25000000e-04
-2.96000000e-06,-2.46875000e-04
-2.88000000e-06,2.90625000e-04
-2.80000000e-06,8.46875000e-04
-2.72000000e-06,9.31250000e-04
-2.64000000e-06,6.43750000e-04
-2.56000000e-06,5.28125000e-04
-2.48000000e-06,6.09375000e-04
-2.40000000e-06,8.09375000e-04
-2.32000000e-06,5.53125000e-04
-2.24000000e-06,5.90625000e-04
-2.16000000e-06,7.00000000e-04
-2.08000000e-06,6.25000000e-04
-2.00000000e-06,1.31250000e-04
-1.92000000e-06,5.62500000e-05
-1.84000000e-06,3.34375000e-04
-1.76000000e-06,1.08437500e-03
-1.68000000e-06,1.13750000e-03
-1.60000000e-06,8.09375000e-04
-1.52000000e-06,6.56250000e-05
-1.44000000e-06,2.18750000e-05
-1.36000000e-06,3.87500000e-04
-1.28000000e-06,6.68750000e-04
-1.20000000e-06,3.96875000e-04
-1.12000000e-06,4.68750000e-04
-1.04000000e-06,6.93750000e-04
-9.60000000e-07,7.87500000e-04
-8.80000000e-07,4.37500000e-04
-8.00000000e-07,2.06250000e-04
-7.20000000e-07,4.40625000e-04
-6.40000000e-07,7.25000000e-04
-5.60000000e-07,7.34375000e-04
-4.80000000e-07,3.65625000e-04
-4.00000000e-07,-9.06250000e-05
-3.20000000e-07,6.56250000e-05
-2.40000000e-07,1.00312500e-03
-1.60000000e-07,1.55000000e-03
-8.00000000e-08,1.40625000e-03
0.00000000e+00,4.56250000e-04
8.00000000e-08,7.28625000e-02
1.60000000e-07,1.66356250e-01
2.40000000e-07,inf
3.20000000e-07,inf
4.00000000e-07,inf
4.80000000e-07,1.82393750e-01
5.60000000e-07,inf
6.40000000e-07,1.82393750e-01
7.20000000e-07,1.82393750e-01
8.00000000e-07,inf
8.80000000e-07,1.82387500e-01
9.60000000e-07,inf
1.04000000e-06,1.82393750e-01
1.12000000e-06,1.82393750e-01
1.20000000e-06,1.82393750e-01
1.28000000e-06,1.82393750e-01
1.36000000e-06,inf
1.44000000e-06,1.82393750e-01
1.52000000e-06,1.82390625e-01
1.60000000e-06,1.81996875e-01
1.68000000e-06,1.80665625e-01
1.76000000e-06,1.78150000e-01
1.84000000e-06,1.74440625e-01
1.92000000e-06,1.69940625e-01
2.00000000e-06,1.65056250e-01
2.08000000e-06,1.60362500e-01
2.16000000e-06,1.56196875e-01
2.24000000e-06,1.52696875e-01
2.32000000e-06,1.48946875e-01
2.40000000e-06,1.45234375e-01
2.48000000e-06,1.41590625e-01
2.56000000e-06,1.38706250e-01
2.64000000e-06,1.35990625e-01
2.72000000e-06,1.32840625e-01
2.80000000e-06,1.29575000e-01
2.88000000e-06,1.27078125e-01
2.96000000e-06,1.24875000e-01
3.04000000e-06,1.22406250e-01
3.12000000e-06,1.19696875e-01
3.20000000e-06,1.17165625e-01
3.28000000e-06,1.15328125e-01
3.36000000e-06,1.13968750e-01
3.44000000e-06,1.12431250e-01
3.52000000e-06,1.10156250e-01
3.60000000e-06,1.07365625e-01
3.68000000e-06,1.05221875e-01
3.76000000e-06,1.04103125e-01
3.84000000e-06,1.03246875e-01
3.92000000e-06,1.02087500e-01
4.00000000e-06,1.00328125e-01
4.08000000e-06,9.81218750e-02
4.16000000e-06,9.61250000e-02
4.24000000e-06,9.47187500e-02
4.32000000e-06,9.38531250e-02
4.40000000e-06,9.31281250e-02
4.48000000e-06,9.21843750e-02
4.56000000e-06,9.09781250e-02
4.64000000e-06,8.94906250e-02
4.72000000e-06,8.83093750e-02
4.80000000e-06,8.72218750e-02
4.88000000e-06,8.61375000e-02
4.96000000e-06,8.51437500e-02
5.04000000e-06,8.42187500e-02
5.12000000e-06,8.31656250e-02
5.20000000e-06,8.19406250e-02
5.28000000e-06,8.09687500e-02
5.36000000e-06,8.01625000e-02
5.44000000e-06,7.97781250e-02
5.52000000e-06,7.91812500e-02
5.60000000e-06,7.81218750e-02
5.68000000e-06,7.65500000e-02
5.76000000e-06,7.57000000e-02
5.84000000e-06,7.53187500e-02
5.92000000e-06,7.47718750e-02
6.00000000e-06,7.36625000e-02
6.08000000e-06,7.28937500e-02
6.16000000e-06,7.25468750e-02
6.24000000e-06,7.20875000e-02
6.32000000e-06,7.13125000e-02
6.40000000e-06,7.01375000e-02
6.48000000e-06,6.96750000e-02
6.56000000e-06,6.92593750e-02
6.64000000e-06,6.85500000e-02
6.72000000e-06,6.76437500e-02
6.80000000e-06,6.66656250e-02
6.88000000e-06,6.64812500e-02
6.96000000e-06,6.66343750e-02
7.04000000e-06,6.65750000e-02
7.12000000e-06,6.56343750e-02
7.20000000e-06,6.40343750e-02
7.28000000e-06,6.28343750e-02
7.36000000e-06,6.26656250e-02
7.44000000e-06,6.31593750e-02
7.52000000e-06,6.30906250e-02
7.60000000e-06,6.20531250e-02
7.68000000e-06,6.09187500e-02
7.76000000e-06,5.99750000e-02
7.84000000e-06,5.94281250e-02
7.92000000e-06,5.93781250e-02
