MSci Project Data/e60V.csv

Model,MSO44
Waveform Type,ANALOG
Horizontal Units,s
Sample Interval,4.00000000e-08
Record Length,10000
Zero Index,1089.00000000
Vertical Units,V
ANALOG_Thumbnail,

TIME,CH1
-4.35600000e-05,7.09375000e-04
-4.35200000e-05,4.82812500e-04
-4.34800000e-05,3.17187500e-04
-4.34400000e-05,3.26562500e-04
-4.34000000e-05,2.23437500e-04
-4.33600000e-05,1.89062500e-04
-4.33200000e-05,1.76562500e-04
-4.32800000e-05,1.70312500e-04
-4.32400000e-05,2.42187500e-04
-4.32000000e-05,3.12500000e-04
-4.31600000e-05,6.45312500e-04
-4.31200000e-05,8.81250000e-04
-4.30800000e-05,1.03906250e-03
-4.30400000e-05,1.06875000e-03
-4.30000000e-05,9.59375000e-04
-4.29600000e-05,7.07812500e-04
-4.29200000e-05,3.89062500e-04
-4.28800000e-05,1.12500000e-04
-4.28400000e-05,-2.65625000e-05
-4.28000000e-05,4.68750000e-06
-4.27600000e-05,7.81250000e-05
-4.27200000e-05,2.10937500e-04
-4.26800000e-05,3.48437500e-04
-4.26400000e-05,5.82812500e-04
-4.26000000e-05,6.39062500e-04
-4.25600000e-05,7.50000000e-04
-4.25200000e-05,6.54687500e-04
-4.24800000e-05,7.15625000e-04
-4.24400000e-05,6.68750000e-04
-4.24000000e-05,6.43750000e-04
-4.23600000e-05,4.70312500e-04
-4.23200000e-05,2.73437500e-04
-4.22800000e-05,2.29687500e-04
-4.22400000e-05,2.75000000e-04
-4.22000000e-05,3.34375000e-04
-4.21600000e-05,3.40625000e-04
-4.21200000e-05,4.84375000e-04
-4.20800000e-05,5.04687500e-04
-4.20400000e-05,6.09375000e-04
-4.20000000e-05,5.82812500e-04
-4.19600000e-05,6.85937500e-04
-4.19200000e-05,6.96875000e-04
-4.18800000e-05,7.89062500e-04
-4.18400000e-05,7.03125000e-04
-4.18000000e-05,6.18750000e-04
-4.17600000e-05,4.25000000e-04
-4.17200000e-05,2.85937500e-04
-4.16800000e-05,-1.71875000e-05
-4.16400000e-05,-5.78125000e-05
-4.16000000e-05,9.84375000e-05
-4.15600000e-05,4.15625000e-04
-4.15200000e-05,7.07812500e-04
-4.14800000e-05,9.28125000e-04
-4.14400000e-05,9.03125000e-04
-4.14000000e-05,7.82812500e-04
-4.13600000e-05,6.29687500e-04
-4.13200000e-05,4.01562500e-04
-4.12800000e-05,2.32812500e-04
-4.12400000e-05,2.53125000e-04
-4.12000000e-05,2.89062500e-04
-4.11600000e-05,4.60937500e-04
-4.11200000e-05,5.23437500e-04
-4.10800000e-05,7.29687500e-04
-4.10400000e-05,5.89062500e-04
-4.10000000e-05,5.57812500e-04
-4.09600000e-05,3.45312500e-04
-4.09200000e-05,2.67187500e-04
-4.08800000e-05,1.76562500e-04
-4.08400000e-05,1.85937500e-04
-4.08000000e-05,1.07812500e-04
-4.07600000e-05,4.46875000e-04
-4.07200000e-05,6.37500000e-04
-4.06800000e-05,9.65625000e-04
-4.06400000e-05,1.06093750e-03
-4.06000000e-05,1.13593750e-03
-4.05600000e-05,9.82812500e-04
-4.05200000e-05,8.12500000e-04
-4.04800000e-05,5.18750000e-04
-4.04400000e-05,3.18750000e-04
-4.04000000e-05,1.93750000e-04
-4.03600000e-05,1.18750000e-04
-4.03200000e-05,2.50000000e-05
-4.02800000e-05,-2.81250000e-05
-4.02400000e-05,9.06250000e-05
-4.02000000e-05,2.40625000e-04
-4.01600000e-05,4.57812500e-04
-4.01200000e-05,6.18750000e-04
-4.00800000e-05,8.23437500e-04
-4.00400000e-05,1.07343750e-03
-4.00000000e-05,1.07187500e-03
-3.99600000e-05,1.03437500e-03
-3.99200000e-05,8.21875000e-04
-3.98800000e-05,7.34375000e-04
-3.98400000e-05,4.57812500e-04
-3.98000000e-05,2.14062500e-04
-3.97600000e-05,9.68750000e-05
-3.97200000e-05,6.56250000e-05
-3.96800000e-05,2.01562500e-04
-3.96400000e-05,2.34375000e-04
-3.96000000e-05,3.82812500e-04
-3.95600000e-05,4.62500000e-04
-3.95200000e-05,6.39062500e-04
-3.94800000e-05,6.82812500e-04
-3.94400000e-05,7.87500000e-04
-3.94000000e-05,8.12500000e-04
-3.93600000e-05,8.10937500e-04
-3.93200000e-05,6.81250000e-04
-3.92800000e-05,6.48437500e-04
-3.92400000e-05,4.46875000e-04
-3.92000000e-05,3.26562500e-04
-3.91600000e-05,2.09375000e-04
-3.91200000e-05,1.70312500e-04
-3.90800000e-05,1.43750000e-04
-3.90400000e-05,3.75000000e-04
-3.90000000e-05,5.26562500e-04
-3.89600000e-05,8.29687500e-04
-3.89200000e-05,7.79687500e-04
-3.88800000e-05,7.89062500e-04
-3.88400000e-05,7.28125000e-04
-3.88000000e-05,7.15625000e-04
-3.87600000e-05,6.35937500e-04
-3.87200000e-05,5.14062500e-04
-3.86800000e-05,5.50000000e-04
-3.86400000e-05,5.59375000e-04
-3.86000000e-05,4.15625000e-04
-3.85600000e-05,3.53125000e-04
-3.85200000e-05,2.84375000e-04
-3.84800000e-05,2.23437500e-04
-3.84400000e-05,1.42187500e-04
-3.84000000e-05,2.28125000e-04
-3.83600000e-05,6.10937500e-04
-3.83200000e-05,9.28125000e-04
-3.82800000e-05,1.10781250e-03
-3.82400000e-05,1.18750000e-03
-3.82000000e-05,1.05625000e-03
-3.81600000e-05,8.43750000e-04
-3.81200000e-05,4.71875000e-04
-3.80800000e-05,1.90625000e-04
-3.80400000e-05,6.09375000e-05
-3.80000000e-05,7.81250000e-05
-3.79600000e-05,1.31250000e-04
-3.79200000e-05,2.96875000e-04
-3.78800000e-05,4.17187500e-04
-3.78400000e-05,5.04687500e-04
-3.78000000e-05,5.60937500e-04
-3.77600000e-05,7.12500000e-04
-3.77200000e-05,7.51562500e-04
-3.76800000e-05,7.09375000e-04
-3.76400000e-05,6.25000000e-04
-3.76000000e-05,5.70312500e-04
-3.75600000e-05,6.18750000e-04
-3.75200000e-05,5.60937500e-04
-3.74800000e-05,5.20312500e-04
-3.74400000e-05,4.76562500e-04
-3.74000000e-05,3.70312500e-04
-3.73600000e-05,3.14062500e-04
-3.73200000e-05,2.18750000e-04
-3.72800000e-05,2.34375000e-04
-3.72400000e-05,2.39062500e-04
-3.72000000e-05,2.28125000e-04
-3.71600000e-05,3.65625000e-04
-3.71200000e-05,6.20312500e-04
-3.70800000e-05,7.68750000e-04
-3.70400000e-05,9.39062500e-04
-3.70000000e-05,1.04062500e-03
-3.69600000e-05,1.11875000e-03
-3.69200000e-05,1.00000000e-03
-3.68800000e-05,7.84375000e-04
-3.68400000e-05,5.57812500e-04
-3.68000000e-05,4.53125000e-04
-3.67600000e-05,4.04687500e-04
-3.67200000e-05,3.17187500e-04
-3.66800000e-05,2.46875000e-04
-3.66400000e-05,2.71875000e-04
-3.66000000e-05,3.18750000e-04
-3.65600000e-05,4.03125000e-04
-3.65200000e-05,5.68750000e-04
-3.64800000e-05,7.00000000e-04
-3.64400000e-05,7.89062500e-04
-3.64000000e-05,8.28125000e-04
-3.63600000e-05,8.40625000e-04
-3.63200000e-05,8.14062500e-04
-3.62800000e-05,7.78125000e-04
-3.62400000e-05,6.37500000e-04
-3.62000000e-05,4.76562500e-04
-3.61600000e-05,2.48437500e-04
-3.61200000e-05,8.43750000e-05
-3.60800000e-05,-6.71875000e-05
-3.60400000e-05,-4.21875000e-05
-3.60000000e-05,1.75000000e-04
-3.59600000e-05,5.73437500e-04
-3.59200000e-05,8.75000000e-04
-3.58800000e-05,1.08437500e-03
-3.58400000e-05,1.16875000e-03
-3.58000000e-05,1.12343750e-03
-3.57600000e-05,9.67187500e-04
-3.57200000e-05,6.14062500e-04
-3.56800000e-05,3.18750000e-04
-3.56400000e-05,1.51562500e-04
-3.56000000e-05,2.01562500e-04
-3.55600000e-05,2.87500000e-04
-3.55200000e-05,3.00000000e-04
-3.54800000e-05,4.18750000e-04
-3.54400000e-05,4.29687500e-04
-3.54000000e-05,5.37500000e-04
-3.53600000e-05,5.48437500e-04
-3.53200000e-05,6.29687500e-04
-3.52800000e-05,6.92187500e-04
-3.52400000e-05,8.06250000e-04
-3.52000000e-05,8.73437500e-04
-3.51600000e-05,7.90625000e-04
-3.51200000e-05,7.37500000e-04
-3.50800000e-05,5.31250000e-04
-3.50400000e-05,4.14062500e-04
-3.50000000e-05,3.92187500e-04
-3.49600000e-05,4.34375000e-04
-3.49200000e-05,4.25000000e-04
-3.48800000e-05,3.76562500e-04
-3.48400000e-05,4.71875000e-04
-3.48000000e-05,5.06250000e-04
-3.47600000e-05,6.39062500e-04
-3.47200000e-05,6.62500000e-04
-3.46800000e-05,7.14062500e-04
-3.46400000e-05,7.95312500e-04
-3.46000000e-05,7.75000000e-04
-3.45600000e-05,7.54687500e-04
-3.45200000e-05,4.48437500e-04
-3.44800000e-05,3.42187500e-04
-3.44400000e-05,2.14062500e-04
-3.44000000e-05,3.26562500e-04
-3.43600000e-05,4.20312500e-04
-3.43200000e-05,6.51562500e-04
-3.42800000e-05,7.21875000e-04
-3.42400000e-05,6.81250000e-04
-3.42000000e-05,6.29687500e-04
-3.41600000e-05,4.68750000e-04
-3.41200000e-05,4.07812500e-04
-3.40800000e-05,4.75000000e-04
-3.40400000e-05,5.40625000e-04
-3.40000000e-05,5.78125000e-04
-3.39600000e-05,5.60937500e-04
-3.39200000e-05,5.96875000e-04
-3.38800000e-05,6.25000000e-04
-3.38400000e-05,5.76562500e-04
-3.38000000e-05,4.40625000e-04
-3.37600000e-05,2.89062500e-04
-3.37200000e-05,2.37500000e-04
-3.36800000e-05,2.54687500e-04
-3.36400000e-05,2.21875000e-04
-3.36000000e-05,2.68750000e-04
-3.35600000e-05,4.10937500e-04
-3.35200000e-05,6.50000000e-04
-3.34800000e-05,9.89062500e-04
-3.34400000e-05,1.11562500e-03
-3.34000000e-05,1.20468750e-03
-3.33600000e-05,1.12812500e-03
-3.33200000e-05,9.42187500e-04
-3.32800000e-05,6.26562500e-04
-3.32400000e-05,3.28125000e-04
-3.32000000e-05,1.21875000e-04
-3.31600000e-05,8.90625000e-05
-3.31200000e-05,1.00000000e-04
-3.30800000e-05,7.65625000e-05
-3.30400000e-05,2.14062500e-04
-3.30000000e-05,3.23437500e-04
-3.29600000e-05,6.65625000e-04
-3.29200000e-05,8.53125000e-04
-3.28800000e-05,1.03750000e-03
-3.28400000e-05,1.14062500e-03
-3.28000000e-05,1.14843750e-03
-3.27600000e-05,1.03125000e-03
-3.27200000e-05,8.12500000e-04
-3.26800000e-05,5.70312500e-04
-3.26400000e-05,3.95312500e-04
-3.26000000e-05,2.01562500e-04
-3.25600000e-05,1.21875000e-04
-3.25200000e-05,7.18750000e-05
-3.24800000e-05,2.31250000e-04
-3.24400000e-05,2.65625000e-04
-3.24000000e-05,5.04687500e-04
-3.23600000e-05,5.98437500e-04
-3.23200000e-05,7.43750000e-04
-3.22800000e-05,7.60937500e-04
-3.22400000e-05,8.37500000e-04
-3.22000000e-05,7.84375000e-04
-3.21600000e-05,7.32812500e-04
-3.21200000e-05,5.82812500e-04
-3.20800000e-05,4.42187500e-04
-3.20400000e-05,2.17187500e-04
-3.20000000e-05,2.46875000e-04
-3.19600000e-05,1.90625000e-04
-3.19200000e-05,3.01562500e-04
-3.18800000e-05,3.59375000e-04
-3.18400000e-05,6.23437500e-04
-3.18000000e-05,7.87500000e-04
-3.17600000e-05,9.29687500e-04
-3.17200000e-05,8.53125000e-04
-3.16800000e-05,6.71875000e-04
-3.16400000e-05,5.75000000e-04
-3.16000000e-05,5.39062500e-04
-3.15600000e-05,5.50000000e-04
-3.15200000e-05,4.64062500e-04
-3.14800000e-05,4.31250000e-04
-3.14400000e-05,5.29687500e-04
-3.14000000e-05,5.70312500e-04
-3.13600000e-05,4.93750000e-04
-3.13200000e-05,4.45312500e-04
-3.12800000e-05,3.48437500e-04
-3.12400000e-05,3.70312500e-04
-3.12000000e-05,3.71875000e-04
-3.11600000e-05,5.57812500e-04
-3.11200000e-05,8.68750000e-04
-3.10800000e-05,1.12343750e-03
-3.10400000e-05,1.15625000e-03
-3.10000000e-05,9.93750000e-04
-3.09600000e-05,8.50000000e-04
-3.09200000e-05,5.43750000e-04
-3.08800000e-05,3.29687500e-04
-3.08400000e-05,4.06250000e-05
-3.08000000e-05,9.37500000e-05
-3.07600000e-05,2.70312500e-04
-3.07200000e-05,4.40625000e-04
-3.06800000e-05,5.00000000e-04
-3.06400000e-05,5.53125000e-04
-3.06000000e-05,6.28125000e-04
-3.05600000e-05,6.12500000e-04
-3.05200000e-05,6.31250000e-04
-3.04800000e-05,6.35937500e-04
-3.04400000e-05,7.32812500e-04
-3.04000000e-05,6.85937500e-04
-3.03600000e-05,7.21875000e-04
-3.03200000e-05,5.76562500e-04
-3.02800000e-05,6.40625000e-04
-3.02400000e-05,4.53125000e-04
-3.02000000e-05,4.45312500e-04
-3.01600000e-05,3.40625000e-04
-3.01200000e-05,2.87500000e-04
-3.00800000e-05,2.95312500e-04
-3.00400000e-05,2.89062500e-04
-3.00000000e-05,3.25000000e-04
-2.99600000e-05,4.67187500e-04
-2.99200000e-05,6.71875000e-04
-2.98800000e-05,8.25000000e-04
-2.98400000e-05,9.68750000e-04
-2.98000000e-05,9.98437500e-04
-2.97600000e-05,1.05937500e-03
-2.97200000e-05,9.29687500e-04
-2.96800000e-05,7.39062500e-04
-2.96400000e-05,6.07812500e-04
-2.96000000e-05,5.51562500e-04
-2.95600000e-05,4.67187500e-04
-2.95200000e-05,3.81250000e-04
-2.94800000e-05,3.04687500e-04
-2.94400000e-05,2.56250000e-04
-2.94000000e-05,2.90625000e-04
-2.93600000e-05,3.79687500e-04
-2.93200000e-05,4.78125000e-04
-2.92800000e-05,5.96875000e-04
-2.92400000e-05,8.54687500e-04
-2.92000000e-05,9.23437500e-04
-2.91600000e-05,8.96875000e-04
-2.91200000e-05,8.23437500e-04
-2.90800000e-05,7.89062500e-04
-2.90400000e-05,7.17187500e-04
-2.90000000e-05,4.95312500e-04
-2.89600000e-05,3.37500000e-04
-2.89200000e-05,1.76562500e-04
-2.88800000e-05,1.12500000e-04
-2.88400000e-05,9.84375000e-05
-2.88000000e-05,2.84375000e-04
-2.87600000e-05,4.14062500e-04
-2.87200000e-05,8.03125000e-04
-2.86800000e-05,9.75000000e-04
-2.86400000e-05,1.17343750e-03
-2.86000000e-05,1.11718750e-03
-2.85600000e-05,9.82812500e-04
-2.85200000e-05,8.04687500e-04
-2.84800000e-05,5.59375000e-04
-2.84400000e-05,3.64062500e-04
-2.84000000e-05,2.48437500e-04
-2.83600000e-05,2.51562500e-04
-2.83200000e-05,1.79687500e-04
-2.82800000e-05,2.71875000e-04
-2.82400000e-05,3.93750000e-04
-2.82000000e-05,5.92187500e-04
-2.81600000e-05,6.68750000e-04
-2.81200000e-05,7.64062500e-04
-2.80800000e-05,8.68750000e-04
-2.80400000e-05,8.07812500e-04
-2.80000000e-05,8.85937500e-04
-2.79600000e-05,7.35937500e-04
-2.79200000e-05,6.45312500e-04
-2.78800000e-05,5.32812500e-04
-2.78400000e-05,5.73437500e-04
-2.78000000e-05,4.87500000e-04
-2.77600000e-05,5.04687500e-04
-2.77200000e-05,4.26562500e-04
-2.76800000e-05,3.73437500e-04
-2.76400000e-05,3.64062500e-04
-2.76000000e-05,4.76562500e-04
-2.75600000e-05,6.68750000e-04
-2.75200000e-05,7.98437500e-04
-2.74800000e-05,8.56250000e-04
-2.74400000e-05,8.62500000e-04
-2.74000000e-05,7.93750000e-04
-2.73600000e-05,6.79687500e-04
-2.73200000e-05,4.39062500e-04
-2.72800000e-05,2.93750000e-04
-2.72400000e-05,3.40625000e-04
-2.72000000e-05,4.92187500e-04
-2.71600000e-05,5.84375000e-04
-2.71200000e-05,7.20312500e-04
-2.70800000e-05,7.92187500e-04
-2.70400000e-05,7.89062500e-04
-2.70000000e-05,6.68750000e-04
-2.69600000e-05,5.57812500e-04
-2.69200000e-05,4.92187500e-04
-2.68800000e-05,4.42187500e-04
-2.68400000e-05,4.29687500e-04
-2.68000000e-05,4.14062500e-04
-2.67600000e-05,5.56250000e-04
-2.67200000e-05,6.59375000e-04
-2.66800000e-05,7.29687500e-04
-2.66400000e-05,7.15625000e-04
-2.66000000e-05,7.12500000e-04
-2.65600000e-05,4.93750000e-04
-2.65200000e-05,3.45312500e-04
-2.64800000e-05,2.45312500e-04
-2.64400000e-05,3.35937500e-04
-2.64000000e-05,2.17187500e-04
-2.63600000e-05,3.00000000e-04
-2.63200000e-05,5.39062500e-04
-2.62800000e-05,7.70312500e-04
-2.62400000e-05,1.07500000e-03
-2.62000000e-05,1.06093750e-03
-2.61600000e-05,1.20468750e-03
-2.61200000e-05,1.09687500e-03
-2.60800000e-05,8.78125000e-04
-2.60400000e-05,5.12500000e-04
-2.60000000e-05,3.76562500e-04
-2.59600000e-05,1.71875000e-04
-2.59200000e-05,5.15625000e-05
-2.58800000e-05,1.71875000e-05
-2.58400000e-05,5.78125000e-05
-2.58000000e-05,2.21875000e-04
-2.57600000e-05,4.00000000e-04
-2.57200000e-05,7.06250000e-04
-2.56800000e-05,1.04375000e-03
-2.56400000e-05,1.10156250e-03
-2.56000000e-05,1.22187500e-03
-2.55600000e-05,1.12343750e-03
-2.55200000e-05,1.11406250e-03
-2.54800000e-05,9.26562500e-04
-2.54400000e-05,7.06250000e-04
-2.54000000e-05,3.54687500e-04
-2.53600000e-05,5.62500000e-05
-2.53200000e-05,-1.45312500e-04
-2.52800000e-05,-1.06250000e-04
-2.52400000e-05,3.28125000e-05
-2.52000000e-05,3.39062500e-04
-2.51600000e-05,5.79687500e-04
-2.51200000e-05,7.87500000e-04
-2.50800000e-05,9.26562500e-04
-2.50400000e-05,9.79687500e-04
-2.50000000e-05,9.46875000e-04
-2.49600000e-05,8.15625000e-04
-2.49200000e-05,6.31250000e-04
-2.48800000e-05,5.59375000e-04
-2.48400000e-05,4.04687500e-04
-2.48000000e-05,3.42187500e-04
-2.47600000e-05,3.71875000e-04
-2.47200000e-05,3.98437500e-04
-2.46800000e-05,4.67187500e-04
-2.46400000e-05,5.17187500e-04
-2.46000000e-05,6.46875000e-04
-2.45600000e-05,7.14062500e-04
-2.45200000e-05,7.42187500e-04
-2.44800000e-05,7.18750000e-04
-2.44400000e-05,8.07812500e-04
-2.44000000e-05,7.01562500e-04
-2.43600000e-05,7.15625000e-04
-2.43200000e-05,6.04687500e-04
-2.42800000e-05,6.45312500e-04
-2.42400000e-05,6.32812500e-04
-2.42000000e-05,5.14062500e-04
-2.41600000e-05,4.48437500e-04
-2.41200000e-05,3.12500000e-04
-2.40800000e-05,3.64062500e-04
-2.40400000e-05,2.54687500e-04
-2.40000000e-05,4.64062500e-04
-2.39600000e-05,5.82812500e-04
-2.39200000e-05,7.89062500e-04
-2.38800000e-05,9.18750000e-04
-2.38400000e-05,1.05000000e-03
-2.38000000e-05,1.02187500e-03
-2.37600000e-05,1.00468750e-03
-2.37200000e-05,7.07812500e-04
-2.36800000e-05,4.68750000e-04
-2.36400000e-05,2.59375000e-04
-2.36000000e-05,1.48437500e-04
-2.35600000e-05,1.46875000e-04
-2.35200000e-05,2.82812500e-04
-2.34800000e-05,3.62500000e-04
-2.34400000e-05,5.04687500e-04
-2.34000000e-05,6.00000000e-04
-2.33600000e-05,7.54687500e-04
-2.33200000e-05,7.28125000e-04
-2.32800000e-05,7.85937500e-04
-2.32400000e-05,8.25000000e-04
-2.32000000e-05,7.37500000e-04
-2.31600000e-05,5.79687500e-04
-2.31200000e-05,4.90625000e-04
-2.30800000e-05,4.98437500e-04
-2.30400000e-05,4.12500000e-04
-2.30000000e-05,3.62500000e-04
-2.29600000e-05,2.48437500e-04
-2.29200000e-05,2.37500000e-04
-2.28800000e-05,2.48437500e-04
-2.28400000e-05,2.89062500e-04
-2.28000000e-05,3.01562500e-04
-2.27600000e-05,4.93750000e-04
-2.27200000e-05,7.12500000e-04
-2.26800000e-05,9.17187500e-04
-2.26400000e-05,1.07031250e-03
-2.26000000e-05,1.11562500e-03
-2.25600000e-05,1.10000000e-03
-2.25200000e-05,9.78125000e-04
-2.24800000e-05,7.03125000e-04
-2.24400000e-05,3.92187500e-04
-2.24000000e-05,1.82812500e-04
-2.23600000e-05,1.60937500e-04
-2.23200000e-05,2.59375000e-04
-2.22800000e-05,3.17187500e-04
-2.22400000e-05,4.62500000e-04
-2.22000000e-05,4.98437500e-04
-2.21600000e-05,7.00000000e-04
-2.21200000e-05,6.68750000e-04
-2.20800000e-05,8.65625000e-04
-2.20400000e-05,8.98437500e-04
-2.20000000e-05,8.89062500e-04
-2.19600000e-05,7.56250000e-04
-2.19200000e-05,5.81250000e-04
-2.18800000e-05,4.10937500e-04
-2.18400000e-05,3.48437500e-04
-2.18000000e-05,3.51562500e-04
-2.17600000e-05,2.67187500e-04
-2.17200000e-05,2.67187500e-04
-2.16800000e-05,2.09375000e-04
-2.16400000e-05,2.90625000e-04
-2.16000000e-05,4.17187500e-04
-2.15600000e-05,6.98437500e-04
-2.15200000e-05,9.14062500e-04
-2.14800000e-05,1.07187500e-03
-2.14400000e-05,1.05625000e-03
-2.14000000e-05,9.53125000e-04
-2.13600000e-05,7.03125000e-04
-2.13200000e-05,4.54687500e-04
-2.12800000e-05,2.14062500e-04
-2.12400000e-05,1.21875000e-04
-2.12000000e-05,1.14062500e-04
-2.11600000e-05,2.07812500e-04
-2.11200000e-05,2.98437500e-04
-2.10800000e-05,4.40625000e-04
-2.10400000e-05,6.96875000e-04
-2.10000000e-05,6.84375000e-04
-2.09600000e-05,7.62500000e-04
-2.09200000e-05,7.26562500e-04
-2.08800000e-05,7.93750000e-04
-2.08400000e-05,7.54687500e-04
-2.08000000e-05,7.48437500e-04
-2.07600000e-05,6.23437500e-04
-2.07200000e-05,4.57812500e-04
-2.06800000e-05,3.53125000e-04
-2.06400000e-05,3.81250000e-04
-2.06000000e-05,3.62500000e-04
-2.05600000e-05,3.68750000e-04
-2.05200000e-05,4.96875000e-04
-2.04800000e-05,6.12500000e-04
-2.04400000e-05,5.82812500e-04
-2.04000000e-05,6.50000000e-04
-2.03600000e-05,7.15625000e-04
-2.03200000e-05,8.28125000e-04
-2.02800000e-05,8.06250000e-04
-2.02400000e-05,7.90625000e-04
-2.02000000e-05,7.32812500e-04
-2.01600000e-05,5.59375000e-04
-2.01200000e-05,4.42187500e-04
-2.00800000e-05,1.92187500e-04
-2.00400000e-05,1.67187500e-04
-2.00000000e-05,1.89062500e-04
-1.99600000e-05,4.57812500e-04
-1.99200000e-05,7.56250000e-04
-1.98800000e-05,8.87500000e-04
-1.98400000e-05,8.75000000e-04
-1.98000000e-05,7.82812500e-04
-1.97600000e-05,6.32812500e-04
-1.97200000e-05,5.21875000e-04
-1.96800000e-05,3.53125000e-04
-1.96400000e-05,3.70312500e-04
-1.96000000e-05,4.29687500e-04
-1.95600000e-05,5.15625000e-04
-1.95200000e-05,5.54687500e-04
-1.94800000e-05,6.03125000e-04
-1.94400000e-05,5.96875000e-04
-1.94000000e-05,5.84375000e-04
-1.93600000e-05,4.20312500e-04
-1.93200000e-05,2.53125000e-04
-1.92800000e-05,2.85937500e-04
-1.92400000e-05,1.71875000e-04
-1.92000000e-05,2.57812500e-04
-1.91600000e-05,3.73437500e-04
-1.91200000e-05,7.04687500e-04
-1.90800000e-05,9.51562500e-04
-1.90400000e-05,1.05781250e-03
-1.90000000e-05,1.07500000e-03
-1.89600000e-05,9.79687500e-04
-1.89200000e-05,8.23437500e-04
-1.88800000e-05,5.90625000e-04
-1.88400000e-05,4.12500000e-04
-1.88000000e-05,2.79687500e-04
-1.87600000e-05,1.98437500e-04
-1.87200000e-05,1.40625000e-04
-1.86800000e-05,1.65625000e-04
-1.86400000e-05,1.82812500e-04
-1.86000000e-05,3.50000000e-04
-1.85600000e-05,4.87500000e-04
-1.85200000e-05,6.84375000e-04
-1.84800000e-05,8.82812500e-04
-1.84400000e-05,1.09062500e-03
-1.84000000e-05,1.12343750e-03
-1.83600000e-05,1.09531250e-03
-1.83200000e-05,8.76562500e-04
-1.82800000e-05,7.82812500e-04
-1.82400000e-05,5.35937500e-04
-1.82000000e-05,3.12500000e-04
-1.81600000e-05,8.90625000e-05
-1.81200000e-05,1.15625000e-04
-1.80800000e-05,1.64062500e-04
-1.80400000e-05,2.00000000e-04
