MSci Project Data/e70V.csv

Model,MSO44
Waveform Type,ANALOG
Horizontal Units,s
Sample Interval,8.00000000e-08
Record Length,5000
Zero Index,544.00000000
Vertical Units,V
ANALOG_Thumbnail,

TIME,CH1
-4.35200000e-05,6.37500000e-04
-4.34400000e-05,4.40625000e-04
-4.33600000e-05,3.75000000e-04
-4.32800000e-05,8.60937500e-04
-4.32000000e-05,9.39062500e-04
-4.31200000e-05,6.01562500e-04
-4.30400000e-05,2.96875000e-04
-4.29600000e-05,4.89062500e-04
-4.28800000e-05,7.00000000e-04
-4.28000000e-05,5.26562500e-04
-4.27200000e-05,4.37500000e-04
-4.26400000e-05,6.15625000e-04
-4.25600000e-05,6.25000000e-04
-4.24800000e-05,4.81250000e-04
-4.24000000e-05,5.98437500e-04
-4.23200000e-05,7.26562500e-04
-4.22400000e-05,9.84375000e-04
-4.21600000e-05,8.43750000e-04
-4.20800000e-05,6.37500000e-04
-4.20000000e-05,3.03125000e-04
-4.19200000e-05,2.73437500e-04
-4.18400000e-05,3.12500000e-04
-4.17600000e-05,6.76562500e-04
-4.16800000e-05,9.31250000e-04
-4.16000000e-05,1.14843750e-03
-4.15200000e-05,9.89062500e-04
-4.14400000e-05,3.25000000e-04
-4.13600000e-05,1.23437500e-04
-4.12800000e-05,2.64062500e-04
-4.12000000e-05,4.93750000e-04
-4.11200000e-05,5.78125000e-04
-4.10400000e-05,5.06250000e-04
-4.09600000e-05,7.40625000e-04
-4.08800000e-05,9.29687500e-04
-4.08000000e-05,9.70312500e-04
-4.07200000e-05,6.90625000e-04
-4.06400000e-05,5.42187500e-04
-4.05600000e-05,5.87500000e-04
-4.04800000e-05,5.75000000e-04
-4.04000000e-05,4.40625000e-04
-4.03200000e-05,5.23437500e-04
-4.02400000e-05,9.12500000e-04
-4.01600000e-05,9.67187500e-04
-4.00800000e-05,5.78125000e-04
-4.00000000e-05,4.67187500e-04
-3.99200000e-05,4.85937500e-04
-3.98400000e-05,2.65625000e-04
-3.97600000e-05,3.21875000e-04
-3.96800000e-05,9.29687500e-04
-3.96000000e-05,1.28906250e-03
-3.95200000e-05,1.05000000e-03
-3.94400000e-05,4.20312500e-04
-3.93600000e-05,1.23437500e-04
-3.92800000e-05,4.54687500e-04
-3.92000000e-05,6.59375000e-04
-3.91200000e-05,8.25000000e-04
-3.90400000e-05,7.48437500e-04
-3.89600000e-05,4.92187500e-04
-3.88800000e-05,2.90625000e-04
-3.88000000e-05,3.32812500e-04
-3.87200000e-05,6.96875000e-04
-3.86400000e-05,1.22343750e-03
-3.85600000e-05,1.18593750e-03
-3.84800000e-05,6.81250000e-04
-3.84000000e-05,8.12500000e-05
-3.83200000e-05,3.12500000e-06
-3.82400000e-05,4.35937500e-04
-3.81600000e-05,9.67187500e-04
-3.80800000e-05,1.08906250e-03
-3.80000000e-05,1.08593750e-03
-3.79200000e-05,7.28125000e-04
-3.78400000e-05,4.00000000e-04
-3.77600000e-05,2.85937500e-04
-3.76800000e-05,3.35937500e-04
-3.76000000e-05,4.90625000e-04
-3.75200000e-05,5.90625000e-04
-3.74400000e-05,5.89062500e-04
-3.73600000e-05,7.79687500e-04
-3.72800000e-05,9.96875000e-04
-3.72000000e-05,8.07812500e-04
-3.71200000e-05,5.64062500e-04
-3.70400000e-05,4.79687500e-04
-3.69600000e-05,5.45312500e-04
-3.68800000e-05,5.42187500e-04
-3.68000000e-05,6.09375000e-04
-3.67200000e-05,8.09375000e-04
-3.66400000e-05,9.07812500e-04
-3.65600000e-05,7.17187500e-04
-3.64800000e-05,4.45312500e-04
-3.64000000e-05,6.40625000e-04
-3.63200000e-05,5.32812500e-04
-3.62400000e-05,3.48437500e-04
-3.61600000e-05,4.10937500e-04
-3.60800000e-05,9.01562500e-04
-3.60000000e-05,1.07031250e-03
-3.59200000e-05,8.18750000e-04
-3.58400000e-05,3.90625000e-04
-3.57600000e-05,3.96875000e-04
-3.56800000e-05,5.25000000e-04
-3.56000000e-05,5.73437500e-04
-3.55200000e-05,5.67187500e-04
-3.54400000e-05,7.78125000e-04
-3.53600000e-05,7.93750000e-04
-3.52800000e-05,6.17187500e-04
-3.52000000e-05,5.57812500e-04
-3.51200000e-05,5.81250000e-04
-3.50400000e-05,8.04687500e-04
-3.49600000e-05,9.39062500e-04
-3.48800000e-05,7.71875000e-04
-3.48000000e-05,4.54687500e-04
-3.47200000e-05,3.04687500e-04
-3.46400000e-05,4.18750000e-04
-3.45600000e-05,7.40625000e-04
-3.44800000e-05,9.64062500e-04
-3.44000000e-05,1.21406250e-03
-3.43200000e-05,1.07500000e-03
-3.42400000e-05,5.43750000e-04
-3.41600000e-05,1.28125000e-04
-3.40800000e-05,1.68750000e-04
-3.40000000e-05,5.54687500e-04
-3.39200000e-05,7.04687500e-04
-3.38400000e-05,6.85937500e-04
-3.37600000e-05,7.25000000e-04
-3.36800000e-05,9.37500000e-04
-3.36000000e-05,9.17187500e-04
-3.35200000e-05,7.29687500e-04
-3.34400000e-05,4.35937500e-04
-3.33600000e-05,5.46875000e-04
-3.32800000e-05,6.62500000e-04
-3.32000000e-05,6.07812500e-04
-3.31200000e-05,7.95312500e-04
-3.30400000e-05,1.10312500e-03
-3.29600000e-05,7.95312500e-04
-3.28800000e-05,4.21875000e-04
-3.28000000e-05,4.01562500e-04
-3.27200000e-05,5.89062500e-04
-3.26400000e-05,5.50000000e-04
-3.25600000e-05,5.25000000e-04
-3.24800000e-05,1.07500000e-03
-3.24000000e-05,1.20000000e-03
-3.23200000e-05,8.50000000e-04
-3.22400000e-05,2.29687500e-04
-3.21600000e-05,3.90625000e-04
-3.20800000e-05,7.06250000e-04
-3.20000000e-05,7.60937500e-04
-3.19200000e-05,8.06250000e-04
-3.18400000e-05,7.29687500e-04
-3.17600000e-05,4.78125000e-04
-3.16800000e-05,3.31250000e-04
-3.16000000e-05,3.59375000e-04
-3.15200000e-05,7.37500000e-04
-3.14400000e-05,1.19062500e-03
-3.13600000e-05,1.29843750e-03
-3.12800000e-05,8.59375000e-04
-3.12000000e-05,2.84375000e-04
-3.11200000e-05,-1.40625000e-05
-3.10400000e-05,3.07812500e-04
-3.09600000e-05,9.68750000e-04
-3.08800000e-05,1.08906250e-03
-3.08000000e-05,1.24843750e-03
-3.07200000e-05,9.71875000e-04
-3.06400000e-05,3.59375000e-04
-3.05600000e-05,1.60937500e-04
-3.04800000e-05,3.18750000e-04
-3.04000000e-05,6.60937500e-04
-3.03200000e-05,8.25000000e-04
-3.02400000e-05,7.35937500e-04
-3.01600000e-05,8.70312500e-04
-3.00800000e-05,8.71875000e-04
-3.00000000e-05,7.84375000e-04
-2.99200000e-05,7.87500000e-04
-2.98400000e-05,6.71875000e-04
-2.97600000e-05,7.34375000e-04
-2.96800000e-05,6.85937500e-04
-2.96000000e-05,5.00000000e-04
-2.95200000e-05,6.56250000e-04
-2.94400000e-05,7.75000000e-04
-2.93600000e-05,7.40625000e-04
-2.92800000e-05,6.62500000e-04
-2.92000000e-05,7.21875000e-04
-2.91200000e-05,6.34375000e-04
-2.90400000e-05,3.12500000e-04
-2.89600000e-05,3.21875000e-04
-2.88800000e-05,8.53125000e-04
-2.88000000e-05,1.27031250e-03
-2.87200000e-05,1.08593750e-03
-2.86400000e-05,6.60937500e-04
-2.85600000e-05,3.71875000e-04
-2.84800000e-05,6.26562500e-04
-2.84000000e-05,6.25000000e-04
-2.83200000e-05,6.35937500e-04
-2.82400000e-05,7.17187500e-04
-2.81600000e-05,6.71875000e-04
-2.80800000e-05,6.32812500e-04
-2.80000000e-05,6.54687500e-04
-2.79200000e-05,7.53125000e-04
-2.78400000e-05,1.03593750e-03
-2.77600000e-05,1.02500000e-03
-2.76800000e-05,7.53125000e-04
-2.76000000e-05,4.23437500e-04
-2.75200000e-05,3.89062500e-04
-2.74400000e-05,5.93750000e-04
-2.73600000e-05,9.98437500e-04
-2.72800000e-05,1.07500000e-03
-2.72000000e-05,1.07500000e-03
-2.71200000e-05,1.01093750e-03
-2.70400000e-05,6.25000000e-04
-2.69600000e-05,4.68750000e-04
-2.68800000e-05,4.28125000e-04
-2.68000000e-05,5.09375000e-04
-2.67200000e-05,5.10937500e-04
-2.66400000e-05,6.48437500e-04
-2.65600000e-05,9.21875000e-04
-2.64800000e-05,1.18125000e-03
-2.64000000e-05,1.00468750e-03
-2.63200000e-05,7.62500000e-04
-2.62400000e-05,6.42187500e-04
-2.61600000e-05,6.35937500e-04
-2.60800000e-05,6.62500000e-04
-2.60000000e-05,5.68750000e-04
-2.59200000e-05,7.50000000e-04
-2.58400000e-05,1.16562500e-03
-2.57600000e-05,1.01406250e-03
-2.56800000e-05,5.75000000e-04
-2.56000000e-05,5.79687500e-04
-2.55200000e-05,5.79687500e-04
-2.54400000e-05,4.28125000e-04
-2.53600000e-05,5.01562500e-04
-2.52800000e-05,1.02968750e-03
-2.52000000e-05,1.43125000e-03
-2.51200000e-05,1.15468750e-03
-2.50400000e-05,4.96875000e-04
-2.49600000e-05,2.71875000e-04
-2.48800000e-05,5.40625000e-04
-2.48000000e-05,8.46875000e-04
-2.47200000e-05,9.37500000e-04
-2.46400000e-05,9.20312500e-04
-2.45600000e-05,7.17187500e-04
-2.44800000e-05,4.82812500e-04
-2.44000000e-05,4.46875000e-04
-2.43200000e-05,6.96875000e-04
-2.42400000e-05,1.10937500e-03
-2.41600000e-05,1.32031250e-03
-2.40800000e-05,8.71875000e-04
-2.40000000e-05,4.00000000e-04
-2.39200000e-05,2.23437500e-04
-2.38400000e-05,3.65625000e-04
-2.37600000e-05,9.14062500e-04
-2.36800000e-05,1.22500000e-03
-2.36000000e-05,1.35312500e-03
-2.35200000e-05,1.04843750e-03
-2.34400000e-05,5.17187500e-04
-2.33600000e-05,1.64062500e-04
-2.32800000e-05,3.75000000e-04
-2.32000000e-05,6.73437500e-04
-2.31200000e-05,7.93750000e-04
-2.30400000e-05,7.81250000e-04
-2.29600000e-05,9.67187500e-04
-2.28800000e-05,1.00937500e-03
-2.28000000e-05,8.53125000e-04
-2.27200000e-05,6.21875000e-04
-2.26400000e-05,5.10937500e-04
-2.25600000e-05,7.87500000e-04
-2.24800000e-05,9.01562500e-04
-2.24000000e-05,8.48437500e-04
-2.23200000e-05,9.48437500e-04
-2.22400000e-05,1.01406250e-03
-2.21600000e-05,6.84375000e-04
-2.20800000e-05,4.71875000e-04
-2.20000000e-05,6.70312500e-04
-2.19200000e-05,7.65625000e-04
-2.18400000e-05,6.18750000e-04
-2.17600000e-05,5.59375000e-04
-2.16800000e-05,9.60937500e-04
-2.16000000e-05,9.79687500e-04
-2.15200000e-05,7.17187500e-04
-2.14400000e-05,4.87500000e-04
-2.13600000e-05,6.76562500e-04
-2.12800000e-05,9.06250000e-04
-2.12000000e-05,7.54687500e-04
-2.11200000e-05,5.29687500e-04
-2.10400000e-05,6.04687500e-04
-2.09600000e-05,6.78125000e-04
-2.08800000e-05,6.21875000e-04
-2.08000000e-05,7.76562500e-04
-2.07200000e-05,8.14062500e-04
-2.06400000e-05,9.76562500e-04
-2.05600000e-05,9.70312500e-04
-2.04800000e-05,7.50000000e-04
-2.04000000e-05,5.06250000e-04
-2.03200000e-05,4.43750000e-04
-2.02400000e-05,4.07812500e-04
-2.01600000e-05,8.03125000e-04
-2.00800000e-05,1.01406250e-03
-2.00000000e-05,1.26718750e-03
-1.99200000e-05,1.05781250e-03
-1.98400000e-05,4.76562500e-04
-1.97600000e-05,1.93750000e-04
-1.96800000e-05,4.15625000e-04
-1.96000000e-05,6.17187500e-04
-1.95200000e-05,7.23437500e-04
-1.94400000e-05,6.65625000e-04
-1.93600000e-05,8.71875000e-04
-1.92800000e-05,1.00937500e-03
-1.92000000e-05,9.82812500e-04
-1.91200000e-05,7.98437500e-04
-1.90400000e-05,7.43750000e-04
-1.89600000e-05,7.21875000e-04
-1.88800000e-05,6.23437500e-04
-1.88000000e-05,4.81250000e-04
-1.87200000e-05,5.45312500e-04
-1.86400000e-05,9.12500000e-04
-1.85600000e-05,1.02343750e-03
-1.84800000e-05,6.95312500e-04
-1.84000000e-05,5.68750000e-04
-1.83200000e-05,5.01562500e-04
-1.82400000e-05,3.85937500e-04
-1.81600000e-05,5.14062500e-04
-1.80800000e-05,1.05312500e-03
-1.80000000e-05,1.38437500e-03
-1.79200000e-05,1.08906250e-03
-1.78400000e-05,4.42187500e-04
-1.77600000e-05,1.75000000e-04
-1.76800000e-05,5.65625000e-04
-1.76000000e-05,8.67187500e-04
-1.75200000e-05,9.42187500e-04
-1.74400000e-05,8.75000000e-04
-1.73600000e-05,6.96875000e-04
-1.72800000e-05,4.12500000e-04
-1.72000000e-05,4.46875000e-04
-1.71200000e-05,7.93750000e-04
-1.70400000e-05,1.32343750e-03
-1.69600000e-05,1.29843750e-03
-1.68800000e-05,7.89062500e-04
-1.68000000e-05,2.50000000e-04
-1.67200000e-05,1.18750000e-04
-1.66400000e-05,5.09375000e-04
-1.65600000e-05,1.07968750e-03
-1.64800000e-05,1.20156250e-03
-1.64000000e-05,1.21875000e-03
-1.63200000e-05,9.32812500e-04
-1.62400000e-05,4.98437500e-04
-1.61600000e-05,4.06250000e-04
-1.60800000e-05,4.54687500e-04
-1.60000000e-05,7.20312500e-04
-1.59200000e-05,7.71875000e-04
-1.58400000e-05,7.18750000e-04
-1.57600000e-05,9.14062500e-04
-1.56800000e-05,1.15468750e-03
-1.56000000e-05,9.84375000e-04
-1.55200000e-05,8.09375000e-04
-1.54400000e-05,7.09375000e-04
-1.53600000e-05,6.34375000e-04
-1.52800000e-05,7.15625000e-04
-1.52000000e-05,6.92187500e-04
-1.51200000e-05,9.59375000e-04
-1.50400000e-05,1.10312500e-03
-1.49600000e-05,9.64062500e-04
-1.48800000e-05,6.29687500e-04
-1.48000000e-05,7.18750000e-04
-1.47200000e-05,6.32812500e-04
-1.46400000e-05,6.01562500e-04
-1.45600000e-05,5.75000000e-04
-1.44800000e-05,1.04531250e-03
-1.44000000e-05,1.26718750e-03
-1.43200000e-05,1.01718750e-03
-1.42400000e-05,6.00000000e-04
-1.41600000e-05,5.32812500e-04
-1.40800000e-05,6.87500000e-04
-1.40000000e-05,6.12500000e-04
-1.39200000e-05,6.93750000e-04
-1.38400000e-05,9.42187500e-04
-1.37600000e-05,9.12500000e-04
-1.36800000e-05,6.65625000e-04
-1.36000000e-05,6.92187500e-04
-1.35200000e-05,7.31250000e-04
-1.34400000e-05,1.03593750e-03
-1.33600000e-05,1.17656250e-03
-1.32800000e-05,9.79687500e-04
-1.32000000e-05,6.06250000e-04
-1.31200000e-05,4.25000000e-04
-1.30400000e-05,5.23437500e-04
-1.29600000e-05,9.15625000e-04
-1.28800000e-05,1.19687500e-03
-1.28000000e-05,1.40625000e-03
-1.27200000e-05,1.24531250e-03
-1.26400000e-05,7.23437500e-04
-1.25600000e-05,2.29687500e-04
-1.24800000e-05,3.29687500e-04
-1.24000000e-05,6.78125000e-04
-1.23200000e-05,8.78125000e-04
-1.22400000e-05,9.25000000e-04
-1.21600000e-05,9.93750000e-04
-1.20800000e-05,1.16562500e-03
-1.20000000e-05,1.04218750e-03
-1.19200000e-05,7.81250000e-04
-1.18400000e-05,5.65625000e-04
-1.17600000e-05,8.09375000e-04
-1.16800000e-05,8.40625000e-04
-1.16000000e-05,8.04687500e-04
-1.15200000e-05,8.42187500e-04
-1.14400000e-05,1.09375000e-03
-1.13600000e-05,9.84375000e-04
-1.12800000e-05,6.56250000e-04
-1.12000000e-05,6.04687500e-04
-1.11200000e-05,7.89062500e-04
-1.10400000e-05,6.40625000e-04
-1.09600000e-05,6.43750000e-04
-1.08800000e-05,1.22343750e-03
-1.08000000e-05,1.41875000e-03
-1.07200000e-05,1.05781250e-03
-1.06400000e-05,4.14062500e-04
-1.05600000e-05,5.32812500e-04
-1.04800000e-05,8.70312500e-04
-1.04000000e-05,9.71875000e-04
-1.03200000e-05,9.67187500e-04
-1.02400000e-05,8.28125000e-04
-1.01600000e-05,6.98437500e-04
-1.00800000e-05,5.65625000e-04
-1.00000000e-05,5.06250000e-04
-9.92000000e-06,8.37500000e-04
-9.84000000e-06,1.30000000e-03
-9.76000000e-06,1.33906250e-03
-9.68000000e-06,8.92187500e-04
-9.60000000e-06,4.14062500e-04
-9.52000000e-06,2.29687500e-04
-9.44000000e-06,5.76562500e-04
-9.36000000e-06,1.09843750e-03
-9.28000000e-06,1.21875000e-03
-9.20000000e-06,1.35156250e-03
-9.12000000e-06,1.10625000e-03
-9.04000000e-06,5.15625000e-04
-8.96000000e-06,2.93750000e-04
-8.88000000e-06,5.01562500e-04
-8.80000000e-06,8.15625000e-04
-8.72000000e-06,9.42187500e-04
-8.64000000e-06,7.87500000e-04
-8.56000000e-06,8.87500000e-04
-8.48000000e-06,1.00312500e-03
-8.40000000e-06,1.03281250e-03
-8.32000000e-06,9.43750000e-04
-8.24000000e-06,8.01562500e-04
-8.16000000e-06,8.54687500e-04
-8.08000000e-06,7.93750000e-04
-8.00000000e-06,5.60937500e-04
-7.92000000e-06,7.17187500e-04
-7.84000000e-06,1.05781250e-03
-7.76000000e-06,9.92187500e-04
-7.68000000e-06,8.40625000e-04
-7.60000000e-06,8.17187500e-04
-7.52000000e-06,7.20312500e-04
-7.44000000e-06,4.92187500e-04
-7.36000000e-06,5.25000000e-04
-7.28000000e-06,1.03281250e-03
-7.20000000e-06,1.44843750e-03
-7.12000000e-06,1.24375000e-03
-7.04000000e-06,7.23437500e-04
-6.96000000e-06,5.25000000e-04
-6.88000000e-06,7.25000000e-04
-6.80000000e-06,7.70312500e-04
-6.72000000e-06,7.78125000e-04
-6.64000000e-06,8.68750000e-04
-6.56000000e-06,8.96875000e-04
-6.48000000e-06,7.50000000e-04
-6.40000000e-06,7.32812500e-04
-6.32000000e-06,8.32812500e-04
-6.24000000e-06,1.13750000e-03
-6.16000000e-06,1.13906250e-03
-6.08000000e-06,8.79687500e-04
-6.00000000e-06,4.48437500e-04
-5.92000000e-06,3.35937500e-04
-5.84000000e-06,5.64062500e-04
-5.76000000e-06,1.00000000e-03
-5.68000000e-06,1.18906250e-03
-5.60000000e-06,1.14843750e-03
-5.52000000e-06,1.06718750e-03
-5.44000000e-06,6.76562500e-04
-5.36000000e-06,5.04687500e-04
-5.28000000e-06,4.95312500e-04
-5.20000000e-06,5.82812500e-04
-5.12000000e-06,6.70312500e-04
-5.04000000e-06,8.06250000e-04
-4.96000000e-06,9.76562500e-04
-4.88000000e-06,1.15625000e-03
-4.80000000e-06,9.92187500e-04
-4.72000000e-06,8.20312500e-04
-4.64000000e-06,7.60937500e-04
-4.56000000e-06,6.96875000e-04
-4.48000000e-06,6.26562500e-04
-4.40000000e-06,5.81250000e-04
-4.32000000e-06,7.10937500e-04
-4.24000000e-06,1.14531250e-03
-4.16000000e-06,1.10312500e-03
-4.08000000e-06,6.67187500e-04
-4.00000000e-06,6.07812500e-04
-3.92000000e-06,6.17187500e-04
-3.84000000e-06,4.57812500e-04
-3.76000000e-06,4.70312500e-04
-3.68000000e-06,1.05000000e-03
-3.60000000e-06,1.41562500e-03
-3.52000000e-06,1.17187500e-03
-3.44000000e-06,5.65625000e-04
-3.36000000e-06,3.18750000e-04
-3.28000000e-06,5.45312500e-04
-3.20000000e-06,7.34375000e-04
-3.12000000e-06,9.03125000e-04
-3.04000000e-06,9.62500000e-04
-2.96000000e-06,7.06250000e-04
-2.88000000e-06,4.84375000e-04
-2.80000000e-06,5.25000000e-04
-2.72000000e-06,7.06250000e-04
-2.64000000e-06,1.10468750e-03
-2.56000000e-06,1.17500000e-03
-2.48000000e-06,8.56250000e-04
-2.40000000e-06,3.95312500e-04
-2.32000000e-06,2.14062500e-04
-2.24000000e-06,3.51562500e-04
-2.16000000e-06,9.40625000e-04
-2.08000000e-06,1.24843750e-03
-2.00000000e-06,1.33125000e-03
-1.92000000e-06,1.00000000e-03
-1.84000000e-06,4.92187500e-04
-1.76000000e-06,1.96875000e-04
-1.68000000e-06,3.64062500e-04
-1.60000000e-06,6.09375000e-04
-1.52000000e-06,7.76562500e-04
-1.44000000e-06,8.50000000e-04
-1.36000000e-06,9.76562500e-04
-1.28000000e-06,1.05625000e-03
-1.20000000e-06,8.46875000e-04
-1.12000000e-06,5.98437500e-04
-1.04000000e-06,3.64062500e-04
-9.60000000e-07,6.09375000e-04
-8.80000000e-07,7.60937500e-04
-8.00000000e-07,7.76562500e-04
-7.20000000e-07,8.51562500e-04
-6.40000000e-07,9.95312500e-04
-5.60000000e-07,6.76562500e-04
-4.80000000e-07,4.15625000e-04
-4.00000000e-07,6.85937500e-04
-3.20000000e-07,7.81250000e-04
-2.40000000e-07,6.84375000e-04
-1.60000000e-07,5.50000000e-04
-8.00000000e-08,9.15625000e-04
0.00000000e+00,9.95312500e-04
8.00000000e-08,2.25703125e-02
1.60000000e-07,6.97781250e-02
2.40000000e-07,8.84515625e-02
3.20000000e-07,9.11953125e-02
4.00000000e-07,9.11968750e-02
4.80000000e-07,9.11968750e-02
5.60000000e-07,9.11968750e-02
6.40000000e-07,inf
7.20000000e-07,inf
8.00000000e-07,9.11703125e-02
8.80000000e-07,inf
9.60000000e-07,9.11765625e-02
1.04000000e-06,9.11390625e-02
1.12000000e-06,9.07500000e-02
1.20000000e-06,8.99328125e-02
1.28000000e-06,8.84718750e-02
1.36000000e-06,8.64343750e-02
1.44000000e-06,8.46578125e-02
1.52000000e-06,8.24921875e-02
1.60000000e-06,8.07484375e-02
1.68000000e-06,7.84046875e-02
1.76000000e-06,7.58421875e-02
1.84000000e-06,7.37000000e-02
1.92000000e-06,7.20546875e-02
2.00000000e-06,7.06250000e-02
2.08000000e-06,6.90500000e-02
2.16000000e-06,6.75015625e-02
2.24000000e-06,6.62187500e-02
2.32000000e-06,6.50859375e-02
2.40000000e-06,6.37953125e-02
2.48000000e-06,6.23265625e-02
2.56000000e-06,6.10359375e-02
2.64000000e-06,5.98718750e-02
2.72000000e-06,5.87578125e-02
2.80000000e-06,5.75578125e-02
2.88000000e-06,5.67359375e-02
2.96000000e-06,5.62015625e-02
3.04000000e-06,5.54296875e-02
3.12000000e-06,5.42718750e-02
3.20000000e-06,5.32609375e-02
3.28000000e-06,5.24031250e-02
3.36000000e-06,5.14671875e-02
3.44000000e-06,5.08515625e-02
3.52000000e-06,5.07593750e-02
3.60000000e-06,5.04343750e-02
3.68000000e-06,4.95734375e-02
3.76000000e-06,4.82734375e-02
3.84000000e-06,4.74515625e-02
3.92000000e-06,4.72437500e-02
4.00000000e-06,4.70109375e-02
4.08000000e-06,4.65687500e-02
4.16000000e-06,4.59218750e-02
4.24000000e-06,4.51125000e-02
4.32000000e-06,4.44359375e-02
4.40000000e-06,4.39125000e-02
4.48000000e-06,4.37609375e-02
4.56000000e-06,4.40906250e-02
4.64000000e-06,4.36156250e-02
4.72000000e-06,4.27171875e-02
4.80000000e-06,4.16375000e-02
4.88000000e-06,4.10687500e-02
4.96000000e-06,4.11109375e-02
5.04000000e-06,4.12562500e-02
5.12000000e-06,4.11031250e-02
5.20000000e-06,4.07765625e-02
5.28000000e-06,4.01515625e-02
5.36000000e-06,3.92781250e-02
5.44000000e-06,3.87984375e-02
5.52000000e-06,3.85578125e-02
5.60000000e-06,3.84781250e-02
5.68000000e-06,3.83031250e-02
5.76000000e-06,3.79046875e-02
5.84000000e-06,3.78750000e-02
5.92000000e-06,3.77812500e-02
6.00000000e-06,3.72078125e-02
6.08000000e-06,3.67187500e-02
6.16000000e-06,3.63875000e-02
6.24000000e-06,3.61125000e-02
6.32000000e-06,3.59875000e-02
6.40000000e-06,3.56390625e-02
6.48000000e-06,3.55906250e-02
6.56000000e-06,3.54859375e-02
6.64000000e-06,3.50781250e-02
6.72000000e-06,3.44703125e-02
6.80000000e-06,3.43046875e-02
6.88000000e-06,3.40562500e-02
6.96000000e-06,3.37093750e-02
7.04000000e-06,3.34375000e-02
7.12000000e-06,3.37390625e-02
7.20000000e-06,3.37765625e-02
7.28000000e-06,3.33328125e-02
7.36000000e-06,3.26828125e-02
7.44000000e-06,3.24171875e-02
7.52000000e-06,3.23671875e-02
7.60000000e-06,3.21312500e-02
7.68000000e-06,3.19437500e-02
7.76000000e-06,3.19734375e-02
7.84000000e-06,3.17218750e-02
