MSci Project Data/H120V.csv

Model,MSO44
Waveform Type,ANALOG
Horizontal Units,s
Sample Interval,1.60000000e-07
Record Length,6250
Zero Index,680.25000000
Vertical Units,V
ANALOG_Thumbnail,

TIME,CH1
-1.08840000e-04,-1.45937500e-03
-1.08680000e-04,-1.47500000e-03
-1.08520000e-04,-1.98593750e-03
-1.08360000e-04,-2.26406250e-03
-1.08200000e-04,-1.81875000e-03
-1.08040000e-04,-1.78593750e-03
-1.07880000e-04,-2.06093750e-03
-1.07720000e-04,-1.63593750e-03
-1.07560000e-04,-1.67031250e-03
-1.07400000e-04,-2.06250000e-03
-1.07240000e-04,-2.12968750e-03
-1.07080000e-04,-1.33906250e-03
-1.06920000e-04,-1.96875000e-03
-1.06760000e-04,-1.86093750e-03
-1.06600000e-04,-1.90937500e-03
-1.06440000e-04,-1.60625000e-03
-1.06280000e-04,-1.71718750e-03
-1.06120000e-04,-1.49687500e-03
-1.05960000e-04,-1.64687500e-03
-1.05800000e-04,-1.71406250e-03
-1.05640000e-04,-2.16875000e-03
-1.05480000e-04,-2.01406250e-03
-1.05320000e-04,-1.63593750e-03
-1.05160000e-04,-1.39062500e-03
-1.05000000e-04,-1.89062500e-03
-1.04840000e-04,-2.19218750e-03
-1.04680000e-04,-1.48125000e-03
-1.04520000e-04,-1.64218750e-03
-1.04360000e-04,-1.78593750e-03
-1.04200000e-04,-1.73125000e-03
-1.04040000e-04,-1.42968750e-03
-1.03880000e-04,-2.03437500e-03
-1.03720000e-04,-1.79375000e-03
-1.03560000e-04,-1.38906250e-03
-1.03400000e-04,-1.71093750e-03
-1.03240000e-04,-2.18593750e-03
-1.03080000e-04,-1.48750000e-03
-1.02920000e-04,-1.85312500e-03
-1.02760000e-04,-1.85468750e-03
-1.02600000e-04,-1.59375000e-03
-1.02440000e-04,-1.51406250e-03
-1.02280000e-04,-1.76250000e-03
-1.02120000e-04,-1.76718750e-03
-1.01960000e-04,-1.91250000e-03
-1.01800000e-04,-1.76093750e-03
-1.01640000e-04,-1.41406250e-03
-1.01480000e-04,-1.75937500e-03
-1.01320000e-04,-1.92812500e-03
-1.01160000e-04,-1.79687500e-03
-1.01000000e-04,-1.42812500e-03
-1.00840000e-04,-1.66562500e-03
-1.00680000e-04,-1.50937500e-03
-1.00520000e-04,-1.46562500e-03
-1.00360000e-04,-1.87968750e-03
-1.00200000e-04,-1.72031250e-03
-1.00040000e-04,-1.76093750e-03
-9.98800000e-05,-1.28906250e-03
-9.97200000e-05,-1.85781250e-03
-9.95600000e-05,-1.71562500e-03
-9.94000000e-05,-1.74375000e-03
-9.92400000e-05,-1.55781250e-03
-9.90800000e-05,-1.66718750e-03
-9.89200000e-05,-1.49218750e-03
-9.87600000e-05,-1.73281250e-03
-9.86000000e-05,-1.82656250e-03
-9.84400000e-05,-1.80000000e-03
-9.82800000e-05,-1.83906250e-03
-9.81200000e-05,-1.49843750e-03
-9.79600000e-05,-1.20625000e-03
-9.78000000e-05,-1.63906250e-03
-9.76400000e-05,-2.11093750e-03
-9.74800000e-05,-1.74843750e-03
-9.73200000e-05,-1.40937500e-03
-9.71600000e-05,-1.62343750e-03
-9.70000000e-05,-1.49062500e-03
-9.68400000e-05,-1.43750000e-03
-9.66800000e-05,-1.62656250e-03
-9.65200000e-05,-1.93281250e-03
-9.63600000e-05,-1.21250000e-03
-9.62000000e-05,-1.46406250e-03
-9.60400000e-05,-2.16875000e-03
-9.58800000e-05,-1.43593750e-03
-9.57200000e-05,-1.41250000e-03
-9.55600000e-05,-1.64531250e-03
-9.54000000e-05,-1.51406250e-03
-9.52400000e-05,-1.14531250e-03
-9.50800000e-05,-1.76093750e-03
-9.49200000e-05,-1.67031250e-03
-9.47600000e-05,-2.05000000e-03
-9.46000000e-05,-1.47500000e-03
-9.44400000e-05,-1.15937500e-03
-9.42800000e-05,-1.37031250e-03
-9.41200000e-05,-1.87187500e-03
-9.39600000e-05,-1.64375000e-03
-9.38000000e-05,-1.32343750e-03
-9.36400000e-05,-1.63750000e-03
-9.34800000e-05,-1.44843750e-03
-9.33200000e-05,-1.37656250e-03
-9.31600000e-05,-1.43906250e-03
-9.30000000e-05,-1.85312500e-03
-9.28400000e-05,-1.44218750e-03
-9.26800000e-05,-1.00156250e-03
-9.25200000e-05,-1.78125000e-03
-9.23600000e-05,-1.43906250e-03
-9.22000000e-05,-1.61093750e-03
-9.20400000e-05,-1.51093750e-03
-9.18800000e-05,-1.31718750e-03
-9.17200000e-05,-1.33281250e-03
-9.15600000e-05,-1.47968750e-03
-9.14000000e-05,-1.64531250e-03
-9.12400000e-05,-1.81875000e-03
-9.10800000e-05,-1.77500000e-03
-9.09200000e-05,-1.13906250e-03
-9.07600000e-05,-1.17187500e-03
-9.06000000e-05,-1.50468750e-03
-9.04400000e-05,-1.93437500e-03
-9.02800000e-05,-1.44062500e-03
-9.01200000e-05,-1.40156250e-03
-8.99600000e-05,-1.32187500e-03
-8.98000000e-05,-1.27187500e-03
-8.96400000e-05,-1.26562500e-03
-8.94800000e-05,-1.45937500e-03
-8.93200000e-05,-1.57812500e-03
-8.91600000e-05,-1.00000000e-03
-8.90000000e-05,-1.32656250e-03
-8.88400000e-05,-1.62187500e-03
-8.86800000e-05,-1.32343750e-03
-8.85200000e-05,-1.15937500e-03
-8.83600000e-05,-1.41562500e-03
-8.82000000e-05,-1.30937500e-03
-8.80400000e-05,-1.01250000e-03
-8.78800000e-05,-1.40625000e-03
-8.77200000e-05,-1.14843750e-03
-8.75600000e-05,-1.68125000e-03
-8.74000000e-05,-1.41250000e-03
-8.72400000e-05,-7.50000000e-04
-8.70800000e-05,-9.71875000e-04
-8.69200000e-05,-1.30312500e-03
-8.67600000e-05,-1.54218750e-03
-8.66000000e-05,-1.15312500e-03
-8.64400000e-05,-1.26093750e-03
-8.62800000e-05,-1.34375000e-03
-8.61200000e-05,-9.04687500e-04
-8.59600000e-05,-1.08437500e-03
-8.58000000e-05,-1.21718750e-03
-8.56400000e-05,-1.15937500e-03
-8.54800000e-05,-6.85937500e-04
-8.53200000e-05,-1.37968750e-03
-8.51600000e-05,-1.24375000e-03
-8.50000000e-05,-1.25625000e-03
-8.48400000e-05,-9.79687500e-04
-8.46800000e-05,-9.34375000e-04
-8.45200000e-05,-8.75000000e-04
-8.43600000e-05,-1.15781250e-03
-8.42000000e-05,-1.25000000e-03
-8.40400000e-05,-1.49062500e-03
-8.38800000e-05,-1.39687500e-03
-8.37200000e-05,-1.08750000e-03
-8.35600000e-05,-6.12500000e-04
-8.34000000e-05,-1.13437500e-03
-8.32400000e-05,-1.60937500e-03
-8.30800000e-05,-8.14062500e-04
-8.29200000e-05,-1.05781250e-03
-8.27600000e-05,-1.16250000e-03
-8.26000000e-05,-9.43750000e-04
-8.24400000e-05,-8.75000000e-04
-8.22800000e-05,-1.28906250e-03
-8.21200000e-05,-1.20937500e-03
-8.19600000e-05,-6.20312500e-04
-8.18000000e-05,-9.18750000e-04
-8.16400000e-05,-1.51406250e-03
-8.14800000e-05,-9.57812500e-04
-8.13200000e-05,-1.17968750e-03
-8.11600000e-05,-1.09375000e-03
-8.10000000e-05,-9.17187500e-04
-8.08400000e-05,-6.37500000e-04
-8.06800000e-05,-1.06093750e-03
-8.05200000e-05,-9.43750000e-04
-8.03600000e-05,-1.28750000e-03
-8.02000000e-05,-1.20937500e-03
-8.00400000e-05,-5.29687500e-04
-7.98800000e-05,-7.98437500e-04
-7.97200000e-05,-1.21562500e-03
-7.95600000e-05,-1.15156250e-03
-7.94000000e-05,-7.03125000e-04
-7.92400000e-05,-9.59375000e-04
-7.90800000e-05,-8.12500000e-04
-7.89200000e-05,-6.31250000e-04
-7.87600000e-05,-9.98437500e-04
-7.86000000e-05,-1.03125000e-03
-7.84400000e-05,-1.03750000e-03
-7.82800000e-05,-3.95312500e-04
-7.81200000e-05,-1.02500000e-03
-7.79600000e-05,-8.51562500e-04
-7.78000000e-05,-9.60937500e-04
-7.76400000e-05,-7.14062500e-04
-7.74800000e-05,-7.35937500e-04
-7.73200000e-05,-6.35937500e-04
-7.71600000e-05,-8.57812500e-04
-7.70000000e-05,-7.93750000e-04
-7.68400000e-05,-8.76562500e-04
-7.66800000e-05,-1.00468750e-03
-7.65200000e-05,-6.96875000e-04
-7.63600000e-05,-3.18750000e-04
-7.62000000e-05,-6.18750000e-04
-7.60400000e-05,-9.81250000e-04
-7.58800000e-05,-6.35937500e-04
-7.57200000e-05,-5.70312500e-04
-7.55600000e-05,-7.59375000e-04
-7.54000000e-05,-5.68750000e-04
-7.52400000e-05,-4.85937500e-04
-7.50800000e-05,-5.39062500e-04
-7.49200000e-05,-9.95312500e-04
-7.47600000e-05,-1.89062500e-04
-7.46000000e-05,-3.65625000e-04
-7.44400000e-05,-1.18906250e-03
-7.42800000e-05,-5.51562500e-04
-7.41200000e-05,-4.18750000e-04
-7.39600000e-05,-6.78125000e-04
-7.38000000e-05,-4.00000000e-04
-7.36400000e-05,-6.40625000e-05
-7.34800000e-05,-8.26562500e-04
-7.33200000e-05,-5.95312500e-04
-7.31600000e-05,-9.32812500e-04
-7.30000000e-05,-6.00000000e-04
-7.28400000e-05,-1.40625000e-05
-7.26800000e-05,-3.46875000e-04
-7.25200000e-05,-7.53125000e-04
-7.23600000e-05,-6.84375000e-04
-7.22000000e-05,-4.17187500e-04
-7.20400000e-05,-5.10937500e-04
-7.18800000e-05,-2.28125000e-04
-7.17200000e-05,-3.25000000e-04
-7.15600000e-05,-4.09375000e-04
-7.14000000e-05,-5.59375000e-04
-7.12400000e-05,-3.51562500e-04
-7.10800000e-05,3.75000000e-05
-7.09200000e-05,-6.15625000e-04
-7.07600000e-05,-2.73437500e-04
-7.06000000e-05,-4.78125000e-04
-7.04400000e-05,-4.17187500e-04
-7.02800000e-05,-2.60937500e-04
-7.01200000e-05,-3.75000000e-04
-6.99600000e-05,-2.71875000e-04
-6.98000000e-05,-3.23437500e-04
-6.96400000e-05,-6.87500000e-04
-6.94800000e-05,-6.37500000e-04
-6.93200000e-05,-1.09375000e-05
-6.91600000e-05,2.34375000e-05
-6.90000000e-05,-2.90625000e-04
-6.88400000e-05,-6.15625000e-04
-6.86800000e-05,-3.25000000e-04
-6.85200000e-05,-1.45312500e-04
-6.83600000e-05,-1.25000000e-04
-6.82000000e-05,-1.03125000e-04
-6.80400000e-05,-9.37500000e-06
-6.78800000e-05,-3.03125000e-04
-6.77200000e-05,-5.65625000e-04
-6.75600000e-05,2.51562500e-04
-6.74000000e-05,-2.29687500e-04
-6.72400000e-05,-5.17187500e-04
-6.70800000e-05,0.00000000e+00
-6.69200000e-05,-6.25000000e-05
-6.67600000e-05,-2.40625000e-04
-6.66000000e-05,-1.32812500e-04
-6.64400000e-05,2.81250000e-04
-6.62800000e-05,-3.18750000e-04
-6.61200000e-05,-2.84375000e-04
-6.59600000e-05,-4.76562500e-04
-6.58000000e-05,-2.37500000e-04
-6.56400000e-05,3.75000000e-04
-6.54800000e-05,2.17187500e-04
-6.53200000e-05,-2.82812500e-04
-6.51600000e-05,-3.46875000e-04
-6.50000000e-05,1.32812500e-04
-6.48400000e-05,0.00000000e+00
-6.46800000e-05,-2.50000000e-04
-6.45200000e-05,2.01562500e-04
-6.43600000e-05,1.20312500e-04
-6.42000000e-05,-1.92187500e-04
-6.40400000e-05,-2.37500000e-04
-6.38800000e-05,4.14062500e-04
-6.37200000e-05,-1.26562500e-04
-6.35600000e-05,8.59375000e-05
-6.34000000e-05,-1.07812500e-04
-6.32400000e-05,6.09375000e-05
-6.30800000e-05,-3.28125000e-05
-6.29200000e-05,2.00000000e-04
-6.27600000e-05,-3.12500000e-06
-6.26000000e-05,3.12500000e-06
-6.24400000e-05,-3.20312500e-04
-6.22800000e-05,-2.96875000e-04
-6.21200000e-05,1.26562500e-04
-6.19600000e-05,3.75000000e-04
-6.18000000e-05,-1.32812500e-04
-6.16400000e-05,-4.21875000e-04
-6.14800000e-05,2.39062500e-04
-6.13200000e-05,6.25000000e-06
-6.11600000e-05,-5.46875000e-05
-6.10000000e-05,1.68750000e-04
-6.08400000e-05,1.39062500e-04
-6.06800000e-05,-1.87500000e-04
-6.05200000e-05,-5.00000000e-05
-6.03600000e-05,4.59375000e-04
-6.02000000e-05,2.03125000e-04
-6.00400000e-05,-3.46875000e-04
-5.98800000e-05,1.78125000e-04
-5.97200000e-05,-6.56250000e-05
-5.95600000e-05,-5.62500000e-05
-5.94000000e-05,1.95312500e-04
-5.92400000e-05,4.00000000e-04
-5.90800000e-05,1.81250000e-04
-5.89200000e-05,1.46875000e-04
-5.87600000e-05,-1.75000000e-04
-5.86000000e-05,2.96875000e-05
-5.84400000e-05,5.18750000e-04
-5.82800000e-05,1.78125000e-04
-5.81200000e-05,-5.15625000e-05
-5.79600000e-05,6.56250000e-05
-5.78000000e-05,4.10937500e-04
-5.76400000e-05,9.53125000e-05
-5.74800000e-05,3.39062500e-04
-5.73200000e-05,3.62500000e-04
-5.71600000e-05,5.00000000e-05
-5.70000000e-05,8.28125000e-05
-5.68400000e-05,5.15625000e-05
-5.66800000e-05,6.89062500e-04
-5.65200000e-05,1.56250000e-06
-5.63600000e-05,1.73437500e-04
-5.62000000e-05,7.81250000e-05
-5.60400000e-05,3.03125000e-04
-5.58800000e-05,4.51562500e-04
-5.57200000e-05,4.15625000e-04
-5.55600000e-05,1.75000000e-04
-5.54000000e-05,2.14062500e-04
-5.52400000e-05,1.14062500e-04
-5.50800000e-05,-3.75000000e-05
-5.49200000e-05,4.07812500e-04
-5.47600000e-05,7.50000000e-04
-5.46000000e-05,3.46875000e-04
-5.44400000e-05,-1.46875000e-04
-5.42800000e-05,2.76562500e-04
-5.41200000e-05,5.32812500e-04
-5.39600000e-05,2.20312500e-04
-5.38000000e-05,3.84375000e-04
-5.36400000e-05,5.17187500e-04
-5.34800000e-05,4.34375000e-04
-5.33200000e-05,5.78125000e-05
-5.31600000e-05,9.06250000e-04
-5.30000000e-05,5.98437500e-04
-5.28400000e-05,-6.25000000e-05
-5.26800000e-05,5.37500000e-04
-5.25200000e-05,3.87500000e-04
-5.23600000e-05,3.32812500e-04
-5.22000000e-05,5.81250000e-04
-5.20400000e-05,9.10937500e-04
-5.18800000e-05,6.40625000e-05
-5.17200000e-05,2.46875000e-04
-5.15600000e-05,-4.21875000e-05
-5.14000000e-05,3.82812500e-04
-5.12400000e-05,9.12500000e-04
-5.10800000e-05,5.35937500e-04
-5.09200000e-05,1.51562500e-04
-5.07600000e-05,3.93750000e-04
-5.06000000e-05,6.56250000e-04
-5.04400000e-05,3.35937500e-04
-5.02800000e-05,6.09375000e-04
-5.01200000e-05,5.21875000e-04
-4.99600000e-05,4.10937500e-04
-4.98000000e-05,2.82812500e-04
-4.96400000e-05,4.65625000e-04
-4.94800000e-05,9.26562500e-04
-4.93200000e-05,1.37500000e-04
-4.91600000e-05,5.50000000e-04
-4.90000000e-05,2.81250000e-04
-4.88400000e-05,4.70312500e-04
-4.86800000e-05,6.25000000e-04
-4.85200000e-05,6.48437500e-04
-4.83600000e-05,6.09375000e-04
-4.82000000e-05,4.32812500e-04
-4.80400000e-05,7.34375000e-05
-4.78800000e-05,2.15625000e-04
-4.77200000e-05,8.14062500e-04
-4.75600000e-05,9.07812500e-04
-4.74000000e-05,4.67187500e-04
-4.72400000e-05,2.01562500e-04
-4.70800000e-05,5.39062500e-04
-4.69200000e-05,6.46875000e-04
-4.67600000e-05,5.50000000e-04
-4.66000000e-05,6.98437500e-04
-4.64400000e-05,6.71875000e-04
-4.62800000e-05,4.59375000e-04
-4.61200000e-05,3.26562500e-04
-4.59600000e-05,9.54687500e-04
-4.58000000e-05,6.68750000e-04
-4.56400000e-05,2.14062500e-04
-4.54800000e-05,6.34375000e-04
-4.53200000e-05,7.29687500e-04
-4.51600000e-05,6.89062500e-04
-4.50000000e-05,5.20312500e-04
-4.48400000e-05,8.90625000e-04
-4.46800000e-05,3.57812500e-04
-4.45200000e-05,7.43750000e-04
-4.43600000e-05,1.96875000e-04
-4.42000000e-05,4.57812500e-04
-4.40400000e-05,1.13125000e-03
-4.38800000e-05,8.42187500e-04
-4.37200000e-05,3.75000000e-04
-4.35600000e-05,3.06250000e-04
-4.34000000e-05,7.03125000e-04
-4.32400000e-05,8.34375000e-04
-4.30800000e-05,4.50000000e-04
-4.29200000e-05,8.59375000e-04
-4.27600000e-05,8.17187500e-04
-4.26000000e-05,5.01562500e-04
-4.24400000e-05,5.15625000e-04
-4.22800000e-05,1.16875000e-03
-4.21200000e-05,5.04687500e-04
-4.19600000e-05,5.23437500e-04
-4.18000000e-05,6.04687500e-04
-4.16400000e-05,7.81250000e-04
-4.14800000e-05,8.35937500e-04
-4.13200000e-05,9.67187500e-04
-4.11600000e-05,6.67187500e-04
-4.10000000e-05,7.57812500e-04
-4.08400000e-05,3.17187500e-04
-4.06800000e-05,4.25000000e-04
-4.05200000e-05,7.03125000e-04
-4.03600000e-05,1.11875000e-03
-4.02000000e-05,5.76562500e-04
-4.00400000e-05,1.51562500e-04
-3.98800000e-05,8.82812500e-04
-3.97200000e-05,8.92187500e-04
-3.95600000e-05,7.15625000e-04
-3.94000000e-05,7.57812500e-04
-3.92400000e-05,8.84375000e-04
-3.90800000e-05,5.07812500e-04
-3.89200000e-05,6.15625000e-04
-3.87600000e-05,1.14531250e-03
-3.86000000e-05,9.14062500e-04
-3.84400000e-05,3.50000000e-04
-3.82800000e-05,9.06250000e-04
-3.81200000e-05,5.46875000e-04
-3.79600000e-05,7.35937500e-04
-3.78000000e-05,7.68750000e-04
-3.76400000e-05,1.11250000e-03
-3.74800000e-05,8.03125000e-04
-3.73200000e-05,6.46875000e-04
-3.71600000e-05,3.82812500e-04
-3.70000000e-05,7.45312500e-04
-3.68400000e-05,1.20781250e-03
-3.66800000e-05,7.34375000e-04
-3.65200000e-05,3.81250000e-04
-3.63600000e-05,6.32812500e-04
-3.62000000e-05,8.56250000e-04
-3.60400000e-05,7.46875000e-04
-3.58800000e-05,1.07343750e-03
-3.57200000e-05,8.71875000e-04
-3.55600000e-05,7.92187500e-04
-3.54000000e-05,6.15625000e-04
-3.52400000e-05,6.39062500e-04
-3.50800000e-05,1.26406250e-03
-3.49200000e-05,5.90625000e-04
-3.47600000e-05,7.56250000e-04
-3.46000000e-05,6.76562500e-04
-3.44400000e-05,8.89062500e-04
-3.42800000e-05,9.68750000e-04
-3.41200000e-05,1.11093750e-03
-3.39600000e-05,7.10937500e-04
-3.38000000e-05,7.75000000e-04
-3.36400000e-05,6.39062500e-04
-3.34800000e-05,4.96875000e-04
-3.33200000e-05,8.26562500e-04
-3.31600000e-05,1.26718750e-03
-3.30000000e-05,9.01562500e-04
-3.28400000e-05,2.62500000e-04
-3.26800000e-05,8.07812500e-04
-3.25200000e-05,1.05625000e-03
-3.23600000e-05,8.14062500e-04
-3.22000000e-05,8.18750000e-04
-3.20400000e-05,9.37500000e-04
-3.18800000e-05,8.89062500e-04
-3.17200000e-05,4.60937500e-04
-3.15600000e-05,1.36718750e-03
-3.14000000e-05,1.03125000e-03
-3.12400000e-05,2.82812500e-04
-3.10800000e-05,9.07812500e-04
-3.09200000e-05,9.26562500e-04
-3.07600000e-05,8.03125000e-04
-3.06000000e-05,8.56250000e-04
-3.04400000e-05,1.24375000e-03
-3.02800000e-05,6.40625000e-04
-3.01200000e-05,6.96875000e-04
-2.99600000e-05,5.29687500e-04
-2.98000000e-05,8.42187500e-04
-2.96400000e-05,1.34218750e-03
-2.94800000e-05,1.06875000e-03
-2.93200000e-05,5.34375000e-04
-2.91600000e-05,7.90625000e-04
-2.90000000e-05,1.06406250e-03
-2.88400000e-05,7.87500000e-04
-2.86800000e-05,1.11875000e-03
-2.85200000e-05,1.12656250e-03
-2.83600000e-05,9.62500000e-04
-2.82000000e-05,7.31250000e-04
-2.80400000e-05,8.78125000e-04
-2.78800000e-05,1.33437500e-03
-2.77200000e-05,5.51562500e-04
-2.75600000e-05,9.15625000e-04
-2.74000000e-05,7.70312500e-04
-2.72400000e-05,8.98437500e-04
-2.70800000e-05,1.10937500e-03
-2.69200000e-05,8.40625000e-04
-2.67600000e-05,8.20312500e-04
-2.66000000e-05,8.65625000e-04
-2.64400000e-05,6.46875000e-04
-2.62800000e-05,6.15625000e-04
-2.61200000e-05,1.18750000e-03
-2.59600000e-05,1.22656250e-03
-2.58000000e-05,9.15625000e-04
-2.56400000e-05,5.57812500e-04
-2.54800000e-05,8.51562500e-04
-2.53200000e-05,9.17187500e-04
-2.51600000e-05,9.06250000e-04
-2.50000000e-05,1.04375000e-03
-2.48400000e-05,1.04531250e-03
-2.46800000e-05,8.06250000e-04
-2.45200000e-05,7.59375000e-04
-2.43600000e-05,1.36718750e-03
-2.42000000e-05,8.07812500e-04
-2.40400000e-05,6.64062500e-04
-2.38800000e-05,9.20312500e-04
-2.37200000e-05,1.06250000e-03
-2.35600000e-05,9.85937500e-04
-2.34000000e-05,9.51562500e-04
-2.32400000e-05,1.32500000e-03
-2.30800000e-05,7.90625000e-04
-2.29200000e-05,9.12500000e-04
-2.27600000e-05,4.29687500e-04
-2.26000000e-05,7.50000000e-04
-2.24400000e-05,1.37968750e-03
-2.22800000e-05,1.08281250e-03
-2.21200000e-05,8.12500000e-04
-2.19600000e-05,6.73437500e-04
-2.18000000e-05,1.13593750e-03
-2.16400000e-05,1.02968750e-03
-2.14800000e-05,6.87500000e-04
-2.13200000e-05,1.13437500e-03
-2.11600000e-05,1.09375000e-03
-2.10000000e-05,8.01562500e-04
-2.08400000e-05,6.29687500e-04
-2.06800000e-05,1.52968750e-03
-2.05200000e-05,8.35937500e-04
-2.03600000e-05,7.98437500e-04
-2.02000000e-05,9.12500000e-04
-2.00400000e-05,1.01875000e-03
-1.98800000e-05,1.07812500e-03
-1.97200000e-05,1.13125000e-03
-1.95600000e-05,8.87500000e-04
-1.94000000e-05,8.78125000e-04
-1.92400000e-05,5.78125000e-04
-1.90800000e-05,7.37500000e-04
-1.89200000e-05,1.20312500e-03
-1.87600000e-05,1.43125000e-03
-1.86000000e-05,9.78125000e-04
-1.84400000e-05,4.12500000e-04
-1.82800000e-05,1.04687500e-03
-1.81200000e-05,1.08281250e-03
-1.79600000e-05,7.45312500e-04
-1.78000000e-05,1.12343750e-03
-1.76400000e-05,1.10781250e-03
-1.74800000e-05,8.48437500e-04
-1.73200000e-05,8.75000000e-04
-1.71600000e-05,1.36718750e-03
-1.70000000e-05,1.11875000e-03
-1.68400000e-05,6.00000000e-04
-1.66800000e-05,1.26718750e-03
-1.65200000e-05,9.78125000e-04
-1.63600000e-05,9.50000000e-04
-1.62000000e-05,9.56250000e-04
-1.60400000e-05,1.25625000e-03
-1.58800000e-05,9.95312500e-04
-1.57200000e-05,9.53125000e-04
-1.55600000e-05,6.48437500e-04
-1.54000000e-05,8.03125000e-04
-1.52400000e-05,1.38593750e-03
-1.50800000e-05,8.37500000e-04
-1.49200000e-05,6.95312500e-04
-1.47600000e-05,7.98437500e-04
-1.46000000e-05,1.24531250e-03
-1.44400000e-05,9.18750000e-04
-1.42800000e-05,1.21250000e-03
-1.41200000e-05,1.22500000e-03
-1.39600000e-05,7.48437500e-04
-1.38000000e-05,8.87500000e-04
-1.36400000e-05,8.31250000e-04
-1.34800000e-05,1.48125000e-03
-1.33200000e-05,8.34375000e-04
-1.31600000e-05,9.56250000e-04
-1.30000000e-05,8.53125000e-04
-1.28400000e-05,1.04531250e-03
-1.26800000e-05,1.00937500e-03
-1.25200000e-05,1.21406250e-03
-1.23600000e-05,8.53125000e-04
-1.22000000e-05,8.12500000e-04
-1.20400000e-05,8.59375000e-04
-1.18800000e-05,5.53125000e-04
-1.17200000e-05,8.25000000e-04
-1.15600000e-05,1.53437500e-03
-1.14000000e-05,1.07500000e-03
-1.12400000e-05,3.82812500e-04
-1.10800000e-05,9.35937500e-04
-1.09200000e-05,9.60937500e-04
-1.07600000e-05,9.21875000e-04
-1.06000000e-05,1.01093750e-03
-1.04400000e-05,1.19375000e-03
-1.02800000e-05,9.65625000e-04
-1.01200000e-05,4.70312500e-04
-9.96000000e-06,1.36093750e-03
-9.80000000e-06,1.17500000e-03
-9.64000000e-06,3.78125000e-04
-9.48000000e-06,1.02812500e-03
-9.32000000e-06,1.04062500e-03
-9.16000000e-06,8.45312500e-04
-9.00000000e-06,9.70312500e-04
-8.84000000e-06,1.34062500e-03
-8.68000000e-06,7.35937500e-04
-8.52000000e-06,8.42187500e-04
-8.36000000e-06,5.21875000e-04
-8.20000000e-06,7.40625000e-04
