MSci Project Data/H180V.csv

Model,MSO44
Waveform Type,ANALOG
Horizontal Units,s
Sample Interval,1.60000000e-07
Record Length,6250
Zero Index,680.25000000
Vertical Units,V
ANALOG_Thumbnail,

TIME,CH1
-1.08840000e-04,-1.71875000e-03
-1.08680000e-04,-1.04375000e-03
-1.08520000e-04,-1.98750000e-03
-1.08360000e-04,-2.07656250e-03
-1.08200000e-04,-1.21250000e-03
-1.08040000e-04,-2.02656250e-03
-1.07880000e-04,-2.27500000e-03
-1.07720000e-04,-1.17343750e-03
-1.07560000e-04,-1.38281250e-03
-1.07400000e-04,-2.01718750e-03
-1.07240000e-04,-2.00781250e-03
-1.07080000e-04,-9.73437500e-04
-1.06920000e-04,-2.06250000e-03
-1.06760000e-04,-2.37968750e-03
-1.06600000e-04,-1.52968750e-03
-1.06440000e-04,-1.55781250e-03
-1.06280000e-04,-1.36250000e-03
-1.06120000e-04,-1.54375000e-03
-1.05960000e-04,-1.92187500e-03
-1.05800000e-04,-1.68125000e-03
-1.05640000e-04,-1.76562500e-03
-1.05480000e-04,-2.07968750e-03
-1.05320000e-04,-1.95937500e-03
-1.05160000e-04,-8.37500000e-04
-1.05000000e-04,-2.06093750e-03
-1.04840000e-04,-2.16718750e-03
-1.04680000e-04,-7.34375000e-04
-1.04520000e-04,-2.16718750e-03
-1.04360000e-04,-2.25000000e-03
-1.04200000e-04,-1.19687500e-03
-1.04040000e-04,-1.46093750e-03
-1.03880000e-04,-1.80156250e-03
-1.03720000e-04,-1.63906250e-03
-1.03560000e-04,-1.76250000e-03
-1.03400000e-04,-1.35312500e-03
-1.03240000e-04,-2.25625000e-03
-1.03080000e-04,-1.87812500e-03
-1.02920000e-04,-1.52968750e-03
-1.02760000e-04,-1.24218750e-03
-1.02600000e-04,-1.34843750e-03
-1.02440000e-04,-1.71250000e-03
-1.02280000e-04,-2.09843750e-03
-1.02120000e-04,-1.44687500e-03
-1.01960000e-04,-1.65312500e-03
-1.01800000e-04,-2.21250000e-03
-1.01640000e-04,-1.36718750e-03
-1.01480000e-04,-1.05937500e-03
-1.01320000e-04,-1.97343750e-03
-1.01160000e-04,-1.77187500e-03
-1.01000000e-04,-1.41406250e-03
-1.00840000e-04,-2.04531250e-03
-1.00680000e-04,-1.92968750e-03
-1.00520000e-04,-9.06250000e-04
-1.00360000e-04,-1.35312500e-03
-1.00200000e-04,-1.94062500e-03
-1.00040000e-04,-1.88125000e-03
-9.98800000e-05,-8.79687500e-04
-9.97200000e-05,-1.96250000e-03
-9.95600000e-05,-2.32031250e-03
-9.94000000e-05,-1.64218750e-03
-9.92400000e-05,-1.40625000e-03
-9.90800000e-05,-1.22031250e-03
-9.89200000e-05,-1.24531250e-03
-9.87600000e-05,-1.88125000e-03
-9.86000000e-05,-1.82500000e-03
-9.84400000e-05,-1.52968750e-03
-9.82800000e-05,-1.86250000e-03
-9.81200000e-05,-1.92500000e-03
-9.79600000e-05,-8.64062500e-04
-9.78000000e-05,-1.43281250e-03
-9.76400000e-05,-2.51406250e-03
-9.74800000e-05,-1.17812500e-03
-9.73200000e-05,-1.71718750e-03
-9.71600000e-05,-2.12031250e-03
-9.70000000e-05,-1.43125000e-03
-9.68400000e-05,-1.03125000e-03
-9.66800000e-05,-1.74687500e-03
-9.65200000e-05,-1.87812500e-03
-9.63600000e-05,-1.45937500e-03
-9.62000000e-05,-1.07343750e-03
-9.60400000e-05,-2.22500000e-03
-9.58800000e-05,-1.91093750e-03
-9.57200000e-05,-1.28750000e-03
-9.55600000e-05,-1.20312500e-03
-9.54000000e-05,-1.39687500e-03
-9.52400000e-05,-1.74531250e-03
-9.50800000e-05,-1.79531250e-03
-9.49200000e-05,-1.38437500e-03
-9.47600000e-05,-1.57812500e-03
-9.46000000e-05,-2.06250000e-03
-9.44400000e-05,-1.30000000e-03
-9.42800000e-05,-7.51562500e-04
-9.41200000e-05,-2.15000000e-03
-9.39600000e-05,-1.51875000e-03
-9.38000000e-05,-9.76562500e-04
-9.36400000e-05,-2.08906250e-03
-9.34800000e-05,-1.73906250e-03
-9.33200000e-05,-9.14062500e-04
-9.31600000e-05,-1.14687500e-03
-9.30000000e-05,-1.80312500e-03
-9.28400000e-05,-1.59843750e-03
-9.26800000e-05,-8.57812500e-04
-9.25200000e-05,-1.66093750e-03
-9.23600000e-05,-1.97500000e-03
-9.22000000e-05,-1.49687500e-03
-9.20400000e-05,-1.40937500e-03
-9.18800000e-05,-1.16562500e-03
-9.17200000e-05,-1.01562500e-03
-9.15600000e-05,-1.86875000e-03
-9.14000000e-05,-1.48125000e-03
-9.12400000e-05,-1.39687500e-03
-9.10800000e-05,-1.84687500e-03
-9.09200000e-05,-1.67187500e-03
-9.07600000e-05,-3.29687500e-04
-9.06000000e-05,-1.55156250e-03
-9.04400000e-05,-1.83281250e-03
-9.02800000e-05,-8.62500000e-04
-9.01200000e-05,-1.80937500e-03
-8.99600000e-05,-1.68906250e-03
-8.98000000e-05,-1.06406250e-03
-8.96400000e-05,-9.39062500e-04
-8.94800000e-05,-1.38906250e-03
-8.93200000e-05,-1.39843750e-03
-8.91600000e-05,-1.18437500e-03
-8.90000000e-05,-1.01250000e-03
-8.88400000e-05,-1.91406250e-03
-8.86800000e-05,-1.54687500e-03
-8.85200000e-05,-1.08125000e-03
-8.83600000e-05,-7.93750000e-04
-8.82000000e-05,-6.90625000e-04
-8.80400000e-05,-1.32812500e-03
-8.78800000e-05,-1.60781250e-03
-8.77200000e-05,-9.64062500e-04
-8.75600000e-05,-9.25000000e-04
-8.74000000e-05,-1.60937500e-03
-8.72400000e-05,-1.11718750e-03
-8.70800000e-05,-2.01562500e-04
-8.69200000e-05,-1.30312500e-03
-8.67600000e-05,-1.48906250e-03
-8.66000000e-05,-6.29687500e-04
-8.64400000e-05,-1.34375000e-03
-8.62800000e-05,-1.48281250e-03
-8.61200000e-05,-5.23437500e-04
-8.59600000e-05,-6.15625000e-04
-8.58000000e-05,-1.31250000e-03
-8.56400000e-05,-1.22031250e-03
-8.54800000e-05,-1.07812500e-04
-8.53200000e-05,-1.19062500e-03
-8.51600000e-05,-1.72187500e-03
-8.50000000e-05,-7.46875000e-04
-8.48400000e-05,-7.92187500e-04
-8.46800000e-05,-4.93750000e-04
-8.45200000e-05,-7.64062500e-04
-8.43600000e-05,-1.19843750e-03
-8.42000000e-05,-1.00781250e-03
-8.40400000e-05,-9.10937500e-04
-8.38800000e-05,-1.24062500e-03
-8.37200000e-05,-1.08125000e-03
-8.35600000e-05,1.81250000e-04
-8.34000000e-05,-1.08125000e-03
-8.32400000e-05,-1.60937500e-03
-8.30800000e-05,-3.75000000e-05
-8.29200000e-05,-1.28281250e-03
-8.27600000e-05,-1.51875000e-03
-8.26000000e-05,-4.21875000e-04
-8.24400000e-05,-6.78125000e-04
-8.22800000e-05,-1.02187500e-03
-8.21200000e-05,-8.39062500e-04
-8.19600000e-05,-9.87500000e-04
-8.18000000e-05,-3.95312500e-04
-8.16400000e-05,-1.30000000e-03
-8.14800000e-05,-1.11406250e-03
-8.13200000e-05,-7.39062500e-04
-8.11600000e-05,-3.93750000e-04
-8.10000000e-05,-2.31250000e-04
-8.08400000e-05,-7.60937500e-04
-8.06800000e-05,-1.17343750e-03
-8.05200000e-05,-5.57812500e-04
-8.03600000e-05,-7.20312500e-04
-8.02000000e-05,-1.39375000e-03
-8.00400000e-05,-5.25000000e-04
-7.98800000e-05,-9.06250000e-05
-7.97200000e-05,-1.11093750e-03
-7.95600000e-05,-7.07812500e-04
-7.94000000e-05,-4.18750000e-04
-7.92400000e-05,-1.04062500e-03
-7.90800000e-05,-9.78125000e-04
-7.89200000e-05,-1.54687500e-04
-7.87600000e-05,-3.98437500e-04
-7.86000000e-05,-9.32812500e-04
-7.84400000e-05,-9.06250000e-04
-7.82800000e-05,9.53125000e-05
-7.81200000e-05,-9.48437500e-04
-7.79600000e-05,-1.36718750e-03
-7.78000000e-05,-7.09375000e-04
-7.76400000e-05,-5.53125000e-04
-7.74800000e-05,-2.93750000e-04
-7.73200000e-05,-1.23437500e-04
-7.71600000e-05,-9.21875000e-04
-7.70000000e-05,-6.95312500e-04
-7.68400000e-05,-4.67187500e-04
-7.66800000e-05,-1.01562500e-03
-7.65200000e-05,-9.87500000e-04
-7.63600000e-05,1.40625000e-04
-7.62000000e-05,-5.67187500e-04
-7.60400000e-05,-1.37500000e-03
-7.58800000e-05,-1.57812500e-04
-7.57200000e-05,-7.26562500e-04
-7.55600000e-05,-1.12812500e-03
-7.54000000e-05,-3.37500000e-04
-7.52400000e-05,-1.06250000e-04
-7.50800000e-05,-5.73437500e-04
-7.49200000e-05,-9.40625000e-04
-7.47600000e-05,-5.37500000e-04
-7.46000000e-05,-2.18750000e-04
-7.44400000e-05,-1.17343750e-03
-7.42800000e-05,-8.51562500e-04
-7.41200000e-05,-2.25000000e-04
-7.39600000e-05,-1.26562500e-04
-7.38000000e-05,-3.23437500e-04
-7.36400000e-05,-6.89062500e-04
-7.34800000e-05,-9.78125000e-04
-7.33200000e-05,-3.90625000e-04
-7.31600000e-05,-6.57812500e-04
-7.30000000e-05,-1.08750000e-03
-7.28400000e-05,-2.40625000e-04
-7.26800000e-05,4.10937500e-04
-7.25200000e-05,-1.16718750e-03
-7.23600000e-05,-4.62500000e-04
-7.22000000e-05,1.07812500e-04
-7.20400000e-05,-1.06406250e-03
-7.18800000e-05,-6.48437500e-04
-7.17200000e-05,1.20312500e-04
-7.15600000e-05,-1.28125000e-04
-7.14000000e-05,-8.14062500e-04
-7.12400000e-05,-4.81250000e-04
-7.10800000e-05,1.12500000e-04
-7.09200000e-05,-6.78125000e-04
-7.07600000e-05,-1.01562500e-03
-7.06000000e-05,-3.75000000e-04
-7.04400000e-05,-4.45312500e-04
-7.02800000e-05,-4.68750000e-06
-7.01200000e-05,1.85937500e-04
-6.99600000e-05,-8.70312500e-04
-6.98000000e-05,-4.28125000e-04
-6.96400000e-05,-2.57812500e-04
-6.94800000e-05,-9.07812500e-04
-6.93200000e-05,-5.64062500e-04
-6.91600000e-05,6.95312500e-04
-6.90000000e-05,-3.64062500e-04
-6.88400000e-05,-8.09375000e-04
-6.86800000e-05,1.51562500e-04
-6.85200000e-05,-7.12500000e-04
-6.83600000e-05,-6.46875000e-04
-6.82000000e-05,-1.25000000e-04
-6.80400000e-05,2.04687500e-04
-6.78800000e-05,-3.26562500e-04
-6.77200000e-05,-3.04687500e-04
-6.75600000e-05,-1.26562500e-04
-6.74000000e-05,9.37500000e-05
-6.72400000e-05,-1.05625000e-03
-6.70800000e-05,-5.96875000e-04
-6.69200000e-05,2.50000000e-05
-6.67600000e-05,2.25000000e-04
-6.66000000e-05,2.78125000e-04
-6.64400000e-05,-1.48437500e-04
-6.62800000e-05,-5.48437500e-04
-6.61200000e-05,-1.57812500e-04
-6.59600000e-05,1.54687500e-04
-6.58000000e-05,-6.92187500e-04
-6.56400000e-05,-2.46875000e-04
-6.54800000e-05,7.37500000e-04
-6.53200000e-05,-4.25000000e-04
-6.51600000e-05,-4.87500000e-04
-6.50000000e-05,4.37500000e-04
-6.48400000e-05,-3.92187500e-04
-6.46800000e-05,-5.07812500e-04
-6.45200000e-05,4.96875000e-04
-6.43600000e-05,3.10937500e-04
-6.42000000e-05,-4.90625000e-04
-6.40400000e-05,-2.23437500e-04
-6.38800000e-05,9.06250000e-04
-6.37200000e-05,-4.01562500e-04
-6.35600000e-05,-8.32812500e-04
-6.34000000e-05,3.03125000e-04
-6.32400000e-05,1.71875000e-04
-6.30800000e-05,5.82812500e-04
-6.29200000e-05,3.20312500e-04
-6.27600000e-05,-1.32812500e-04
-6.26000000e-05,-5.78125000e-05
-6.24400000e-05,-2.18750000e-05
-6.22800000e-05,-2.04687500e-04
-6.21200000e-05,-2.26562500e-04
-6.19600000e-05,1.14531250e-03
-6.18000000e-05,3.59375000e-05
-6.16400000e-05,-6.06250000e-04
-6.14800000e-05,1.07968750e-03
-6.13200000e-05,-3.15625000e-04
-6.11600000e-05,-5.68750000e-04
-6.10000000e-05,6.26562500e-04
-6.08400000e-05,4.21875000e-04
-6.06800000e-05,-3.90625000e-05
-6.05200000e-05,1.65625000e-04
-6.03600000e-05,1.37500000e-04
-6.02000000e-05,5.87500000e-04
-6.00400000e-05,-3.42187500e-04
-5.98800000e-05,-1.84375000e-04
-5.97200000e-05,3.75000000e-04
-5.95600000e-05,6.79687500e-04
-5.94000000e-05,7.21875000e-04
-5.92400000e-05,3.53125000e-04
-5.90800000e-05,-2.26562500e-04
-5.89200000e-05,4.40625000e-04
-5.87600000e-05,2.96875000e-04
-5.86000000e-05,-3.37500000e-04
-5.84400000e-05,4.35937500e-04
-5.82800000e-05,8.79687500e-04
-5.81200000e-05,-1.40625000e-04
-5.79600000e-05,1.54687500e-04
-5.78000000e-05,4.79687500e-04
-5.76400000e-05,-4.37500000e-05
-5.74800000e-05,-1.35937500e-04
-5.73200000e-05,8.20312500e-04
-5.71600000e-05,5.43750000e-04
-5.70000000e-05,1.20312500e-04
-5.68400000e-05,9.21875000e-05
-5.66800000e-05,1.23125000e-03
-5.65200000e-05,-1.25000000e-05
-5.63600000e-05,-5.82812500e-04
-5.62000000e-05,3.67187500e-04
-5.60400000e-05,5.15625000e-04
-5.58800000e-05,5.81250000e-04
-5.57200000e-05,7.03125000e-04
-5.55600000e-05,1.56250000e-05
-5.54000000e-05,6.25000000e-06
-5.52400000e-05,3.40625000e-04
-5.50800000e-05,1.56250000e-05
-5.49200000e-05,-1.54687500e-04
-5.47600000e-05,1.04218750e-03
-5.46000000e-05,5.12500000e-04
-5.44400000e-05,-5.20312500e-04
-5.42800000e-05,6.68750000e-04
-5.41200000e-05,2.31250000e-04
-5.39600000e-05,4.84375000e-05
-5.38000000e-05,5.29687500e-04
-5.36400000e-05,7.10937500e-04
-5.34800000e-05,3.71875000e-04
-5.33200000e-05,5.15625000e-05
-5.31600000e-05,2.89062500e-04
-5.30000000e-05,8.93750000e-04
-5.28400000e-05,-3.15625000e-04
-5.26800000e-05,-1.07812500e-04
-5.25200000e-05,6.01562500e-04
-5.23600000e-05,7.37500000e-04
-5.22000000e-05,6.07812500e-04
-5.20400000e-05,3.48437500e-04
-5.18800000e-05,1.14062500e-04
-5.17200000e-05,5.21875000e-04
-5.15600000e-05,3.50000000e-04
-5.14000000e-05,-1.87500000e-04
-5.12400000e-05,7.48437500e-04
-5.10800000e-05,1.32812500e-03
-5.09200000e-05,-1.68750000e-04
-5.07600000e-05,3.78125000e-04
-5.06000000e-05,1.03750000e-03
-5.04400000e-05,-2.07812500e-04
-5.02800000e-05,2.46875000e-04
-5.01200000e-05,1.07968750e-03
-4.99600000e-05,8.10937500e-04
-4.98000000e-05,1.68750000e-04
-4.96400000e-05,4.62500000e-04
-4.94800000e-05,9.78125000e-04
-4.93200000e-05,2.87500000e-04
-4.91600000e-05,-2.62500000e-04
-4.90000000e-05,5.60937500e-04
-4.88400000e-05,6.34375000e-04
-4.86800000e-05,8.62500000e-04
-4.85200000e-05,9.39062500e-04
-4.83600000e-05,1.07812500e-04
-4.82000000e-05,3.18750000e-04
-4.80400000e-05,6.89062500e-04
-4.78800000e-05,1.95312500e-04
-4.77200000e-05,3.68750000e-04
-4.75600000e-05,1.43750000e-03
-4.74000000e-05,4.45312500e-04
-4.72400000e-05,-2.03125000e-05
-4.70800000e-05,1.12343750e-03
-4.69200000e-05,1.23437500e-04
-4.67600000e-05,1.06250000e-04
-4.66000000e-05,8.29687500e-04
-4.64400000e-05,9.87500000e-04
-4.62800000e-05,3.82812500e-04
-4.61200000e-05,5.89062500e-04
-4.59600000e-05,6.54687500e-04
-4.58000000e-05,9.53125000e-04
-4.56400000e-05,-3.75000000e-05
-4.54800000e-05,1.18750000e-04
-4.53200000e-05,7.32812500e-04
-4.51600000e-05,1.12187500e-03
-4.50000000e-05,1.17343750e-03
-4.48400000e-05,5.42187500e-04
-4.46800000e-05,2.31250000e-04
-4.45200000e-05,8.28125000e-04
-4.43600000e-05,9.46875000e-04
-4.42000000e-05,2.28125000e-04
-4.40400000e-05,6.82812500e-04
-4.38800000e-05,1.61562500e-03
-4.37200000e-05,3.01562500e-04
-4.35600000e-05,3.57812500e-04
-4.34000000e-05,1.27343750e-03
-4.32400000e-05,4.31250000e-04
-4.30800000e-05,3.50000000e-04
-4.29200000e-05,1.35000000e-03
-4.27600000e-05,1.07187500e-03
-4.26000000e-05,3.68750000e-04
-4.24400000e-05,5.48437500e-04
-4.22800000e-05,1.68593750e-03
-4.21200000e-05,5.00000000e-04
-4.19600000e-05,-7.03125000e-05
-4.18000000e-05,9.65625000e-04
-4.16400000e-05,8.43750000e-04
-4.14800000e-05,1.28281250e-03
-4.13200000e-05,9.81250000e-04
-4.11600000e-05,4.35937500e-04
-4.10000000e-05,7.06250000e-04
-4.08400000e-05,7.73437500e-04
-4.06800000e-05,5.14062500e-04
-4.05200000e-05,6.20312500e-04
-4.03600000e-05,1.74062500e-03
-4.02000000e-05,5.28125000e-04
-4.00400000e-05,4.06250000e-05
-3.98800000e-05,1.93125000e-03
-3.97200000e-05,3.39062500e-04
-3.95600000e-05,4.06250000e-05
-3.94000000e-05,1.27656250e-03
-3.92400000e-05,1.08593750e-03
-3.90800000e-05,6.73437500e-04
-3.89200000e-05,7.40625000e-04
-3.87600000e-05,7.76562500e-04
-3.86000000e-05,1.12968750e-03
-3.84400000e-05,2.60937500e-04
-3.82800000e-05,6.43750000e-04
-3.81200000e-05,9.98437500e-04
-3.79600000e-05,1.39218750e-03
-3.78000000e-05,1.36093750e-03
-3.76400000e-05,6.59375000e-04
-3.74800000e-05,5.04687500e-04
-3.73200000e-05,1.07500000e-03
-3.71600000e-05,1.00312500e-03
-3.70000000e-05,3.45312500e-04
-3.68400000e-05,1.16875000e-03
-3.66800000e-05,1.63125000e-03
-3.65200000e-05,5.56250000e-04
-3.63600000e-05,7.25000000e-04
-3.62000000e-05,1.31562500e-03
-3.60400000e-05,6.15625000e-04
-3.58800000e-05,5.78125000e-04
-3.57200000e-05,1.62812500e-03
-3.55600000e-05,1.27500000e-03
-3.54000000e-05,8.23437500e-04
-3.52400000e-05,7.32812500e-04
-3.50800000e-05,1.69531250e-03
-3.49200000e-05,7.18750000e-04
-3.47600000e-05,1.15625000e-04
-3.46000000e-05,9.92187500e-04
-3.44400000e-05,1.12343750e-03
-3.42800000e-05,1.33437500e-03
-3.41200000e-05,1.49062500e-03
-3.39600000e-05,6.23437500e-04
-3.38000000e-05,7.04687500e-04
-3.36400000e-05,1.10781250e-03
-3.34800000e-05,5.79687500e-04
-3.33200000e-05,6.26562500e-04
-3.31600000e-05,1.55937500e-03
-3.30000000e-05,9.87500000e-04
-3.28400000e-05,8.43750000e-05
-3.26800000e-05,1.49843750e-03
-3.25200000e-05,8.35937500e-04
-3.23600000e-05,4.07812500e-04
-3.22000000e-05,1.22500000e-03
-3.20400000e-05,1.36875000e-03
-3.18800000e-05,9.98437500e-04
-3.17200000e-05,4.78125000e-04
-3.15600000e-05,1.02656250e-03
-3.14000000e-05,1.44218750e-03
-3.12400000e-05,3.26562500e-04
-3.10800000e-05,6.25000000e-04
-3.09200000e-05,1.35468750e-03
-3.07600000e-05,1.38750000e-03
-3.06000000e-05,1.16406250e-03
-3.04400000e-05,8.43750000e-04
-3.02800000e-05,6.65625000e-04
-3.01200000e-05,1.19218750e-03
-2.99600000e-05,1.01250000e-03
-2.98000000e-05,5.28125000e-04
-2.96400000e-05,1.34375000e-03
-2.94800000e-05,1.83437500e-03
-2.93200000e-05,2.53125000e-04
-2.91600000e-05,9.23437500e-04
-2.90000000e-05,1.62187500e-03
-2.88400000e-05,4.84375000e-04
-2.86800000e-05,7.92187500e-04
-2.85200000e-05,1.67812500e-03
-2.83600000e-05,1.53750000e-03
-2.82000000e-05,6.96875000e-04
-2.80400000e-05,1.11875000e-03
-2.78800000e-05,1.57968750e-03
-2.77200000e-05,7.70312500e-04
-2.75600000e-05,3.96875000e-04
-2.74000000e-05,1.09218750e-03
-2.72400000e-05,1.24062500e-03
-2.70800000e-05,1.53593750e-03
-2.69200000e-05,1.48125000e-03
-2.67600000e-05,6.95312500e-04
-2.66000000e-05,1.00468750e-03
-2.64400000e-05,1.25000000e-03
-2.62800000e-05,7.75000000e-04
-2.61200000e-05,8.29687500e-04
-2.59600000e-05,1.98593750e-03
-2.58000000e-05,9.28125000e-04
-2.56400000e-05,4.96875000e-04
-2.54800000e-05,1.76406250e-03
-2.53200000e-05,8.57812500e-04
-2.51600000e-05,6.34375000e-04
-2.50000000e-05,1.35625000e-03
-2.48400000e-05,1.54218750e-03
-2.46800000e-05,1.10312500e-03
-2.45200000e-05,1.10312500e-03
-2.43600000e-05,1.19531250e-03
-2.42000000e-05,1.42500000e-03
-2.40400000e-05,4.15625000e-04
-2.38800000e-05,8.48437500e-04
-2.37200000e-05,1.35468750e-03
-2.35600000e-05,1.40468750e-03
-2.34000000e-05,1.58281250e-03
-2.32400000e-05,1.10000000e-03
-2.30800000e-05,8.01562500e-04
-2.29200000e-05,1.27968750e-03
-2.27600000e-05,1.28125000e-03
-2.26000000e-05,5.62500000e-04
-2.24400000e-05,1.03906250e-03
-2.22800000e-05,1.97968750e-03
-2.21200000e-05,9.00000000e-04
-2.19600000e-05,6.34375000e-04
-2.18000000e-05,1.70781250e-03
-2.16400000e-05,8.46875000e-04
-2.14800000e-05,7.04687500e-04
-2.13200000e-05,1.68437500e-03
-2.11600000e-05,1.46562500e-03
-2.10000000e-05,7.21875000e-04
-2.08400000e-05,7.92187500e-04
-2.06800000e-05,1.86406250e-03
-2.05200000e-05,7.67187500e-04
-2.03600000e-05,2.53125000e-04
-2.02000000e-05,1.31875000e-03
-2.00400000e-05,1.29843750e-03
-1.98800000e-05,1.37968750e-03
-1.97200000e-05,1.16093750e-03
-1.95600000e-05,7.01562500e-04
-1.94000000e-05,1.02031250e-03
-1.92400000e-05,9.87500000e-04
-1.90800000e-05,8.23437500e-04
-1.89200000e-05,8.15625000e-04
-1.87600000e-05,1.99375000e-03
-1.86000000e-05,1.00000000e-03
-1.84400000e-05,2.40625000e-04
-1.82800000e-05,1.90312500e-03
-1.81200000e-05,5.78125000e-04
-1.79600000e-05,4.84375000e-04
-1.78000000e-05,1.49375000e-03
-1.76400000e-05,1.29062500e-03
-1.74800000e-05,9.17187500e-04
-1.73200000e-05,9.60937500e-04
-1.71600000e-05,9.67187500e-04
-1.70000000e-05,1.38125000e-03
-1.68400000e-05,6.10937500e-04
-1.66800000e-05,7.10937500e-04
-1.65200000e-05,1.12500000e-03
-1.63600000e-05,1.51093750e-03
-1.62000000e-05,1.55000000e-03
-1.60400000e-05,9.98437500e-04
-1.58800000e-05,5.34375000e-04
-1.57200000e-05,1.21718750e-03
-1.55600000e-05,1.10937500e-03
-1.54000000e-05,4.54687500e-04
-1.52400000e-05,1.23125000e-03
-1.50800000e-05,1.85781250e-03
-1.49200000e-05,6.60937500e-04
-1.47600000e-05,8.04687500e-04
-1.46000000e-05,1.30781250e-03
-1.44400000e-05,5.20312500e-04
-1.42800000e-05,6.21875000e-04
-1.41200000e-05,1.60468750e-03
-1.39600000e-05,1.37812500e-03
-1.38000000e-05,9.01562500e-04
-1.36400000e-05,6.96875000e-04
-1.34800000e-05,1.65312500e-03
-1.33200000e-05,7.46875000e-04
-1.31600000e-05,2.54687500e-04
-1.30000000e-05,9.92187500e-04
-1.28400000e-05,1.12031250e-03
-1.26800000e-05,1.35468750e-03
-1.25200000e-05,1.62500000e-03
-1.23600000e-05,7.53125000e-04
-1.22000000e-05,7.32812500e-04
-1.20400000e-05,1.08437500e-03
-1.18800000e-05,7.34375000e-04
-1.17200000e-05,6.64062500e-04
-1.15600000e-05,1.70468750e-03
-1.14000000e-05,1.09375000e-03
-1.12400000e-05,-6.25000000e-06
-1.10800000e-05,1.53125000e-03
-1.09200000e-05,9.64062500e-04
-1.07600000e-05,4.28125000e-04
-1.06000000e-05,1.34218750e-03
-1.04400000e-05,1.43125000e-03
-1.02800000e-05,1.05781250e-03
-1.01200000e-05,6.25000000e-04
-9.96000000e-06,1.03906250e-03
-9.80000000e-06,1.65312500e-03
-9.64000000e-06,2.89062500e-04
-9.48000000e-06,5.09375000e-04
-9.32000000e-06,1.31562500e-03
-9.16000000e-06,1.50312500e-03
-9.00000000e-06,1.25781250e-03
-8.84000000e-06,8.31250000e-04
-8.68000000e-06,8.23437500e-04
-8.52000000e-06,1.21093750e-03
-8.36000000e-06,1.01406250e-03
-8.20000000e-06,3.73437500e-04
