MSci Project Data/holes80Vpad1.csv

Model,MSO44
Waveform Type,ANALOG
Horizontal Units,s
Sample Interval,8.00000000e-07
Record Length,5000
Zero Index,399.00000000
Vertical Units,V
ANALOG_Thumbnail,

TIME,CH1
-3.19200000e-04,8.66625000e-01
-3.18400000e-04,8.66781250e-01
-3.17600000e-04,8.67093750e-01
-3.16800000e-04,8.68062500e-01
-3.16000000e-04,8.67343750e-01
-3.15200000e-04,8.68343750e-01
-3.14400000e-04,8.67437500e-01
-3.13600000e-04,8.67531250e-01
-3.12800000e-04,8.67906250e-01
-3.12000000e-04,8.67812500e-01
-3.11200000e-04,8.67937500e-01
-3.10400000e-04,8.67906250e-01
-3.09600000e-04,8.68125000e-01
-3.08800000e-04,8.67906250e-01
-3.08000000e-04,8.67781250e-01
-3.07200000e-04,8.67187500e-01
-3.06400000e-04,8.66781250e-01
-3.05600000e-04,8.67062500e-01
-3.04800000e-04,8.66312500e-01
-3.04000000e-04,8.66687500e-01
-3.03200000e-04,8.66937500e-01
-3.02400000e-04,8.67718750e-01
-3.01600000e-04,8.67500000e-01
-3.00800000e-04,8.67687500e-01
-3.00000000e-04,8.67093750e-01
-2.99200000e-04,8.67156250e-01
-2.98400000e-04,8.67343750e-01
-2.97600000e-04,8.67218750e-01
-2.96800000e-04,8.67687500e-01
-2.96000000e-04,8.67937500e-01
-2.95200000e-04,8.68125000e-01
-2.94400000e-04,8.67468750e-01
-2.93600000e-04,8.67812500e-01
-2.92800000e-04,8.67625000e-01
-2.92000000e-04,8.67281250e-01
-2.91200000e-04,8.67468750e-01
-2.90400000e-04,8.66843750e-01
-2.89600000e-04,8.66656250e-01
-2.88800000e-04,8.67375000e-01
-2.88000000e-04,8.67218750e-01
-2.87200000e-04,8.67093750e-01
-2.86400000e-04,8.67656250e-01
-2.85600000e-04,8.67187500e-01
-2.84800000e-04,8.67343750e-01
-2.84000000e-04,8.67406250e-01
-2.83200000e-04,8.67250000e-01
-2.82400000e-04,8.67562500e-01
-2.81600000e-04,8.67687500e-01
-2.80800000e-04,8.68125000e-01
-2.80000000e-04,8.68343750e-01
-2.79200000e-04,8.68625000e-01
-2.78400000e-04,8.67625000e-01
-2.77600000e-04,8.67062500e-01
-2.76800000e-04,8.67250000e-01
-2.76000000e-04,8.67000000e-01
-2.75200000e-04,8.67437500e-01
-2.74400000e-04,8.67125000e-01
-2.73600000e-04,8.67437500e-01
-2.72800000e-04,8.66875000e-01
-2.72000000e-04,8.67781250e-01
-2.71200000e-04,8.67093750e-01
-2.70400000e-04,8.66781250e-01
-2.69600000e-04,8.67000000e-01
-2.68800000e-04,8.67000000e-01
-2.68000000e-04,8.67125000e-01
-2.67200000e-04,8.67500000e-01
-2.66400000e-04,8.67562500e-01
-2.65600000e-04,8.67968750e-01
-2.64800000e-04,8.68156250e-01
-2.64000000e-04,8.67687500e-01
-2.63200000e-04,8.67500000e-01
-2.62400000e-04,8.68000000e-01
-2.61600000e-04,8.67375000e-01
-2.60800000e-04,8.67281250e-01
-2.60000000e-04,8.67812500e-01
-2.59200000e-04,8.67750000e-01
-2.58400000e-04,8.67625000e-01
-2.57600000e-04,8.67937500e-01
-2.56800000e-04,8.66562500e-01
-2.56000000e-04,8.66875000e-01
-2.55200000e-04,8.66562500e-01
-2.54400000e-04,8.66968750e-01
-2.53600000e-04,8.66687500e-01
-2.52800000e-04,8.67218750e-01
-2.52000000e-04,8.67781250e-01
-2.51200000e-04,8.67281250e-01
-2.50400000e-04,8.67562500e-01
-2.49600000e-04,8.67093750e-01
-2.48800000e-04,8.67312500e-01
-2.48000000e-04,8.67906250e-01
-2.47200000e-04,8.67343750e-01
-2.46400000e-04,8.67781250e-01
-2.45600000e-04,8.67781250e-01
-2.44800000e-04,8.68281250e-01
-2.44000000e-04,8.67500000e-01
-2.43200000e-04,8.68093750e-01
-2.42400000e-04,8.67687500e-01
-2.41600000e-04,8.67937500e-01
-2.40800000e-04,8.67218750e-01
-2.40000000e-04,8.66906250e-01
-2.39200000e-04,8.67125000e-01
-2.38400000e-04,8.67812500e-01
-2.37600000e-04,8.67531250e-01
-2.36800000e-04,8.67375000e-01
-2.36000000e-04,8.67906250e-01
-2.35200000e-04,8.67000000e-01
-2.34400000e-04,8.67125000e-01
-2.33600000e-04,8.67312500e-01
-2.32800000e-04,8.67343750e-01
-2.32000000e-04,8.67500000e-01
-2.31200000e-04,8.68062500e-01
-2.30400000e-04,8.68000000e-01
-2.29600000e-04,8.67468750e-01
-2.28800000e-04,8.68593750e-01
-2.28000000e-04,8.67343750e-01
-2.27200000e-04,8.67156250e-01
-2.26400000e-04,8.67843750e-01
-2.25600000e-04,8.67187500e-01
-2.24800000e-04,8.67343750e-01
-2.24000000e-04,8.67406250e-01
-2.23200000e-04,8.67218750e-01
-2.22400000e-04,8.67312500e-01
-2.21600000e-04,8.67625000e-01
-2.20800000e-04,8.67093750e-01
-2.20000000e-04,8.67062500e-01
-2.19200000e-04,8.66843750e-01
-2.18400000e-04,8.67031250e-01
-2.17600000e-04,8.67218750e-01
-2.16800000e-04,8.67468750e-01
-2.16000000e-04,8.68187500e-01
-2.15200000e-04,8.67781250e-01
-2.14400000e-04,8.68562500e-01
-2.13600000e-04,8.67968750e-01
-2.12800000e-04,8.67500000e-01
-2.12000000e-04,8.67875000e-01
-2.11200000e-04,8.67656250e-01
-2.10400000e-04,8.67687500e-01
-2.09600000e-04,8.67468750e-01
-2.08800000e-04,8.67875000e-01
-2.08000000e-04,8.67312500e-01
-2.07200000e-04,8.67656250e-01
-2.06400000e-04,8.67000000e-01
-2.05600000e-04,8.67093750e-01
-2.04800000e-04,8.67218750e-01
-2.04000000e-04,8.66843750e-01
-2.03200000e-04,8.67062500e-01
-2.02400000e-04,8.67531250e-01
-2.01600000e-04,8.67562500e-01
-2.00800000e-04,8.67468750e-01
-2.00000000e-04,8.68218750e-01
-1.99200000e-04,8.67593750e-01
-1.98400000e-04,8.68031250e-01
-1.97600000e-04,8.68031250e-01
-1.96800000e-04,8.67625000e-01
-1.96000000e-04,8.67937500e-01
-1.95200000e-04,8.68125000e-01
-1.94400000e-04,8.68406250e-01
-1.93600000e-04,8.68093750e-01
-1.92800000e-04,8.68343750e-01
-1.92000000e-04,8.67437500e-01
-1.91200000e-04,8.67343750e-01
-1.90400000e-04,8.67281250e-01
-1.89600000e-04,8.67218750e-01
-1.88800000e-04,8.67156250e-01
-1.88000000e-04,8.66968750e-01
-1.87200000e-04,8.67812500e-01
-1.86400000e-04,8.66968750e-01
-1.85600000e-04,8.67875000e-01
-1.84800000e-04,8.66875000e-01
-1.84000000e-04,8.67593750e-01
-1.83200000e-04,8.67437500e-01
-1.82400000e-04,8.67375000e-01
-1.81600000e-04,8.67593750e-01
-1.80800000e-04,8.67781250e-01
-1.80000000e-04,8.67875000e-01
-1.79200000e-04,8.67906250e-01
-1.78400000e-04,8.68156250e-01
-1.77600000e-04,8.67718750e-01
-1.76800000e-04,8.67468750e-01
-1.76000000e-04,8.67500000e-01
-1.75200000e-04,8.66687500e-01
-1.74400000e-04,8.67625000e-01
-1.73600000e-04,8.67906250e-01
-1.72800000e-04,8.67437500e-01
-1.72000000e-04,8.67343750e-01
-1.71200000e-04,8.67718750e-01
-1.70400000e-04,8.67062500e-01
-1.69600000e-04,8.67218750e-01
-1.68800000e-04,8.66843750e-01
-1.68000000e-04,8.67562500e-01
-1.67200000e-04,8.67343750e-01
-1.66400000e-04,8.67812500e-01
-1.65600000e-04,8.67875000e-01
-1.64800000e-04,8.67718750e-01
-1.64000000e-04,8.68406250e-01
-1.63200000e-04,8.67718750e-01
-1.62400000e-04,8.67875000e-01
-1.61600000e-04,8.67937500e-01
-1.60800000e-04,8.67343750e-01
-1.60000000e-04,8.67750000e-01
-1.59200000e-04,8.67843750e-01
-1.58400000e-04,8.67750000e-01
-1.57600000e-04,8.67218750e-01
-1.56800000e-04,8.67250000e-01
-1.56000000e-04,8.66937500e-01
-1.55200000e-04,8.67312500e-01
-1.54400000e-04,8.67343750e-01
-1.53600000e-04,8.66750000e-01
-1.52800000e-04,8.67468750e-01
-1.52000000e-04,8.67812500e-01
-1.51200000e-04,8.67437500e-01
-1.50400000e-04,8.67500000e-01
-1.49600000e-04,8.68218750e-01
-1.48800000e-04,8.67718750e-01
-1.48000000e-04,8.67562500e-01
-1.47200000e-04,8.67718750e-01
-1.46400000e-04,8.67656250e-01
-1.45600000e-04,8.67343750e-01
-1.44800000e-04,8.68000000e-01
-1.44000000e-04,8.68156250e-01
-1.43200000e-04,8.67375000e-01
-1.42400000e-04,8.68031250e-01
-1.41600000e-04,8.67156250e-01
-1.40800000e-04,8.67093750e-01
-1.40000000e-04,8.67187500e-01
-1.39200000e-04,8.67093750e-01
-1.38400000e-04,8.66781250e-01
-1.37600000e-04,8.67312500e-01
-1.36800000e-04,8.66875000e-01
-1.36000000e-04,8.67625000e-01
-1.35200000e-04,8.67281250e-01
-1.34400000e-04,8.67062500e-01
-1.33600000e-04,8.67000000e-01
-1.32800000e-04,8.66843750e-01
-1.32000000e-04,8.66468750e-01
-1.31200000e-04,8.66875000e-01
-1.30400000e-04,8.67156250e-01
-1.29600000e-04,8.67343750e-01
-1.28800000e-04,8.67125000e-01
-1.28000000e-04,8.67312500e-01
-1.27200000e-04,8.66687500e-01
-1.26400000e-04,8.66687500e-01
-1.25600000e-04,8.66843750e-01
-1.24800000e-04,8.66906250e-01
-1.24000000e-04,8.65968750e-01
-1.23200000e-04,8.67000000e-01
-1.22400000e-04,8.66750000e-01
-1.21600000e-04,8.66593750e-01
-1.20800000e-04,8.66718750e-01
-1.20000000e-04,8.66687500e-01
-1.19200000e-04,8.66343750e-01
-1.18400000e-04,8.67062500e-01
-1.17600000e-04,8.66625000e-01
-1.16800000e-04,8.66750000e-01
-1.16000000e-04,8.67093750e-01
-1.15200000e-04,8.67125000e-01
-1.14400000e-04,8.67062500e-01
-1.13600000e-04,8.67343750e-01
-1.12800000e-04,8.66562500e-01
-1.12000000e-04,8.66687500e-01
-1.11200000e-04,8.66656250e-01
-1.10400000e-04,8.66312500e-01
-1.09600000e-04,8.66375000e-01
-1.08800000e-04,8.66937500e-01
-1.08000000e-04,8.66781250e-01
-1.07200000e-04,8.66312500e-01
-1.06400000e-04,8.67093750e-01
-1.05600000e-04,8.66406250e-01
-1.04800000e-04,8.66062500e-01
-1.04000000e-04,8.66468750e-01
-1.03200000e-04,8.66375000e-01
-1.02400000e-04,8.66281250e-01
-1.01600000e-04,8.66718750e-01
-1.00800000e-04,8.66906250e-01
-1.00000000e-04,8.66718750e-01
-9.92000000e-05,8.66843750e-01
-9.84000000e-05,8.66656250e-01
-9.76000000e-05,8.66437500e-01
-9.68000000e-05,8.67000000e-01
-9.60000000e-05,8.66593750e-01
-9.52000000e-05,8.66968750e-01
-9.44000000e-05,8.66968750e-01
-9.36000000e-05,8.66906250e-01
-9.28000000e-05,8.66906250e-01
-9.20000000e-05,8.67218750e-01
-9.12000000e-05,8.67000000e-01
-9.04000000e-05,8.66625000e-01
-8.96000000e-05,8.66843750e-01
-8.88000000e-05,8.66718750e-01
-8.80000000e-05,8.67156250e-01
-8.72000000e-05,8.67406250e-01
-8.64000000e-05,8.67281250e-01
-8.56000000e-05,8.66843750e-01
-8.48000000e-05,8.67781250e-01
-8.40000000e-05,8.66781250e-01
-8.32000000e-05,8.66937500e-01
-8.24000000e-05,8.66812500e-01
-8.16000000e-05,8.66875000e-01
-8.08000000e-05,8.66625000e-01
-8.00000000e-05,8.67218750e-01
-7.92000000e-05,8.67406250e-01
-7.84000000e-05,8.66812500e-01
-7.76000000e-05,8.67343750e-01
-7.68000000e-05,8.66906250e-01
-7.60000000e-05,8.66968750e-01
-7.52000000e-05,8.66906250e-01
-7.44000000e-05,8.66937500e-01
-7.36000000e-05,8.67187500e-01
-7.28000000e-05,8.67187500e-01
-7.20000000e-05,8.67656250e-01
-7.12000000e-05,8.67375000e-01
-7.04000000e-05,8.67937500e-01
-6.96000000e-05,8.67281250e-01
-6.88000000e-05,8.67781250e-01
-6.80000000e-05,8.66843750e-01
-6.72000000e-05,8.67187500e-01
-6.64000000e-05,8.67218750e-01
-6.56000000e-05,8.67406250e-01
-6.48000000e-05,8.67968750e-01
-6.40000000e-05,8.67625000e-01
-6.32000000e-05,8.68031250e-01
-6.24000000e-05,8.67437500e-01
-6.16000000e-05,8.67281250e-01
-6.08000000e-05,8.67218750e-01
-6.00000000e-05,8.67250000e-01
-5.92000000e-05,8.67062500e-01
-5.84000000e-05,8.67781250e-01
-5.76000000e-05,8.67406250e-01
-5.68000000e-05,8.67000000e-01
-5.60000000e-05,8.67968750e-01
-5.52000000e-05,8.67500000e-01
-5.44000000e-05,8.67468750e-01
-5.36000000e-05,8.67187500e-01
-5.28000000e-05,8.67406250e-01
-5.20000000e-05,8.68062500e-01
-5.12000000e-05,8.67906250e-01
-5.04000000e-05,8.67562500e-01
-4.96000000e-05,8.67875000e-01
-4.88000000e-05,8.68375000e-01
-4.80000000e-05,8.68031250e-01
-4.72000000e-05,8.68125000e-01
-4.64000000e-05,8.67468750e-01
-4.56000000e-05,8.67406250e-01
-4.48000000e-05,8.67750000e-01
-4.40000000e-05,8.68187500e-01
-4.32000000e-05,8.67906250e-01
-4.24000000e-05,8.67968750e-01
-4.16000000e-05,8.68625000e-01
-4.08000000e-05,8.67500000e-01
-4.00000000e-05,8.67500000e-01
-3.92000000e-05,8.67687500e-01
-3.84000000e-05,8.67937500e-01
-3.76000000e-05,8.67500000e-01
-3.68000000e-05,8.68187500e-01
-3.60000000e-05,8.68375000e-01
-3.52000000e-05,8.68000000e-01
-3.44000000e-05,8.68406250e-01
-3.36000000e-05,8.67812500e-01
-3.28000000e-05,8.67906250e-01
-3.20000000e-05,8.67812500e-01
-3.12000000e-05,8.67656250e-01
-3.04000000e-05,8.67687500e-01
-2.96000000e-05,8.68000000e-01
-2.88000000e-05,8.68187500e-01
-2.80000000e-05,8.68000000e-01
-2.72000000e-05,8.68375000e-01
-2.64000000e-05,8.67781250e-01
-2.56000000e-05,8.67656250e-01
-2.48000000e-05,8.67375000e-01
-2.40000000e-05,8.67531250e-01
-2.32000000e-05,8.67906250e-01
-2.24000000e-05,8.67968750e-01
-2.16000000e-05,8.68500000e-01
-2.08000000e-05,8.68468750e-01
-2.00000000e-05,8.68250000e-01
-1.92000000e-05,8.67937500e-01
-1.84000000e-05,8.67937500e-01
-1.76000000e-05,8.67781250e-01
-1.68000000e-05,8.67593750e-01
-1.60000000e-05,8.67750000e-01
-1.52000000e-05,8.68312500e-01
-1.44000000e-05,8.68250000e-01
-1.36000000e-05,8.67562500e-01
-1.28000000e-05,8.68437500e-01
-1.20000000e-05,8.67500000e-01
-1.12000000e-05,8.67781250e-01
-1.04000000e-05,8.68000000e-01
-9.60000000e-06,8.67437500e-01
-8.80000000e-06,8.67718750e-01
-8.00000000e-06,8.67875000e-01
-7.20000000e-06,8.67812500e-01
-6.40000000e-06,8.67968750e-01
-5.60000000e-06,8.68375000e-01
-4.80000000e-06,8.67875000e-01
-4.00000000e-06,8.68000000e-01
-3.20000000e-06,8.67843750e-01
-2.40000000e-06,8.67687500e-01
-1.60000000e-06,8.67687500e-01
-8.00000000e-07,8.68312500e-01
0.00000000e+00,8.68250000e-01
8.00000000e-07,1.97759375e+00
1.60000000e-06,1.71584375e+00
2.40000000e-06,1.42631250e+00
3.20000000e-06,1.30412500e+00
4.00000000e-06,1.24171875e+00
4.80000000e-06,1.20390625e+00
5.60000000e-06,1.17737500e+00
6.40000000e-06,1.15815625e+00
7.20000000e-06,1.14290625e+00
8.00000000e-06,1.13081250e+00
8.80000000e-06,1.12140625e+00
9.60000000e-06,1.11171875e+00
1.04000000e-05,1.10493750e+00
1.12000000e-05,1.09878125e+00
1.20000000e-05,1.09325000e+00
1.28000000e-05,1.08856250e+00
1.36000000e-05,1.08478125e+00
1.44000000e-05,1.08087500e+00
1.52000000e-05,1.07756250e+00
1.60000000e-05,1.07453125e+00
1.68000000e-05,1.07131250e+00
1.76000000e-05,1.06893750e+00
1.84000000e-05,1.06621875e+00
1.92000000e-05,1.06406250e+00
2.00000000e-05,1.06206250e+00
2.08000000e-05,1.06103125e+00
2.16000000e-05,1.05906250e+00
2.24000000e-05,1.05768750e+00
2.32000000e-05,1.05650000e+00
2.40000000e-05,1.05462500e+00
2.48000000e-05,1.05387500e+00
2.56000000e-05,1.05221875e+00
2.64000000e-05,1.05187500e+00
2.72000000e-05,1.05065625e+00
2.80000000e-05,1.05028125e+00
2.88000000e-05,1.04956250e+00
2.96000000e-05,1.04868750e+00
3.04000000e-05,1.04868750e+00
3.12000000e-05,1.04728125e+00
3.20000000e-05,1.04625000e+00
3.28000000e-05,1.04581250e+00
3.36000000e-05,1.04496875e+00
3.44000000e-05,1.04468750e+00
3.52000000e-05,1.04428125e+00
3.60000000e-05,1.04334375e+00
3.68000000e-05,1.04315625e+00
3.76000000e-05,1.04271875e+00
3.84000000e-05,1.04209375e+00
3.92000000e-05,1.04143750e+00
4.00000000e-05,1.04065625e+00
4.08000000e-05,1.04031250e+00
4.16000000e-05,1.04059375e+00
4.24000000e-05,1.04046875e+00
4.32000000e-05,1.04031250e+00
4.40000000e-05,1.04000000e+00
4.48000000e-05,1.04028125e+00
4.56000000e-05,1.03946875e+00
4.64000000e-05,1.03953125e+00
4.72000000e-05,1.03893750e+00
4.80000000e-05,1.03900000e+00
4.88000000e-05,1.03821875e+00
4.96000000e-05,1.03890625e+00
5.04000000e-05,1.03906250e+00
5.12000000e-05,1.03800000e+00
5.20000000e-05,1.03887500e+00
5.28000000e-05,1.03737500e+00
5.36000000e-05,1.03725000e+00
5.44000000e-05,1.03715625e+00
5.52000000e-05,1.03715625e+00
5.60000000e-05,1.03734375e+00
5.68000000e-05,1.03781250e+00
5.76000000e-05,1.03718750e+00
5.84000000e-05,1.03753125e+00
5.92000000e-05,1.03803125e+00
6.00000000e-05,1.03756250e+00
6.08000000e-05,1.03775000e+00
6.16000000e-05,1.03759375e+00
6.24000000e-05,1.03737500e+00
6.32000000e-05,1.03759375e+00
6.40000000e-05,1.03778125e+00
6.48000000e-05,1.03746875e+00
6.56000000e-05,1.03803125e+00
6.64000000e-05,1.03793750e+00
6.72000000e-05,1.03746875e+00
6.80000000e-05,1.03703125e+00
6.88000000e-05,1.03696875e+00
6.96000000e-05,1.03703125e+00
7.04000000e-05,1.03668750e+00
7.12000000e-05,1.03706250e+00
7.20000000e-05,1.03762500e+00
7.28000000e-05,1.03728125e+00
7.36000000e-05,1.03815625e+00
7.44000000e-05,1.03725000e+00
7.52000000e-05,1.03743750e+00
7.60000000e-05,1.03740625e+00
7.68000000e-05,1.03809375e+00
7.76000000e-05,1.03796875e+00
7.84000000e-05,1.03837500e+00
7.92000000e-05,1.03881250e+00
8.00000000e-05,1.03887500e+00
8.08000000e-05,1.03925000e+00
8.16000000e-05,1.03868750e+00
8.24000000e-05,1.03862500e+00
8.32000000e-05,1.03812500e+00
8.40000000e-05,1.03840625e+00
8.48000000e-05,1.03856250e+00
8.56000000e-05,1.03890625e+00
8.64000000e-05,1.03875000e+00
8.72000000e-05,1.03915625e+00
8.80000000e-05,1.03971875e+00
8.88000000e-05,1.03878125e+00
8.96000000e-05,1.03896875e+00
9.04000000e-05,1.03896875e+00
9.12000000e-05,1.03915625e+00
9.20000000e-05,1.03918750e+00
9.28000000e-05,1.03965625e+00
9.36000000e-05,1.04053125e+00
9.44000000e-05,1.04028125e+00
9.52000000e-05,1.04100000e+00
9.60000000e-05,1.04046875e+00
9.68000000e-05,1.04084375e+00
9.76000000e-05,1.04071875e+00
9.84000000e-05,1.04071875e+00
9.92000000e-05,1.04084375e+00
1.00000000e-04,1.04137500e+00
1.00800000e-04,1.04087500e+00
1.01600000e-04,1.04121875e+00
1.02400000e-04,1.04175000e+00
1.03200000e-04,1.04131250e+00
1.04000000e-04,1.04134375e+00
1.04800000e-04,1.04146875e+00
1.05600000e-04,1.04146875e+00
1.06400000e-04,1.04181250e+00
1.07200000e-04,1.04284375e+00
1.08000000e-04,1.04290625e+00
1.08800000e-04,1.04312500e+00
1.09600000e-04,1.04371875e+00
1.10400000e-04,1.04325000e+00
1.11200000e-04,1.04325000e+00
1.12000000e-04,1.04321875e+00
1.12800000e-04,1.04406250e+00
1.13600000e-04,1.04378125e+00
1.14400000e-04,1.04381250e+00
1.15200000e-04,1.04459375e+00
1.16000000e-04,1.04421875e+00
1.16800000e-04,1.04490625e+00
1.17600000e-04,1.04440625e+00
1.18400000e-04,1.04456250e+00
1.19200000e-04,1.04403125e+00
1.20000000e-04,1.04409375e+00
1.20800000e-04,1.04462500e+00
1.21600000e-04,1.04484375e+00
1.22400000e-04,1.04459375e+00
1.23200000e-04,1.04540625e+00
1.24000000e-04,1.04596875e+00
1.24800000e-04,1.04546875e+00
1.25600000e-04,1.04584375e+00
1.26400000e-04,1.04568750e+00
1.27200000e-04,1.04646875e+00
1.28000000e-04,1.04675000e+00
1.28800000e-04,1.04753125e+00
1.29600000e-04,1.04821875e+00
1.30400000e-04,1.04803125e+00
1.31200000e-04,1.04831250e+00
1.32000000e-04,1.04812500e+00
1.32800000e-04,1.04790625e+00
1.33600000e-04,1.04746875e+00
1.34400000e-04,1.04821875e+00
1.35200000e-04,1.04756250e+00
1.36000000e-04,1.04784375e+00
1.36800000e-04,1.04793750e+00
1.37600000e-04,1.04806250e+00
1.38400000e-04,1.04903125e+00
1.39200000e-04,1.04837500e+00
1.40000000e-04,1.04871875e+00
1.40800000e-04,1.04865625e+00
1.41600000e-04,1.04903125e+00
1.42400000e-04,1.04953125e+00
1.43200000e-04,1.04984375e+00
1.44000000e-04,1.05046875e+00
1.44800000e-04,1.05056250e+00
1.45600000e-04,1.05143750e+00
1.46400000e-04,1.05056250e+00
1.47200000e-04,1.05118750e+00
1.48000000e-04,1.05075000e+00
1.48800000e-04,1.05065625e+00
1.49600000e-04,1.05078125e+00
1.50400000e-04,1.05171875e+00
1.51200000e-04,1.05143750e+00
1.52000000e-04,1.05143750e+00
1.52800000e-04,1.05209375e+00
1.53600000e-04,1.05153125e+00
1.54400000e-04,1.05153125e+00
1.55200000e-04,1.05140625e+00
1.56000000e-04,1.05196875e+00
1.56800000e-04,1.05171875e+00
1.57600000e-04,1.05262500e+00
1.58400000e-04,1.05325000e+00
1.59200000e-04,1.05331250e+00
1.60000000e-04,1.05459375e+00
1.60800000e-04,1.05353125e+00
1.61600000e-04,1.05409375e+00
1.62400000e-04,1.05406250e+00
1.63200000e-04,1.05446875e+00
1.64000000e-04,1.05440625e+00
1.64800000e-04,1.05478125e+00
1.65600000e-04,1.05468750e+00
1.66400000e-04,1.05534375e+00
1.67200000e-04,1.05543750e+00
1.68000000e-04,1.05518750e+00
1.68800000e-04,1.05528125e+00
1.69600000e-04,1.05465625e+00
1.70400000e-04,1.05493750e+00
1.71200000e-04,1.05537500e+00
1.72000000e-04,1.05584375e+00
1.72800000e-04,1.05590625e+00
1.73600000e-04,1.05621875e+00
1.74400000e-04,1.05678125e+00
1.75200000e-04,1.05621875e+00
1.76000000e-04,1.05681250e+00
1.76800000e-04,1.05700000e+00
1.77600000e-04,1.05737500e+00
1.78400000e-04,1.05734375e+00
1.79200000e-04,1.05825000e+00
1.80000000e-04,1.05796875e+00
1.80800000e-04,1.05843750e+00
1.81600000e-04,1.05912500e+00
1.82400000e-04,1.05840625e+00
1.83200000e-04,1.05800000e+00
1.84000000e-04,1.05831250e+00
1.84800000e-04,1.05831250e+00
1.85600000e-04,1.05781250e+00
1.86400000e-04,1.05878125e+00
1.87200000e-04,1.05862500e+00
1.88000000e-04,1.05909375e+00
1.88800000e-04,1.05953125e+00
1.89600000e-04,1.05896875e+00
1.90400000e-04,1.05940625e+00
1.91200000e-04,1.05928125e+00
1.92000000e-04,1.05946875e+00
1.92800000e-04,1.05987500e+00
1.93600000e-04,1.06078125e+00
1.94400000e-04,1.06043750e+00
1.95200000e-04,1.06112500e+00
1.96000000e-04,1.06137500e+00
1.96800000e-04,1.06087500e+00
1.97600000e-04,1.06128125e+00
